
# For specific combinations of culture, religion and other such triggers
# Will pick the first valid one it finds in list

#Heir and consort titles are generally kept simple for clarity unless there is something special in particular that can be used.

swamp_wardenship = {
	rank = {
		1 = SWAMP_WARDENSHIP
		2 = SWAMP_WARDENSHIP
		3 = SWAMP_WARDENSHIP
	}
	
	ruler_male = {
		1 = ELDER
		2 = ELDER
		3 = ELDER
	}

	ruler_female = {
		1 = ELDER
		2 = ELDER
		3 = ELDER
	}

	trigger = {
		tag = S50
		government = theocracy
	}
}

baashidi_theocracy = {
	rank = {
		1 = QABIIKA
		2 = QABIIKA
		3 = QABIIKA
	}
	
	ruler_male = {
		1 = MUKARRIB
		2 = MUKARRIB
		3 = MUKARRIB
	}
	
	ruler_female  ={
		1 = MUKARRIB
		2 = MUKARRIB
		3 = MUKARRIB
	}

	consort_male = {
		1 = MALIK
		2 = MALIK
		3 = MALIK
	}

	consort_female = {
		1 = MALIKAH
		2 = MALIKAH
		3 = MALIKAH
	}
	
	trigger = {
		NOT = { has_reform = baashidi_adventurer_reform }
		AND = {
			OR = {
				culture_group = baashidi
				religion = rinta_seekers
			}
			government = theocracy
		}
	}
}

baashidi_kingdoms = {
	rank = {
		1 = QABIIKA
		2 = QABIIKA
		3 = QABIIKA
	}
	
	ruler_male = {
		1 = MAFAYME
		2 = GARAAD
		3 = GARAAD
	}
	
	ruler_female  ={
		1 = MAFAYMA
		2 = MAFAYMA
		3 = MAFAYMA
	}

	consort_male = {
		1 = MAFAYME
		2 = MAFAYME
		3 = MAFAYME
	}

	consort_female = {
		1 = MAFAYMA
		2 = MAFAYMA
		3 = MAFAYMA
	}
	
	trigger = {
		culture_group = baashidi
		government = monarchy
	}
}

baashidi_other = {
	rank = {
		1 = BAASHIDI_COUNCIL
		2 = BAASHIDI_COUNCIL
		3 = BAASHIDI_COUNCIL
	}
	
	ruler_male = {
		1 = MALAKH
		2 = MALAKH
		3 = MALAKH
	}
	
	ruler_female  ={
		1 = MALAKH
		2 = MALAKH
		3 = MALAKH
	}

	consort_male = {
		1 = MAFAYME
		2 = MAFAYME
		3 = MAFAYME
	}

	consort_female = {
		1 = MAFAYMA
		2 = MAFAYMA
		3 = MAFAYMA
	}
	
	trigger = {
		culture_group = baashidi
		NOT = {
			government = monarchy
		}
		OR = {
			NOT = { government = theocracy }
			has_reform = baashidi_adventurer_reform
		}
	}
}

namasoguziza_reform = {
	rank = {
		1 = CONFEDERACY
		2 = CONFEDERACY
		3 = CONFEDERACY
	}
	
	ruler_male = {
		1 = INGO
		2 = INGO
		3 = NAMINGO
	}
	
	ruler_female = {
		1 = INGO
		2 = INGO
		3 = NAMINGO
	}
	
	trigger = {
		has_reform = namasoguziza_reform
	}
}

namasomitingo_reform = {
	rank = {
		1 = MITIZA
		2 = MITIZA
		3 = GUMITIZA
	}
	
	ruler_male = {
		1 = MITINGO
		2 = MITINGO
		3 = GUMITINGO
	}
	
	ruler_female  ={
		1 = MITINGO
		2 = MITINGO
		3 = GUMITINGO
	}
	
	trigger = {
		culture_group = inyaswarosa
		government = republic
		NOT = {
			has_reform = seventeen_families_reform
		}
	}
}

namasonamingo_reform = {
	rank = {
		1 = SHAMANIC_MATRIARCHY
		2 = SHAMANIC_MATRIARCHY
		3 = SHAMANIC_MATRIARCHY
	}
	
	ruler_male = {
		1 = NAMINGO
		2 = NAMINGO
		3 = GUNAMINGO
	}
	
	ruler_female  ={
		1 = NAMINGO
		2 = NAMINGO
		3 = GUNAMINGO
	}
	
	trigger = {
		culture_group = inyaswarosa
		NOT = {
			has_reform = dakinshi_warlord_reform
			government = republic
			has_reform = namasoguziza_reform
		}
	}
}

dakinshi_warlord_reform = {
	rank = {
		1 = KIKIRIYA
		2 = KIKIRIYA
		3 = GUKIKIRIYA
	}
	
	ruler_male = {
		1 = VITARAGOMO
		2 = VITARAGOMO
		3 = GUVITARAGOMO
	}
	
	ruler_female = {
		1 = VITARAGOMO
		2 = VITARAGOMO
		3 = GUVITARAGOMO
	}
	
	trigger = {
		has_reform = dakinshi_warlord_reform
	}
}



mengi_kingdom_name = {

	rank = {
		1 = MENGI_KINGDOM_TITLE
		2 = MENGI_HIGH_KINGDOM
		3 = MENGI_EMPIRE
	}
	
	ruler_male = {
		1 = MENGI_MEZHI
		2 = MENGI_HIGH_MEZHI
		3 = MENGI_MEZHI_OF_MEZHI
	}
	
	ruler_female = {
		1 = MENGI_MEZHI
		2 = MENGI_HIGH_MEZHI
		3 = MENGI_MEZHI_OF_MEZHI
	}

	trigger = {
		culture_group = mengi
		government = monarchy
		NOT = { has_reform = ngwenamasonamingo_reform }
	}
}

mengi_tribe = {

	rank = {
		1 = MENGI_TRIBE_GOSA
		2 = MENGI_TRIBE_GOSA
		3 = MENGI_TRIBE_HIGH_GOSA
	}
	
	ruler_male = {
		1 = MENGI_MEZHI
		2 = MENGI_MEZHI
		3 = MENGI_HIGH_MEZHI
	}
	
	ruler_female = {
		1 = MENGI_MEZHI
		2 = MENGI_MEZHI
		3 = MENGI_HIGH_MEZHI
	}

	trigger = {
		culture_group = mengi
		government = tribal
	}
}

gov_ravelian_papal_government = {
	rank = {
		1 = HIGH_RECTORATE
		2 = HIGH_RECTORATE
		3 = HIGH_RECTORATE
	}
	
	ruler_male = {
		1 = HIGH_RECTOR
		2 = HIGH_RECTOR
		3 = HIGH_RECTOR
	}
	
	ruler_female  ={
		1 = HIGH_RECTOR
		2 = HIGH_RECTOR
		3 = HIGH_RECTOR
	}
	
	trigger = {
		has_reform = papacy_reform
	}
}

wulin = {
	rank = {
		1 = WULIN
		2 = WULIN
		3 = WULIN
	}

	ruler_male = {
		1 = FIRST_MASTER
		2 = FIRST_MASTER
		3 = FIRST_MASTER
	}

	ruler_female = {
		1 = FIRST_MASTER
		2 = FIRST_MASTER
		3 = FIRST_MASTER
	}
	
	heir_male = {
		1 = CHOSEN_DISCIPLE
		2 = CHOSEN_DISCIPLE
		3 = CHOSEN_DISCIPLE
	}
	
	heir_female = {
		1 = CHOSEN_DISCIPLE
		2 = CHOSEN_DISCIPLE
		3 = CHOSEN_DISCIPLE
	}

	trigger = {
		has_reform = wulin
	}
}

xiaken = {
	rank = {
		1 = XIAKEN
		2 = XIAKEN
		3 = XIAKEN
	}

	ruler_male = {
		1 = RIGHTEOUS_MASTER
		2 = RIGHTEOUS_MASTER
		3 = RIGHTEOUS_MASTER
	}

	ruler_female = {
		1 = RIGHTEOUS_MASTER
		2 = RIGHTEOUS_MASTER
		3 = RIGHTEOUS_MASTER
	}
	
	heir_male = {
		1 = CHOSEN_DISCIPLE
		2 = CHOSEN_DISCIPLE
		3 = CHOSEN_DISCIPLE
	}
	
	heir_female = {
		1 = CHOSEN_DISCIPLE
		2 = CHOSEN_DISCIPLE
		3 = CHOSEN_DISCIPLE
	}

	trigger = {
		OR = {
			has_reform = xiaken
			has_reform = indep_xiaken
		}	
	}
}

one_xia = {
	rank = {
		1 = ONE_XIA
		2 = ONE_XIA
		3 = ONE_XIA
	}

	ruler_male = {
		1 = SUPREME_MASTER
		2 = SUPREME_MASTER
		3 = SUPREME_MASTER
	}

	ruler_female = {
		1 = SUPREME_MASTER
		2 = SUPREME_MASTER
		3 = SUPREME_MASTER
	}
	
	heir_male = {
		1 = ASCENDANT_MASTER
		2 = ASCENDANT_MASTER
		3 = ASCENDANT_MASTER
	}
	
	heir_female = {
		1 = ASCENDANT_MASTER
		2 = ASCENDANT_MASTER
		3 = ASCENDANT_MASTER
	}

	trigger = {
		has_reform = one_xia
	}
}

march_anbennar_monarchy = {
	rank = {
		1 = MARCH
		2 = GRAND_MARCH
		3 = EMPIRE
	}
	
	ruler_male = {
		1 = MARQUIS
		2 = GRAND_MARQUIS
		3 = EMPEROR
	}

	ruler_female = {
		1 = MARQUISE
		2 = GRAND_MARQUISE	
		3 = EMPRESS
	}
	
	consort_male = {
		1 = MARQUIS_CONSORT
		2 = MARQUIS_CONSORT
		3 = EMPEROR_CONSORT
	}

	consort_female = {
		1 = MARQUISE
		2 = MARQUISE
		3 = EMPRESS
	}

	trigger = {
		is_part_of_hre = yes
		government = monarchy
		NOT = { culture_group = elven } #Elfrealms take priority
		OR = {	#You're either an actual March or a historical march of Anbennar
			is_march = yes
			has_country_flag = is_a_marquisate
		}
	}
}

monarchy_county = {	#For special counts, in the HRE/EOA this is by default. Like the HRE they stop being a count when they get 50 development. County-Duchy distribution is not final, and will need to be adjusted in the future.
	rank = {
		1 = COUNTY
		2 = KINGDOM
		3 = EMPIRE
	}
	
	ruler_male = {
		1 = COUNT
		2 = KING
		3 = EMPEROR
	}

	ruler_female = {
		1 = COUNTESS
		2 = QUEEN
		3 = EMPRESS
	}
	consort_male  = {
		1 = CONSORT 
		2 = PRINCE_CONSORT
		3 = PRINCE_CONSORT
	}
	
	consort_female = {
		1 = CONSORT
		2 = QUEEN_CONSORT
		3 = EMPRESS_CONSORT
	}
	
	heir_male = {
		1 = HEIR
		2 = PRINCE
		3 = PRINCE
	}
	
	heir_female = {
		1 = HEIR
		2 = PRINCESS
		3 = PRINCESS
	}
	
	trigger = {
		government = monarchy
		OR = {
			has_country_flag = is_a_county
			AND = {
				is_part_of_hre = yes
				is_elector = no
				is_emperor = no
			}
		}
		NOT = { culture_group = elven } #Elfrealms take priority
		NOT = { total_development = 50 }
		NOT = { has_country_flag = is_a_grand_duchy }
		NOT = {	
			OR = {
				tag = A39 #Bennon
				tag = A40 #Exwes
				tag = A56 #Celliande
				tag = A57 #Toarnen
				tag = A76 #Uelaire
				tag = A84 #Galeinn
				tag = Z05 #Tretun
			}
		}	
	}
}

revolutionary_gawedi_republic = {
	rank = {
		1 = GOV_REVOLUTIONARY_REPUBLIC
		2 = GOV_REVOLUTIONARY_REPUBLIC
		3 = GOV_REVOLUTIONARY_REPUBLIC
	}
	ruler_male = {
		1 = CHAIRMAN
		2 = CHAIRMAN
		3 = CHAIRMAN
	}

	ruler_female = {
		1 = CHAIRMAN_fem
		2 = CHAIRMAN_fem
		3 = CHAIRMAN_fem
	}
	trigger = {
		is_revolutionary_republic_trigger = yes
		OR = {
			primary_culture = gawedi
			primary_culture = old_alenic
			primary_culture = moorman
		}
	}
}

revolutionary_damerian_republic = {
	rank = {
		1 = GOV_REVOLUTIONARY_REPUBLIC
		2 = GOV_REVOLUTIONARY_REPUBLIC
		3 = GOV_REVOLUTIONARY_REPUBLIC
	}
	ruler_male = {
		1 = LUMINARY	#this is the equivalent of Consul in our world. The Damerian Republic was ruled by Luminaries as the Romans were ruled by Consuls
		2 = LUMINARY
		3 = LUMINARY
	}

	ruler_female = {
		1 = LUMINARY
		2 = LUMINARY
		3 = LUMINARY
	}
	trigger = {
		is_revolutionary_republic_trigger = yes
		OR = {
			primary_culture = east_damerian
			primary_culture = west_damerian
			primary_culture = rogieran
			primary_culture = anbenncoster
		}
		
	}
}

revolutionary_gnomish_republic = {
	rank = {
		1 = GOV_REVOLUTIONARY_REPUBLIC
		2 = GOV_REVOLUTIONARY_REPUBLIC
		3 = GOV_REVOLUTIONARY_REPUBLIC
	}
	ruler_male = {
		1 = FIRST_HIERARCH
		2 = FIRST_HIERARCH
		3 = FIRST_HIERARCH
	}

	ruler_female = {
		1 = FIRST_HIERARCH
		2 = FIRST_HIERARCH
		3 = FIRST_HIERARCH
	}
	trigger = {
		is_revolutionary_republic_trigger = yes
		culture_group = gnomish
		
	}
}

invasion_forces = {
	rank = {
		1 = INVASION_FORCE
	}
	
	ruler_male = {
		1 = GENERAL_GOV
	}
	
	ruler_female = {
		1 = GENERAL_GOV
	}

	trigger = {
		has_reform = invasion_forces
	}
}

teplinbasiet_arena_kingdom_reform = {
	rank = {
		1 = MERCENARY_COUNTY
		2 = MERCENARY_KINGDOM
		3 = MERCENARY_EMPIRE
	}
	
	ruler_male = {
		1 = LOT_DEKKHANG
		2 = LOT_DEKKHANG
		3 = LOT_DEKKHANG
	}

	ruler_female = {
		1 = LOT_DEKKHANG
		2 = LOT_DEKKHANG
		3 = LOT_DEKKHANG
	}
	
		trigger = {
		has_reform = teplinbasiet_arena_kingdom_reform
	}
}

trading_company = {
	rank = {
		1 = REPUBLIC
		2 = GREAT_REPUBLIC
		3 = GRAND_REPUBLIC
	}
	
	ruler_male = {
		1 = DIRECTOR
		2 = GOVERNOR_GENERAL	
		3 = VICEROY
	}

	ruler_female = {
		1 = DIRECTOR
		2 = GOVERNOR_GENERAL
		3 = VICEREINE
	}

	trigger = {
		government = republic
		OR = {
			tag = G99	#DTC
			tag = G98	#CTC
			tag = G97	#VB
		}
	}
}

roilsardi_elective_title = {	#Still consider themselves Kings/Kingdom even if they're elected
	rank = {
		1 = DUCHY
		2 = KINGDOM
		3 = EMPIRE
	}
	
	ruler_male = {
		1 = DUKE
		2 = KING
		3 = EMPEROR
	}

	ruler_female = {
		1 = COUNTESS
		2 = QUEEN
		3 = EMPRESS
	}
	consort_male  = {
		1 = CONSORT 
		2 = PRINCE_CONSORT
		3 = PRINCE_CONSORT
	}
	
	consort_female = {
		1 = CONSORT
		2 = QUEEN_CONSORT
		3 = EMPRESS_CONSORT
	}
	
	heir_male = {
		1 = HEIR
		2 = PRINCE
		3 = PRINCE
	}
	
	heir_female = {
		1 = HEIR
		2 = PRINCESS
		3 = PRINCESS
	}
	
	trigger = {
		has_reform = roilsard_elective
		is_elector = no
	}
}

roilsardi_elective_elector_title = {	#Use the elector titles when you got them
	rank = {
		1 = DUCHY
		2 = KINGDOM
		3 = EMPIRE
	}
	
	ruler_male = {
		1 = DUKE_ELECTOR
		2 = GRAND_ELECTOR
		3 = EMPEROR
	}

	ruler_female = {
		1 = DUCHESS_ELECTOR
		2 = GRAND_ELECTRESS
		3 = EMPRESS
	}
	consort_male  = {
		1 = CONSORT 
		2 = PRINCE_CONSORT
		3 = PRINCE_CONSORT
	}
	
	consort_female = {
		1 = CONSORT
		2 = QUEEN_CONSORT
		3 = EMPRESS_CONSORT
	}
	
	heir_male = {
		1 = HEIR
		2 = PRINCE
		3 = PRINCE
	}
	
	heir_female = {
		1 = HEIR
		2 = PRINCESS
		3 = PRINCESS
	}
	
	trigger = {
		has_reform = roilsard_elective
		is_elector = yes
	}
}

escann_witch_king_republic = {
	rank = {
		1 = REPUBLIC
		2 = GREAT_REPUBLIC
		3 = GRAND_REPUBLIC
	}
	
	ruler_male = {
		1 = CHANCELLOR
		2 = SUPREME_CHANCELLOR	#good... good...
		3 = SUPREME_CHANCELLOR
	}

	ruler_female = {
		1 = CHANCELLOR
		2 = SUPREME_CHANCELLOR
		3 = SUPREME_CHANCELLOR
	}

	trigger = {
		capital_scope = { superregion = escann_superregion }
		government = republic
		has_ruler_modifier = witch_king_modifier 
	}
}

escann_witch_king_kingdom = {
	rank = {
		1 = KINGDOM
		2 = KINGDOM
		3 = EMPIRE
	}

	ruler_male = {
		1 = WITCH_KING
		2 = WITCH_KING
		3 = WITCH_EMPEROR
	}

	ruler_female = {
		1 = WITCH_QUEEN
		2 = WITCH_QUEEN
		3 = WITCH_EMPRESS
	}

	trigger = {
		capital_scope = { superregion = escann_superregion }
		government = monarchy
		has_ruler_modifier = witch_king_modifier 
	}
}

kheionai_republic = {
	rank = {
		1 = KHEINISI
		2 = KHEINISI
		3 = DEGA_KHEINISI
	}
	
	ruler_male = {
		1 = KYLAKAS
		2 = KYLAKAS
		3 = DEGA_KYLAKAS
	}

	ruler_female = {
		1 = KYLAKAS
		2 = KYLAKAS
		3 = DEGA_KYLAKAS
	}

	trigger = {
		government = republic
		culture_group = kheionai_ruinborn_elf
		NOT = {
			has_reform = anisikheioni_naval_stratocracy
			is_subject_of_type = nekhei
		}
	}
}

nekhei_republic = {
	rank = {
		1 = KHEINISI
		2 = KHEINISI
		3 = DEGA_KHEINISI
	}
	
	ruler_male = {
		1 = RIARCHIS
		2 = RIARCHIS
		3 = RIARCHIS
	}

	ruler_female = {
		1 = RIARCHIS
		2 = RIARCHIS
		3 = RIARCHIS
	}

	trigger = {
		government = republic
		culture_group = kheionai_ruinborn_elf
		is_subject_of_type = nekhei
		NOT = {
			has_reform = anisikheioni_naval_stratocracy
		}
	}
}

wizard_king_magocracy = {
	rank = {
		1 = MAGOCRACY
		2 = MAGOCRACY
		3 = MAGOCRACY
	}

	ruler_male = {
		1 = WIZARD_KING
		2 = WIZARD_KING
		3 = WIZARD_KING
	}

	ruler_female = {
		1 = WIZARD_QUEEN
		2 = WIZARD_QUEEN
		3 = WIZARD_QUEEN
	}

	trigger = {
		government = theocracy
		has_country_flag = wizard_king_magocracy
	}
}

skaldhyrric_theocracy = {
	rank = {
		1 = TEMPLE
		2 = GREAT_TEMPLE
		3 = HOLY_EMPIRE
	}

	ruler_male = {
		1 = SKALD_PRIEST
		2 = SKALD_PRIEST
		3 = MASTER_SKALD_PRIEST
	}

	ruler_female = {
		1 = SKALD_PRIESTESS
		2 = SKALD_PRIESTESS
		3 = MASTER_SKALD_PRIESTESS
	}

	trigger = {
		government = theocracy
		religion = skaldhyrric_faith
	}
}

elven_colonial_government = {
	rank = {
		1 = COLONY
	}
	
	ruler_male = {
		1 = RECLAIMER
	}

	ruler_female = {
		1 = RECLAIMER
	}
	trigger = {
		culture_group = elven
		OR = {
			has_reform = colonial_government
			has_reform = crown_colony_government
			has_reform = private_enterprise_colony_government
			has_reform = self_governing_colony_government
		}
	}
}

viceroy_colonial_government = {
	rank = {
		1 = COLONY
	}
	
	ruler_male = {
		1 = VICEROY
	}

	ruler_female = {
		1 = VICERINE
	}
	trigger = {
		OR = {
			culture_group = lencori
			culture_group = businori
			culture_group = kheteratan
			culture_group = bulwari
		}
		OR = {
			has_reform = colonial_government
			has_reform = crown_colony_government
			has_reform = private_enterprise_colony_government
			has_reform = self_governing_colony_government
		}
	}
}

director_colonial_government = {
	rank = {
		1 = COLONY
	}
	
	ruler_male = {
		1 = DIRECTOR
	}

	ruler_female = {
		1 = DIRECTORESS
	}
	trigger = {
		OR = {
			primary_culture = vertesker
			primary_culture = crownsman
			culture_group = gnomish
		}
		OR = {
			has_reform = colonial_government
			has_reform = crown_colony_government
			has_reform = private_enterprise_colony_government
			has_reform = self_governing_colony_government
		}
	}
}

eordand_theocracy = {
	rank = {
		1 = SGARBAG
		2 = PROMAL
		3 = ATPROMAL
	}
	
	ruler_male = {
		1 = ESBAGG
		2 = SGARRT
		3 = DECANN
	}

	ruler_female = {
		1 = ESBAGG
		2 = SGARRT
		3 = DECANN
	}

	trigger = {
		government = theocracy
		culture_group = eordan_ruinborn_elf
		OR = {
			has_reform = monastic_order_reform
			has_reform = leading_clergy_reform
			AND = {
				has_reform = raithtall_twilight_court_reform
				NOT = { has_ruler_flag = raithtallTwilightMonarchist }
			}
		}
	}
}

eordand_theocracy_dorcurt = {	#Only for Dorcurt when they pick monarchical ruler, normal eordand_theocarcy is used when they pick theocratic ruler
	rank = {
		1 = SGARBAG
		2 = PROMAL
		3 = ATPROMAL
	}
	
	ruler_male = {
		1 = SONAD
		2 = FALT
		3 = ARD_FALT
	}
	
	ruler_female = {
		1 = SURCAG
		2 = BANRAG
		3 = ARD_BANRAG
	}

	trigger = {
		government = theocracy
		culture_group = eordan_ruinborn_elf
		has_reform = raithtall_twilight_court_reform
		has_ruler_flag = raithtallTwilightMonarchist
	}
}

goblin_clan = {
	rank = {
		1 = CLAN
		2 = OVERCLAN
		3 = SUPREMACY
	}
	
	ruler_male = {
		1 = CLANBOSS
		2 = OVERBOSS
		3 = SUPREME_BOSS
	}

	ruler_female = {
		1 = CLANBOSSESS
		2 = OVERBOSSESS
		3 = SUPREME_BOSSESS
	}
	consort_male  = {
		1 = FIRST_NOBLE_HUSBAND
		2 = FIRST_ROYAL_HUSBAND
		3 = FIRST_SUPREME_HUSBAND
	}
	
	consort_female = {
		1 = FIRST_NOBLE_WIFE
		2 = FIRST_ROYAL_WIFE
		3 = FIRST_SUPREME_WIFE
	}
	
	heir_male = {
		1 = HEIR
		2 = PRINCE
		3 = PRINCE
	}
	
	heir_female = {
		1 = HEIR
		2 = PRINCE
		3 = PRINCE
	}
	
	trigger = {
		culture_group = goblin
		OR = {
			government = monarchy
			is_tribal = yes
		}
	}
}

orcish_clan = {
	rank = {
		1 = CLAN
		2 = GREAT_CLAN
		3 = HORDE
	}
	
	ruler_male = {
		1 = CHIEFTAIN
		2 = WARCHIEF
		3 = WARLORD
	}
	
	ruler_female = {
		1 = CHIEFTAIN
		2 = WARCHIEF
		3 = WARLORD
	}

	heir_male = {
		1 = HEIR
		2 = HEIR
		3 = HEIR
	}

	heir_female = {
		1 = HEIR
		2 = HEIR
		3 = HEIR
	}
	trigger = {
		OR = {
			has_reform = deepwoods_horde
			has_reform = brown_orc_horde
			has_reform = emerald_horde
			has_reform = graytide_horde
			is_tribal = yes
		}
		culture_group = orcish
	}
}


adventurer_government = {
	rank = {
		1 = ADVENTURER
		2 = ADVENTURER
		3 = ADVENTURER
	}
	
	ruler_male = {
		1 = CAPTAIN
		2 = CAPTAIN
		3 = CAPTAIN
	}
	
	ruler_female = {
		1 = CAPTAIN
		2 = CAPTAIN
		3 = CAPTAIN
	}

	heir_male = {
		1 = HEIR
		2 = HEIR
		3 = HEIR
	}

	heir_female = {
		1 = HEIR
		2 = HEIR
		3 = HEIR
	}
	trigger = {
		has_adventurer_reform = yes
	}
}

adventurer_monarchy = {
	rank = {
		1 = KINGDOM
		2 = KINGDOM
		3 = EMPIRE
	}
	
	ruler_male = {
		1 = PETTY_KING
		2 = KING
		3 = EMPEROR
	}

	ruler_female = {
		1 = PETTY_QUEEN
		2 = QUEEN
		3 = EMPRESS
	}
	consort_male  = {
		1 = KING_CONSORT
		2 = KING_CONSORT
		3 = EMPEROR_CONSORT
	}
	
	consort_female = {
		1 = QUEEN_CONSORT
		2 = QUEEN_CONSORT
		3 = EMPRESS_CONSORT
	}
	
	heir_male = {
		1 = PRINCE
		2 = PRINCE
		3 = PRINCE
	}
	
	heir_female = {
		1 = PRINCESS
		2 = PRINCESS	
		3 = PRINCESS
	}
	
	trigger = {
		OR = {
			AND = {
				OR = {
					capital_scope = { superregion = escann_superregion }
					capital_scope = { region = forlorn_vale_region }
				}
				government = monarchy
				has_country_flag = adventurer_derived_government
			}
			has_reform = adventurer_kingdom_reform
		}
	}
}

adventurer_republic = {
	rank = {
		1 = REPUBLIC
		2 = GREAT_REPUBLIC
		3 = GRAND_REPUBLIC
	}
	
	ruler_male = {
		1 = LORD
		2 = LORD
		3 = PRESIDENT
	}

	ruler_female = {
		1 = LADY
		2 = LADY
		3 = PRESIDENT
	}
	
	trigger = {
		OR = {
			AND = {
				OR = {
					capital_scope = { superregion = escann_superregion }
					capital_scope = { region = forlorn_vale_region }
				}
				government = republic
				has_country_flag = adventurer_derived_government
			}
			has_reform = adventurer_republic_reform
		}
		#has_country_flag = adventurer_derived_government
	}
}

magisterium = {
	rank = {
		1 = MAGISTERIUM
		2 = MAGISTERIUM
		3 = MAGISTERIUM
	}
	
	ruler_male = {
		1 = GRAND_MAGISTER
		2 = GRAND_MAGISTER
		3 = GRAND_MAGISTER
	}
	
	ruler_female = {
		1 = GRAND_MAGISTRIX
		2 = GRAND_MAGISTRIX
		3 = GRAND_MAGISTRIX
	}

	heir_male = {
		1 = MAGISTER
		2 = MAGISTER
		3 = MAGISTER
	}

	heir_female = {
		1 = MAGISTRIX
		2 = MAGISTRIX
		3 = MAGISTRIX
	}
	
	trigger = {
		has_reform = magisterium_reform
	}
}

magocracy_magister = {
	rank = {
		1 = MAGOCRACY
		2 = MAGOCRACY
		3 = MAGOCRACY
	}
	
	ruler_male = {
		1 = MAGISTER
		2 = FIRST_MAGISTER
		3 = GRAND_MAGISTER
	}
	
	ruler_female = {
		1 = MAGISTRIX
		2 = FIRST_MAGISTRIX
		3 = GRAND_MAGISTRIX
	}

	heir_male = {
		1 = MAGISTER
		2 = MAGISTER
		3 = MAGISTER
	}

	heir_female = {
		1 = MAGISTRIX
		2 = MAGISTRIX
		3 = MAGISTRIX
	}
	trigger = {
		has_reform = magocracy_reform
		OR = {
			has_estate_privilege = estate_mages_organization_magisterium
			tag = A85
		}
	}
}

magocracy_generic = {
	rank = {
		1 = MAGOCRACY
		2 = MAGOCRACY
		3 = MAGOCRACY
	}
	
	ruler_male = {
		1 = HIGH_MAGE
		2 = ARCHMAGE
		3 = ARCHMAGE
	}
	
	ruler_female = {
		1 = HIGH_MAGE
		2 = ARCHMAGE
		3 = ARCHMAGE
	}

	heir_male = {
		1 = COUNCILLOR
		2 = COUNCILLOR
		3 = COUNCILLOR
	}

	heir_female = {
		1 = COUNCILLOR
		2 = COUNCILLOR
		3 = COUNCILLOR
	}
	trigger = {
		has_reform = magocracy_reform
	}
}

elven_elector_any = {
	rank = {
		1 = ELFREALM
		2 = ELFREALM
		3 = EMPIRE
	}
	
	ruler_male = {
		1 = PRINCE_ELECTOR
		2 = PRINCE_ELECTOR
		3 = EMPEROR
	}
	
	ruler_female = {
		1 = PRINCESS_ELECTOR
		2 = GRAND_ELECTRESS
		3 = EMPRESS
	}
	
	consort_male = {
		1 = PRINCE_CONSORT
		2 = PRINCE_CONSORT
		3 = PRINCE_CONSORT
	}

	consort_female = {
		1 = CONSORT
		2 = GRAND_CONSORT
		3 = EMPRESS_CONSORT
	}
	
	heir_male = {
		1 = PRINCE_APPARENT
		2 = PRINCE_APPARENT
		3 = HEIR_APPARENT
	}

	heir_female = {
		1 = PRINCESS_APPARENT
		2 = PRINCESS_APPARENT
		3 = HEIR_APPARENT
	}
	trigger = {
		culture_group = elven
		is_elector = yes
		is_emperor = no
	}
}

dwarven_elector_any = {
	rank = {
		1 = HOLD
		2 = GREAT_HOLD
		3 = HIGH_KINGDOM
	}
	
	ruler_male = {
		1 = LORD_ELECTOR
		2 = LORD_ELECTOR
		3 = HIGH_KING
	}

	ruler_female = {
		1 = LORD_ELECTOR
		2 = LORD_ELECTOR
		3 = HIGH_QUEEN
	}
	consort_male  = {
		1 = PRINCE_CONSORT 
		2 = PRINCE_CONSORT 
		3 = KING_CONSORT
	}
	
	consort_female = {
		1 = CONSORT
		2 = CONSORT
		3 = QUEEN_CONSORT
	}
	
	heir_male = {
		1 = HEIR
		2 = HEIR
		3 = PRINCE
	}
	
	heir_female = {
		1 = HEIR
		2 = HEIR
		3 = PRINCE
	}
	trigger = {
		is_a_hold = yes
		culture_group = dwarven
		is_elector = yes
		is_emperor = no
	}
}

anbennar_elector_monarchy = {
	rank = {
		1 = DUCHY
		2 = GRAND_DUCHY
		3 = EMPIRE
	}

	ruler_male = {
		1 = DUKE_ELECTOR
		2 = GRAND_ELECTOR
		3 = EMPEROR
	}

	ruler_female = {
		1 = DUCHESS_ELECTOR
		2 = GRAND_ELECTRESS
		3 = EMPRESS
	}
	
	consort_male  = {
		1 = DUKE
		2 = GRAND_DUKE_CONSORT
		3 = PRINCE_CONSORT
	}
	
	consort_female = {
		1 = DUCHESS
		2 = GRAND_DUCHESS
		3 = EMPRESS_CONSORT
	}
	
	#Standard titles for heirs.
	
	trigger = {
		government = monarchy
		is_elector = yes
		is_emperor = no
	}
}

anbennar_elector_free_city = {
	rank = {
		1 = FREE_CITY
		2 = FREE_CITY
		3 = FREE_CITY
	}
	
	ruler_male = {
		1 = LORD_ELECTOR
		2 = LORD_ELECTOR
		3 = PRESIDENT
	}

	ruler_female = {
		1 = LADY_ELECTOR
		2 = LADY_ELECTOR
		3 = PRESIDENT
	}
	trigger = {
		is_a_free_city = yes
		is_elector = yes
		is_emperor = no
	}
}

anbennar_elector_republic = {
	rank = {
		1 = REPUBLIC
		2 = GRAND_REPUBLIC
		3 = GREAT_REPUBLIC
	}
	
	ruler_male = {
		1 = LORD_ELECTOR
		2 = LORD_ELECTOR
		3 = PRESIDENT
	}

	ruler_female = {
		1 = LADY_ELECTOR
		2 = LADY_ELECTOR
		3 = PRESIDENT
	}
	trigger = {
		OR = {
			culture_group = anbennarian
			culture_group = alenic
			is_cannorian_halfling_primary_culture = yes
			culture_group = lencori			
		}
		government = republic
		is_elector = yes
		is_emperor = no
	}
}

anbennar_elector_knightly_theocracy = {
	rank = {
		1 = KNIGHTLY_ORDER
		2 = KNIGHTLY_ORDER
		3 = KNIGHTLY_ORDER
	}

	ruler_male = {
		1 = IMPERIAL_GRANDMASTER
		2 = IMPERIAL_GRANDMASTER
		3 = IMPERIAL_GRANDMASTER
	}

	ruler_female = {
		1 = IMPERIAL_GRANDMASTER
		2 = IMPERIAL_GRANDMASTER
		3 = IMPERIAL_GRANDMASTER
	}

	trigger = {
		OR = {
			has_reform = secular_order_reform
			has_reform = monastic_order_reform
			has_country_flag = knightly_order_adventurer
		}
		government = theocracy
		is_elector = yes
		is_emperor = no
	}
}

anbennar_elector_theocracy = {
	rank = {
		1 = TEMPLE
		2 = GREAT_TEMPLE
		3 = HOLY_EMPIRE
	}

	ruler_male = {
		1 = PRIEST_ELECTOR
		2 = PRIEST_ELECTOR
		3 = PRIEST_ELECTOR
	}

	ruler_female = {
		1 = PRIESTESS_ELECTOR
		2 = PRIESTESS_ELECTOR
		3 = PRIESTESS_ELECTOR
	}
	
	#Standard titles for heirs.
	
	trigger = {
		government = theocracy
		is_elector = yes
		is_emperor = no
	}
}

anbennar_grand_duchy = {	#For Dameria and Esmaria
	rank = {
		1 = GRAND_DUCHY
		2 = GRAND_DUCHY
		3 = GRAND_DUCHY
	}
	
	ruler_male = {
		1 = GRAND_DUKE
		2 = GRAND_DUKE
		3 = EMPEROR
	}

	ruler_female = {
		1 = GRAND_DUCHESS
		2 = GRAND_DUCHESS
		3 = EMPRESS
	}
	consort_male  = {
		1 = GRAND_DUKE_CONSORT
		2 = GRAND_DUKE_CONSORT
		3 = PRINCE_CONSORT
	}
	
	consort_female = {
		1 = GRAND_DUCHESS
		2 = GRAND_DUCHESS
		3 = EMPRESS_CONSORT
	}
	
	trigger = {
		is_part_of_hre = yes
		government = monarchy
		has_country_flag = is_a_grand_duchy
	}
}

march_alenic_monarchy = {
	rank = {
		1 = MARCH
		2 = GREAT_MARCH
		3 = EMPIRE
	}
	
	ruler_male = {
		1 = MARCHER_LORD
		2 = MARCHER_LORD
		3 = EMPEROR
	}

	ruler_female = {
		1 = MARCHER_LORD
		2 = MARCHER_LORD	
		3 = EMPRESS
	}
	
	consort_male  = {
		1 = CONSORT
		2 = CONSORT
		3 = EMPEROR_CONSORT
	}
	
	consort_female = {
		1 = CONSORT
		2 = CONSORT
		3 = EMPRESS_CONSORT
	}
	trigger = {
		government = monarchy
		culture_group = alenic
		is_march = yes
	}
}

moorman_monarchy = {
	rank = {
		1 = LORDSHIP
		2 = KINGDOM
		3 = EMPIRE
	}
	
	ruler_male = {
		1 = LORD
		2 = MOOR_KING
		3 = MOOR_EMPEROR
	}

	ruler_female = {
		1 = LADY
		2 = MOOR_QUEEN
		3 = MOOR_EMPRESS
	}
	consort_male  = {
		1 = CONSORT
		2 = KING_CONSORT
		3 = EMPEROR_CONSORT
	}
	
	consort_female = {
		1 = CONSORT
		2 = QUEEN_CONSORT
		3 = EMPRESS_CONSORT
	}
	
	heir_male = {
		1 = HEIR
		2 = PRINCE
		3 = PRINCE
	}
	
	heir_female = {
		1 = HEIR
		2 = PRINCESS	
		3 = PRINCESS
	}
	
	trigger = {
		primary_culture = moorman
		government = monarchy
		is_vassal = no
	}
}

dwarven_hold_monarchy = {
	rank = {
		1 = HOLD
		2 = GREAT_HOLD
		3 = HIGH_KINGDOM
	}
	
	ruler_male = {
		1 = KING
		2 = KING
		3 = HIGH_KING
	}
	
	ruler_female = {
		1 = QUEEN
		2 = QUEEN
		3 = HIGH_QUEEN
	}

	consort_male  = {
		1 = KING_CONSORT
		2 = KING_CONSORT
		3 = KING_CONSORT
	}
	
	consort_female = {
		1 = QUEEN_CONSORT
		2 = QUEEN_CONSORT
		3 = QUEEN_CONSORT
	}
	
	heir_male = {
		1 = LORD
		2 = LORD
		3 = LORD
	}

	heir_female = {
		1 = LADY
		2 = LADY
		3 = LADY
	}

	trigger = {
		is_a_hold = yes
		government = monarchy
		culture_group = dwarven
	}
}

dwarven_hold_presidential_despotism = {
	rank = {
		1 = HOLD
		2 = GREAT_HOLD
		3 = GREAT_HOLD
	}
	
	ruler_male = {
		1 = PROTECTOR
		2 = LORD_PROTECTOR
		3 = PRESIDENT
	}
	
	ruler_female = {
		1 = PROTECTOR_fem
		2 = LADY_PROTECTOR
		3 = PRESIDENT_fem
	}

	trigger = {
		is_a_hold = yes
		has_reform = presidential_despot_reform
		culture_group = dwarven
	}
}

dwarven_hold_republic = {
	rank = {
		1 = HOLD
		2 = GREAT_HOLD
		3 = GREAT_HOLD
	}
	
	ruler_male = {
		1 = LORD_MAYOR
		2 = GRAND_MAYOR
		3 = PRESIDENT
	}

	ruler_female = {
		1 = LORD_MAYOR
		2 = GRAND_MAYOR	
		3 = PRESIDENT
	}

	trigger = {
		is_a_hold = yes
		government = republic
		culture_group = dwarven
	}
}

bulwari_monarchy = {
	rank = {
		1 = AKALATE
		2 = AKALATE
		3 = EMPIRE
	}
	
	ruler_male = {
		1 = AKAL
		2 = AKAL
		3 = AKALUNAKAL
	}

	ruler_female = {
		1 = AKALI
		2 = AKALI
		3 = AKALUNAKALI
	}
	consort_male  = {
		1 = CONSORT
		2 = AKAL
		3 = AKALUNAKAL
	}
	
	consort_female = {
		1 = CONSORT
		2 = AKALI
		3 = AKALUNAKALI
	}
	
	heir_male = {
		1 = HEIR
		2 = MARSAR
		3 = MARSAR
	}
	
	heir_female = {
		1 = HEIR
		2 = MARSARI	
		3 = MARSARI	
	}
	
	trigger = {
		culture_group = bulwari
		government = monarchy
	}
}

bulwari_republic = {
	rank = {
		1 = REPUBLIC
		2 = GRAND_REPUBLIC
		3 = GREAT_REPUBLIC
	}
	
	ruler_male = {
		1 = MARAS
		2 = GRAND_MARAS
		3 = GREAT_MARAS
	}

	ruler_female = {
		1 = MARAS
		2 = GRAND_MARAS
		3 = GREAT_MARAS
	}
	
	trigger = {
		culture_group = bulwari
		government = republic
	}
}

bulwari_theocracy = {
	rank = {
		1 = TEMPLE
		2 = GREAT_TEMPLE
		3 = HOLY_EMPIRE
	}
	
	ruler_male = {
		1 = KASHRA
		2 = AKAL_KASHRA
		3 = ISIAK_SURAKEL
	}

	ruler_female = {
		1 = KASHRA
		2 = AKAL_KASHRA
		3 = ISIAK_SURAKEL
	}
	
	trigger = {
		culture_group = bulwari
		government = theocracy
	}
}

sun_elf_monarchy = {
	rank = {
		1 = AKALATE
		2 = KINGDOM
		3 = EMPIRE
	}
	
	ruler_male = {
		1 = AKAL
		2 = KING
		3 = EMPEROR
	}

	ruler_female = {
		1 = AKALA
		2 = QUEEN
		3 = EMPRESS
	}
	consort_male  = {
		1 = CONSORT
		2 = KING_CONSORT
		3 = EMPEROR_CONSORT
	}
	
	consort_female = {
		1 = CONSORT
		2 = QUEEN_CONSORT
		3 = EMPRESS_CONSORT
	}
	
	heir_male = {
		1 = HEIR
		2 = PRINCE
		3 = PRINCE
	}
	
	heir_female = {
		1 = HEIR
		2 = PRINCESS	
		3 = PRINCESS
	}
	
	trigger = {
		primary_culture = sun_elf
		government = monarchy
	}
}

gnollish_monarchy = {
	rank = {
		1 = PACK
		2 = GOLOKA
		3 = NAKKEKAL
	}
	
	ruler_male = {
		1 = PACK_LORD
		2 = GOLUD
		3 = NAKKAD
	}

	ruler_female = {
		1 = PACK_MISTRESS
		2 = GOLUD
		3 = NAKKAD
	}
	consort_male  = {
		1 = RIYIZAG
		2 = RIYIZAG
		3 = RIYIZAG
	}
	
	consort_female = {
		1 = RIYIZAG
		2 = RIYIZAG
		3 = RIYIZAG
	}
	
	heir_male = {
		1 = RAVAD
		2 = RAVAD
		3 = RAVAD
	}
	
	heir_female = {
		1 = RAVAD
		2 = RAVAD	
		3 = RAVAD
	}
	
	trigger = {
		culture_group = gnollish
		OR = {
			has_reform = steppe_horde
			is_tribal = yes
			government = monarchy
		}
	}
}

oak_monarchy = {
	rank = {
		1 = KINGDOM
		2 = KINGDOM
		3 = KINGDOM
	}
	
	ruler_male = {
		1 = WOOD_ELF_OAK_MONARCH
		2 = WOOD_ELF_OAK_MONARCH
		3 = WOOD_ELF_OAK_MONARCH
	}
	
	ruler_female = {
		1 = WOOD_ELF_OAK_MONARCH
		2 = WOOD_ELF_OAK_MONARCH
		3 = WOOD_ELF_OAK_MONARCH
	}

	trigger = {
		has_reform = oak_monarchy_reform
	}
}

wood_elf_clans = {
	rank = {
		1 = WOOD_ELF_CLAN
		2 = WOOD_ELF_CLAN
		3 = WOOD_ELF_CLAN
	}
	
	ruler_male = {
		1 = WOOD_ELF_CLAN_LEADER_MALE
		2 = WOOD_ELF_CLAN_LEADER_MALE
		3 = WOOD_ELF_CLAN_LEADER_MALE
	}
	
	ruler_female = {
		1 = WOOD_ELF_CLAN_LEADER_FEMALE
		2 = WOOD_ELF_CLAN_LEADER_FEMALE
		3 = WOOD_ELF_CLAN_LEADER_FEMALE
	}

	trigger = {
		OR = {
			government = tribal
			government = monarchy
		}
		primary_culture = wood_elf
	}
}

moon_elf_elfrealm = {	
	rank = {
		1 = ELFREALM
		2 = ELFREALM
		3 = EMPIRE
	}
	
	ruler_male = {
		1 = PRINCE
		2 = GRAND_PRINCE
		3 = EMPEROR
	}
	
	ruler_female = {
		1 = PRINCESS
		2 = GRAND_PRINCESS
		3 = EMPRESS
	}
	
	consort_male = {
		1 = PRINCE_CONSORT
		2 = PRINCE_CONSORT
		3 = PRINCE_CONSORT
	}

	consort_female = {
		1 = CONSORT
		2 = GRAND_CONSORT
		3 = EMPRESS_CONSORT
	}
	
	heir_male = {
		1 = PRINCE_APPARENT
		2 = PRINCE_APPARENT
		3 = HEIR_APPARENT
	}

	heir_female = {
		1 = PRINCESS_APPARENT
		2 = PRINCESS_APPARENT
		3 = HEIR_APPARENT
	}
	
	trigger = {
		primary_culture = moon_elf
		NOT = {
			has_reform = crown_colony_government
			has_reform = colonial_government
			has_reform = private_enterprise_colony_government
			has_reform = self_governing_colony_government
		}
	}
}

anbennar_monarchy = {	
	rank = {
		1 = DUCHY
		2 = GRAND_DUCHY
		3 = EMPIRE
	}
	
	ruler_male = {
		1 = DUKE
		2 = GRAND_DUKE
		3 = EMPEROR
	}

	ruler_female = {
		1 = DUCHESS
		2 = GRAND_DUCHESS	
		3 = EMPRESS
	}
	consort_male  = {
		1 = CONSORT 
		2 = GRAND_DUKE_CONSORT
		3 = EMPEROR_CONSORT
	}
	
	consort_female = {
		1 = CONSORT
		2 = GRAND_DUCHESS
		3 = EMPRESS_CONSORT
	}
	
	heir_male = {
		1 = HEIR
		2 = HEIR
		3 = PRINCE
	}
	
	heir_female = {
		1 = HEIR
		2 = HEIR	
		3 = PRINCESS
	}
	
	trigger = {
	government = monarchy
	is_part_of_hre = yes
	OR = {
		culture_group = anbennarian
		culture_group = lencori
		culture_group = alenic
		}
	}
}

anbennarian_free_city = {
	rank = {
		1 = FREE_CITY
		2 = FREE_CITY
		3 = FREE_CITY
	}

	ruler_male = {
		1 = LORD_MAYOR
		2 = GRAND_MAYOR
		3 = PRESIDENT
	}

	ruler_female = {
		1 = LORD_MAYOR
		2 = GRAND_MAYOR	
		3 = PRESIDENT
	}

	trigger = {
		is_a_free_city = yes
	}
}

anbennar_republic = {
	rank = {
		1 = REPUBLIC
		2 = GRAND_REPUBLIC
		3 = GREAT_REPUBLIC
	}
	
	ruler_male = {
		1 = LORD_MAYOR
		2 = GRAND_MAYOR
		3 = PRESIDENT
	}

	ruler_female = {
		1 = LORD_MAYOR
		2 = GRAND_MAYOR	
		3 = PRESIDENT
	}
	trigger = {
		OR = {
			culture_group = anbennarian
			culture_group = alenic
			is_cannorian_halfling_primary_culture = yes
			culture_group = lencori			
		}
		government = republic
		NOT = {
			has_reform = colonial_government
			has_reform = crown_colony_government
			has_reform = private_enterprise_colony_government
			has_reform = self_governing_colony_government
		}
	}
}

lencori_monarchy = {	
	rank = {
		1 = DUCHY
		2 = KINGDOM
		3 = EMPIRE
	}
	
	ruler_male = {
		1 = DUKE
		2 = KING
		3 = EMPEROR
	}

	ruler_female = {
		1 = DUCHESS
		2 = QUEEN	
		3 = EMPRESS
	}
	consort_male  = {
		1 = CONSORT 
		2 = PRINCE_CONSORT
		3 = EMPEROR_CONSORT
	}
	
	consort_female = {
		1 = CONSORT
		2 = QUEEN
		3 = EMPRESS_CONSORT
	}
	
	heir_male = {
		1 = HEIR
		2 = PRINCE
		3 = PRINCE
	}
	
	heir_female = {
		1 = HEIR
		2 = PRINCESS	
		3 = PRINCESS
	}
	
	trigger = {
		government = monarchy
		culture_group = lencori
	}
}

alenic_monarchy = {
	rank = {
		1 = LORDSHIP
		2 = KINGDOM
		3 = EMPIRE
	}
	
	ruler_male = {
		1 = LORD
		2 = KING
		3 = EMPEROR
	}

	ruler_female = {
		1 = LADY
		2 = QUEEN
		3 = EMPRESS
	}
	consort_male  = {
		1 = CONSORT
		2 = KING_CONSORT
		3 = EMPEROR_CONSORT
	}
	
	consort_female = {
		1 = CONSORT
		2 = QUEEN_CONSORT
		3 = EMPRESS_CONSORT
	}
	
	heir_male = {
		1 = HEIR
		2 = PRINCE
		3 = PRINCE
	}
	
	heir_female = {
		1 = HEIR
		2 = PRINCESS	
		3 = PRINCESS
	}
	
	trigger = {
		culture_group = alenic
		government = monarchy
	}
}

gnomish_republic = {
	rank = {
		1 = HIERARCHY
		2 = HIERARCHY
		3 = SUPREME_HIERARCHY
	}
	
	ruler_male = {
		1 = HIERARCH
		2 = HIERARCH
		3 = SUPREME_HIERARCH
	}

	ruler_female = {
		1 = HIERARCH
		2 = HIERARCH	
		3 = SUPREME_HIERARCH
	}
	trigger = {
		culture_group = gnomish
		government = republic
	}
}

gnomish_kingdom = {
	rank = {
		1 = HIERARCHY
		2 = HIERARCHY
		3 = SUPREME_HIERARCHY
	}
	
	ruler_male = {
		1 = HIERARCH_MONARCHY
		2 = HIERARCH_MONARCHY
		3 = SUPREME_HIERARCH_MONARCHY
	}

	ruler_female = {
		1 = HIERARCH_MONARCHY
		2 = HIERARCH_MONARCHY
		3 = SUPREME_HIERARCH_MONARCHY
	}
	trigger = {
		NOT = { tag = A80 }	#Iochand is a Kingdom proper
		culture_group = gnomish
		government = monarchy
	}
}

eordand_monarchy = {
	rank = {
		1 = DUKAD
		2 = RIGAK
		3 = ARD_RIGAK
	}
	
	ruler_male = {
		1 = SONAD
		2 = FALT
		3 = ARD_FALT
	}
	
	ruler_female = {
		1 = SURCAG
		2 = BANRAG
		3 = ARD_BANRAG
	}

	consort_male  = {
		1 = DUKAD_CARD
		2 = RIGAK_CARD
		3 = ARDRIGAK_CARD
	}
	
	consort_female = {
		1 = SURCAG_CARD
		2 = BANRAG_CARD
		3 = ARDBANRAG_CARD
	}
	
	heir_male = {
		1 = OGHAR
		2 = OGHAR
		3 = OGHAR
	}
	
	heir_female = {
		1 = BANOGHAR
		2 = BANOGHAR	
		3 = BANOGHAR
	}
	
	trigger = {
		culture_group = eordan_ruinborn_elf
		government = monarchy
	}
}

eordand_republic = {
	rank = {
		1 = COMARL
		2 = POBLAK
		3 = ARD_POBLAK
	}
	
	ruler_male = {
		1 = COMHAIR
		2 = LABRAR
		3 = CANSUDD
	}

	ruler_female = {
		1 = COMHAIR
		2 = LABRAR
		3 = CANSUDD
	}
	
	trigger = {
		government = republic
		culture_group = eordan_ruinborn_elf
	}
}

ravelian_theocracy = {
	rank = {
		1 = PROVOSTRIC
		2 = ARCH_PROVOSTRIC
		3 = HOLY_EMPIRE
	}

	ruler_male = {
		1 = PROVOST
		2 = ARCH_PROVOST
		3 = IMPERIAL_PROVOST
	}

	ruler_female = {
		1 = PROVOST
		2 = ARCH_PROVOST
		3 = IMPERIAL_PROVOST
	}

	trigger = {
		government = theocracy
		religion = ravelian
	}
}

knightly_order = {
	rank = {
		1 = KNIGHTLY_ORDER
		2 = KNIGHTLY_ORDER
		3 = KNIGHTLY_ORDER
	}

	ruler_male = {
		1 = GRANDMASTER
		2 = GRANDMASTER
		3 = GRANDMASTER
	}

	ruler_female = {
		1 = GRANDMASTER
		2 = GRANDMASTER
		3 = GRANDMASTER
	}

	trigger = {
		OR = {
			has_reform = secular_order_reform
			has_reform = monastic_order_reform
			has_country_flag = knightly_order_adventurer
		}	
	}
}

cannorian_theocracy = {
	rank = {
		1 = TEMPLE
		2 = GREAT_TEMPLE
		3 = HOLY_EMPIRE
	}

	ruler_male = {
		1 = HIGH_PRIEST
		2 = HIGH_PRIEST
		3 = HIGH_PRIEST
	}

	ruler_female = {
		1 = HIGH_PRIESTESS
		2 = HIGH_PRIESTESS
		3 = HIGH_PRIESTESS
	}

	trigger = {
		government = theocracy
		religion_group = cannorian
	}
}

oracular_order = {
	rank = {
		1 = ORACLE_ORDER
		2 = ORACLE_ORDER
		3 = HOLY_EMPIRE
	}

	ruler_male = {
		1 = FIRST_ORACLE_MALE
		2 = FIRST_ORACLE_MALE
		3 = FIRST_ORACLE_MALE
	}

	ruler_female = {
		1 = FIRST_ORACLE_FEMALE
		2 = FIRST_ORACLE_FEMALE
		3 = FIRST_ORACLE_FEMALE
	}

	trigger = {
		has_reform = oracular_order_reform
	}
}

bhuvauri_state = {
	rank = {
		1 = FREE_LAND
		2 = FREE_LAND
		3 = FREE_LAND
	}

	ruler_male = {
		1 = MUKT_SENAPTI
		2 = MUKT_SENAPTI
		3 = MUKT_SENAPTI
	}

	ruler_female = {
		1 = MUKT_SENAPTI
		2 = MUKT_SENAPTI
		3 = MUKT_SENAPTI
	}

	trigger = {
		OR = {
			has_reform = free_slave_reform
			has_reform = praxic_meritocracy_reform
		}
	}
}

raja_of_rahen = {
	rank = {
		1 = RAJ
		2 = RAJ
		3 = RAJ
	}

	ruler_male = {
		1 = RAJA
		2 = RAJA
		3 = RAJA
	}

	ruler_female = {
		1 = RAJA
		2 = RAJA
		3 = RAJA
	}

	trigger = {
	    OR = {
		    has_government_attribute = is_raja
		    tag = R70
		    tag = R71
	    }
    }
}

senapti = {
	rank = {
		1 = SENAPTI
		2 = SENAPTI
		3 = SENAPTI
	}

	ruler_male = {
		1 = SENAPTI
		2 = SENAPTI
		3 = SENAPTI
	}

	ruler_female = {
		1 = SENAPTI
		2 = SENAPTI
		3 = SENAPTI
	}

	trigger = {
		OR = {
			has_reform = senapti_reform
			AND = {
				overlord = { mission_completed = L62_cooperation_with_mengi }
				culture_group = mengi
				is_march = yes
			}
		}
		NOT = { has_country_flag = raj_vizier }
	}
}

prabhi = {
	rank = {
		1 = PRABHI
		2 = PRABHI
		3 = PRABHI
	}

	ruler_male = {
		1 = PRABHI
		2 = PRABHI
		3 = PRABHI
	}

	ruler_female = {
		1 = PRABHI
		2 = PRABHI
		3 = PRABHI
	}

	trigger = {
		OR = {
			has_reform = prabhi_reform
			has_reform = indep_prabhi_reform
			AND = {
				overlord = { mission_completed = L62_cooperation_with_mengi }
				culture_group = mengi
				is_march = no
			}
		}
		NOT = { has_country_flag = raj_vizier }
	}
}

raj_vizier_senapti = {
	rank = {
		1 = SENAPTI
		2 = SENAPTI
		3 = SENAPTI
	}

	ruler_male = {
		1 = GRAND_VIZIER
		2 = GRAND_VIZIER
		3 = GRAND_VIZIER
	}

	ruler_female = {
		1 = GRAND_VIZIER
		2 = GRAND_VIZIER
		3 = GRAND_VIZIER
	}

	trigger = {
		has_reform = senapti_reform
		has_country_flag = raj_vizier
	}
}

raj_vizier_prabhi = {
	rank = {
		1 = PRABHI
		2 = PRABHI
		3 = PRABHI
	}
	
	ruler_male = {
		1 = GRAND_VIZIER
		2 = GRAND_VIZIER
		3 = GRAND_VIZIER
	}

	ruler_female = {
		1 = GRAND_VIZIER
		2 = GRAND_VIZIER
		3 = GRAND_VIZIER
	}

	trigger = {
		OR = {
			has_reform = prabhi_reform
			has_reform = indep_prabhi_reform
		}
		has_country_flag = raj_vizier
	}
}

centaur_horde = {
	rank = {
		1 = CLAN
		2 = HORDE
		3 = GREAT_HORDE
	}
	
	ruler_male = {
		1 = CAEHN
		2 = CAEHN
		3 = GREAT_CAEHN
	}
	
	ruler_female = {
		1 = CAEHTEN
		2 = CAEHTEN
		3 = GREAT_CAEHTEN
	}
	
	trigger = {
		has_reform = centaur_horde
	}
}

centaur_settled = {
	rank = {
		1 = CLAN
		2 = HORDE
		3 = GREAT_HORDE
	}
	
	ruler_male = {
		1 = CAEHN
		2 = CAEHN
		3 = GREAT_CAEHN
	}
	
	ruler_female = {
		1 = CAEHTEN
		2 = CAEHTEN
		3 = GREAT_CAEHTEN
	}
	
	trigger = {
		has_reform = centaur_settled
	}
}

shuvuush_horde = {
	rank = {
		1 = BAADUM
		2 = KAASHEGATE
		3 = GREAT_KAASHEGATE
	}
	
	ruler_male = {
		1 = IZHUUN
		2 = KAASHEG
		3 = GREAT_KAASHEG
	}
	
	ruler_female = {
		1 = KHUSHAI
		2 = KUSHENG
		3 = GREAT_KUSHENG
	}
	
	consort_male = {
		1 = IZHUUN
		2 = KAASHEG
		3 = KAASHEG
	}
	
	consort_female = {
		1 = KHUSHAI
		2 = KUSHENG
		3 = KUSHENG
	}
	
	heir_male = {
		1 = IZHUUNAAZUN
		2 = KHUNZHE
		3 = KHUNZHE
	}
	
	heir_female = {
		1 = KHUSHAAZUN
		2 = GONJE
		3 = GONJE
	}
	
	trigger = {
		culture_group = khantaar
	}
}

odheongun_kingdom = {
	rank = {
		1 = GULBAEJUN
		2 = JAENGUN
		3 = DAJAENGUN
	}
	
	ruler_male = {
		1 = HWALBAEJ
		2 = JAENG
		3 = DAEJAENG
	}
	
	ruler_female = {
		1 = HWALEI
		2 = WAENBU
		3 = DAEWAENBU
	}
	
	consort_male = {
		1 = HWALBAEJ
		2 = JAENG
		3 = DAEJAENG
	}
	
	consort_female = {
		1 = HWALEI
		2 = WAENBU
		3 = DAEWAENBU
	}
	
	heir_male = {
		1 = BOJAEJ
		2 = BOJAENG
		3 = NOPOJAENG
	}
	
	heir_female = {
		1 = BOJEI
		2 = BOJAENBU
		3 = NOPAENBU
	}
	
	trigger = {
		government = monarchy
		OR = {
			primary_culture = menjeotaen
			primary_culture = sangsogha
		}
	}
}

yanshen_stratocracy = {
	rank = {
		1 = STRATOCRACY
		2 = STRATOCRACY
		3 = GREAT_STRATOCRACY
	}
	
	ruler_male = {
		1 = GOVERNOR-GENERAL
		2 = GRAND_GENERAL
		3 = SUPREME_GENERAL
	}
	
	ruler_female = {
		1 = GOVERNOR-GENERAL
		2 = GRAND_GENERAL
		3 = SUPREME_GENERAL
	}
	
	trigger = {
		OR = {
			tag = Y13
			AND = {
				tag = Z65
				was_tag = Y13}
			tag = Y03
		}
	}
}

stratocracy = {
	rank = {
		1 = STRATOCRACY
		2 = STRATOCRACY
		3 = GREAT_STRATOCRACY
	}
	
	ruler_male = {
		1 = MARSHAL
		2 = FIRST_MARSHAL
		3 = GRAND_MARSHAL
	}
	
	ruler_female = {
		1 = MARSHAL
		2 = FIRST_MARSHAL
		3 = GRAND_MARSHAL
	}
	
	trigger = {
		has_reform = stratocracy_reform
	}
}

sarda_monarchy = {
	rank = {
		1 = LORDSHIP
		2 = RILSO
		3 = YRISAR
	}
	
	ruler_male = {
		1 = LORD
		2 = VRYDAL
		3 = VYRISAR
	}
	
	ruler_female = {
		1 = LADY
		2 = VRYDALVA
		3 = VYRISETA
	}
	
	heir_male = {
		1 = PRINCE
		2 = PRINCE
		3 = PRINCE
	}
	
	heir_female = {
		1 = PRINCESS
		2 = PRINCESS
		3 = PRINCESS
	}
	
	trigger = {
		government = monarchy
		primary_culture = sarda
	}
}

dolindhan_monarchy = {
	rank = {
		1 = LORDSHIP
		2 = RISNO
		3 = VELIKRISNO
	}
	
	ruler_male = {
		1 = LORD
		2 = VYLEDAR
		3 = VYLYENDAR
	}
	
	ruler_female = {
		1 = LADY
		2 = VYLEDAM
		3 = VYLYENDAM
	}
	
	heir_male = {
		1 = PRINCE
		2 = PRINCE
		3 = PRINCE
	}
	
	heir_female = {
		1 = PRINCESS
		2 = PRINCESS
		3 = PRINCESS
	}
	
	trigger = {
		government = monarchy
		primary_culture = dolindhan
	}
}

rzentur_monarchy = {
	rank = {
		1 = LORDSHIP
		2 = RALJEV
		3 = VIZKRALJEV
	}
	
	ruler_male = {
		1 = LORD
		2 = VALADR
		3 = VIZVALADR
	}
	
	ruler_female = {
		1 = LADY
		2 = VALATKA
		3 = VIZVALATKA
	}
	
	heir_male = {
		1 = PRINCE
		2 = PRINCE
		3 = PRINCE
	}
	
	heir_female = {
		1 = PRINCESS
		2 = PRINCESS
		3 = PRINCESS
	}
	
	trigger = {
		government = monarchy
		primary_culture = rzentur
	}
}

kalavendhi_monarchy = {
	rank = {
		1 = DHAVAMAI
		2 = ARYACIMAI
		3 = CAMRAYAMAI
	}
	
	ruler_male = {
		1 = DHAVANA
		2 = ARYACAN
		3 = CAMRAYACAN
	}
	
	ruler_female = {
		1 = ELAVI
		2 = ARACI
		3 = CAMRAYANI
	}
	
	consort_male = {
		1 = DHAVANA
		2 = ARYACAN
		3 = CAMRAYACAN
	}
	
	consort_female = {
		1 = ELAVI
		2 = ARACI
		3 = CAMRAYANI
	}
	
	heir_male = {
		1 = TALDHAVANA
		2 = AVALIRIKAN
		3 = AVALIRIKAN
	}
	
	heir_female = {
		1 = TALNIDHAVANA
		2 = AVALIKUMARI
		3 = AVALIKUMARI
	}
	
	trigger = {
		primary_culture = kalavendhi
		government = monarchy
	}
}

yodhanpir_monarchy = {
	rank = {
		1 = YODHANCHEND
		2 = RAYOCHEND
		3 = CAKRAYOCHEND
	}
	
	ruler_male = {
		1 = YODHAN
		2 = RAYODHAN
		3 = CAKRAYODHANTI
	}
	
	ruler_female = {
		1 = YODHENGASU
		2 = RAYODANI
		3 = CAKRAMAHISI
	}
	
	consort_male = {
		1 = YODHAN
		2 = RAYODHAN
		3 = CAKRAYODHANTI
	}
	
	consort_female = {
		1 = HENGASU
		2 = DANI
		3 = MAHISI
	}
	
	heir_male = {
		1 = YODHANNAGUR
		2 = RAYODHANNAGUR
		3 = CAKRAYODHANTINAGUR
	}
	
	heir_female = {
		1 = YODHANNAGULU
		2 = RAYODHANNAGULU
		3 = CAKRAYODHANTINAGULU
	}
	
	trigger = {
		primary_culture = yodhanpir
		government = monarchy
	}
}

thekvrystana_monarchy = {
	rank = {
		1 = DANNUKVAM
		2 = ADHIPAKVAM
		3 = ADHIVAGAM
	}
	
	ruler_male = {
		1 = DANNUKA
		2 = ADHIPAYAV
		3 = ADHIVAMRATT
	}
	
	ruler_female = {
		1 = VENITA
		2 = ADHIPAYAVNI
		3 = ADHIVAMRAHANI
	}
	
	consort_male = {
		1 = DANNUKA
		2 = ADHIPAYAV
		3 = ADHIVAMRATT
	}
	
	consort_female = {
		1 = VENITA
		2 = ADHIPAYAVNI
		3 = ADHIVAMRAHANI
	}
	
	heir_male = {
		1 = DANNUKPATRUY
		2 = ADHIPPATRUY
		3 = ADHIVAMPATRUY
	}
	
	heir_female = {
		1 = DANNUKPATRI
		2 = ADHIPPATRI
		3 = ADHIVAMPATRI
	}
	
	trigger = {
		primary_culture = thekvrystana
		government = monarchy
	}
}

thekvrystana_republic = {
	rank = {
		1 = GAVRAKTAM
		2 = GAPOVRAKTAM
		3 = VALIYA_GAPOVRAKTAM
	}
	
	ruler_male = {
		1 = VRAKKA
		2 = POVRAKKA
		3 = RASVRAPAKKA
	}
	
	ruler_female = {
		1 = VRAKKANI
		2 = POVRAKKANI
		3 = RASVRAPAKKANI
	}
	
	trigger = {
		primary_culture = thekvrystana
		government = republic
	}
}

larankarha_monarchy = {
	rank = {
		1 = MARADA
		2 = AMARARAM
		3 = AMARAYAM
	}
	
	ruler_male = {
		1 = DHEKKA
		2 = AMARYARU
		3 = AMARAWOR
	}
	
	ruler_female = {
		1 = ESTRI
		2 = AMARYARNI
		3 = AMARAWORNI
	}
	
	consort_male = {
		1 = DHEKKA
		2 = AMARYARU
		3 = AMARAWOR
	}
	
	consort_female = {
		1 = ESTRI
		2 = AMARYARNI
		3 = AMARAWORNI
	}
	
	heir_male = {
		1 = DHEKKAMARUI
		2 = AMARAVARA
		3 = AMARAVARAJU
	}
	
	heir_female = {
		1 = DHEKKAMARUTY
		2 = AMARASURA
		3 = AMARASURUNI
	}
	
	trigger = {
		primary_culture = larankarha
		OR = {
		    is_tribal = yes
		    government = monarchy
		}
	}
}

infernal_order_state = {
	rank = {
		1 = GRANDMASTER
		2 = GRANDMASTER
		3 = IMPERIAL_GRANDMASTER
	}
	
	ruler_male = {
		1 = GRANDMASTER
		2 = GRANDMASTER
		3 = IMPERIAL_GRANDMASTER
	}
	
	ruler_female = {
		1 = GRANDMISTRESS
		2 = GRANDMISTRESS
		3 = IMPERIAL_GRANDMISTRESS
	}
	
	trigger = {
		has_reform = infernal_order_state_reform
	}
}

roangu_thidin = {
	rank = {	
		1 = VUNG_QUC
		2 = VUNG_QUC
		3 = VINHANG_DECH
	}
	
	ruler_male = {
		1 = VUAYU 
		2 = VUAYU 
		3 = KASAI 
	}
	
	ruler_female = {
		1 = ANROANG
		2 = ANROANG
		3 = ANROANG
	}

	consort_male = {
		1 = NGI_HONG 	
		2 = NGI_HONG	
		3 = NGI_HONG	
	}
	
	consort_female = {
		1 = NGI_VO	
		2 = NGI_VO
		3 = NGI_VO
	}
	
	heir_male = {
		1 = CONRI_BINH 
		2 = CONRI_BINH
		3 = CONRI_BINH
	}

	heir_female = {
		1 = CONGI_BINH	
		2 = CONGI_BINH
		3 = CONGI_BINH
	}
	
	trigger = {
		has_reform = roangu_thidin_reform
		primary_culture = binhrung
	}
}

kar_ankash_theocracy_reform = {
	rank = {
		1 = DOOKANIST_COUNTY
		2 = DOOKANIST_KINGDOM
		3 = DOOKANIST_EMPIRE
	}
	
	ruler_male = {
		1 = DOOKANIST_SHAMAN_MALE
		2 = DOOKANIST_SHAMAN_MALE
		3 = DOOKANIST_SHAMAN_MALE
	}

	ruler_female = {
		1 = DOOKANIST_SHAMAN_FEMALE
		2 = DOOKANIST_SHAMAN_FEMALE
		3 = DOOKANIST_SHAMAN_FEMALE
	}
	
		trigger = {
		has_reform = kar_ankash_theocracy_reform
	}
}

balrijin_sage_council_reform = {
	rank = {
		1 = GOLDSCALE_SAGE_COUNTY
		2 = GOLDSCALE_SAGE_KINGDOM
		3 = GOLDSCALE_SAGE_EMPIRE
	}
	
	ruler_male = {
		1 = GOLDSCALE_SAGE_MALE
		2 = GOLDSCALE_SAGE_MALE
		3 = GOLDSCALE_SAGE_MALE
	}

	ruler_female = {
		1 = GOLDSCALE_SAGE_FEMALE
		2 = GOLDSCALE_SAGE_FEMALE
		3 = GOLDSCALE_SAGE_FEMALE
	}
	
	trigger = {
		has_reform = balrijin_sage_council_reform
	}
}

harpy_matriarchy = {
	rank = {
		1 = FLOCK
		2 = MATRIARCHY
		3 = HARPY_QUEENDOM
	}
	
	ruler_male = {
		1 = CHIEF
		2 = KING
		3 = EMPEROR
	}
	
	ruler_female = {
		1 = MATRIARCH
		2 = MATRIARCH
		3 = QUEEN
	}

	trigger = {
		OR = {
			government = tribal
			government = monarchy
		}
		not = { has_reform = naleni_thalassocracy_reform }
		culture_group = harpy
	}
}

kobold_clan = { #Leader names are placeholders until Soren and Redeyes can agree on a proper name for the heads of kobold clans.
	rank = {
		1 = CLAN
		2 = GREAT_CLAN
		3 = GREAT_CLAN
	}
	
	ruler_male = {
		1 = BURUZAGI
		2 = BURUZAGI
		3 = BURUZAGI
	}
	
	ruler_female = {
		1 = BURUZAGI
		2 = BURUZAGI
		3 = BURUZAGI
	}

	trigger = {
		government = tribal
		culture_group = kobold
		NOT = { culture = darkscale_kobold }
	}
}

darkscale_clan = {
	rank = {
		1 = SCARLET_CLAN
		2 = RED_KINGDOM
		3 = CRIMSON_EMPIRE
	}
	
	ruler_male = {
		1 = KRYEXAR
		2 = MREZ
		3 = FERANXOR
	}
	
	ruler_female = {
		1 = KRYEXONJE
		2 = MREZNEZE
		3 = FERANXEZE
	}

	trigger = {
		OR = {
			government = tribal
			government = monarchy
		}
		culture = darkscale_kobold
	}
}

metsamic_city_state = {
	rank = {
		1 = CITY
		2 = CITY
		3 = CITY
	}

	ruler_male = {
		1 = PUNGIPEA
		2 = PUNGIPEA
		3 = PUNGIPEA
	}

	ruler_female = {
		1 = PUNGIPEA
		2 = PUNGIPEA
		3 = PUNGIPEA
	}

	trigger = {
		government = republic
		primary_culture = metsamic
		NOT = { tag = J33 }
	}
}

zabatlari_city_state = {
	rank = {
		1 = CITY
		2 = CITY
		3 = CITY
	}

	ruler_male = {
		1 = QASHLAIKIM
		2 = QASHLAIKIM
		3 = QASHLAIKIM
	}

	ruler_female = {
		1 = QASHLAIKIM
		2 = QASHLAIKIM
		3 = QASHLAIKIM
	}

	trigger = {
		government = republic
		primary_culture = zabatlari
		NOT = { tag = J33 }
	}
}

khamgunai_city_state = {
	rank = {
		1 = CITY
		2 = CITY
		3 = CITY
	}

	ruler_male = {
		1 = KHOIDARG
		2 = KHOIDARG
		3 = KHOIDARG
	}

	ruler_female = {
		1 = KHOIDARG
		2 = KHOIDARG
		3 = KHOIDARG
	}

	trigger = {
		government = republic
		primary_culture = khamgunai
		NOT = { tag = J33 }
	}
}

jiangdu_war_empire = { 
	rank = {
		1 = JIANGDU_WAR_EMPIRE
		2 = JIANGDU_WAR_EMPIRE
		3 = JIANGDU_WAR_EMPIRE
	}
	
	ruler_male = {
		1 = GOVERNOR-GENERAL
		2 = GRAND_GENERAL
		3 = SUPREME_GENERAL
	}
	
	ruler_female = {
		1 = GOVERNOR-GENERAL
		2 = GRAND_GENERAL
		3 = SUPREME_GENERAL
	}
	
	trigger = {
		has_reform = jiangdu_war_empire_reform
	}
}

dakocracy = {
	rank = {
		1 = DAKOCRACY
		2 = GRAND_DAKOCRACY
		3 = SUPREME_DAKOCRACY
	}
	
	ruler_male = {
		1 = DAKOCRACY_DUKE
		2 = DAKOCRACY_KING
		3 = DAKOCRACY_EMPEROR
	}
	
	ruler_female = {
		1 = DAKOCRACY_DUKE
		2 = DAKOCRACY_KING
		3 = DAKOCRACY_EMPEROR
	}
	
	trigger = {
		has_reform = chaingrasper_dakocracy_reform
		has_reform = chaingrasper_early_dakocracy_reform
	}
}

anisikheioni_naval_stratocracy = {
	rank = {
		1 = NAVAL_STRATOCRACY
		2 = NAVAL_STRATOCRACY
		3 = NAVAL_STRATOCRACY
	}
	
	ruler_male = {
		1 = GRAND_ADMIRAL
		2 = GRAND_ADMIRAL
		3 = GRAND_ADMIRAL
	}
	
	ruler_female = {
		1 = GRAND_ADMIRAL
		2 = GRAND_ADMIRAL
		3 = GRAND_ADMIRAL
	}
	
	trigger = {
		has_reform = anisikheioni_naval_stratocracy
	}
}

verkal_ozovar_magocracy = {
	rank = {
		1 = DIARCHY
		2 = MOUNTAIN_DIARCHY
		3 = IMPERIAL_DIARCHY
	}

	ruler_male = {
		1 = DIARCH
		2 = DIARCH
		3 = GRAND_DIARCH
	}
	
	ruler_female = {
		1 = DIARCH
		2 = DIARCH
		3 = GRAND_DIARCH
	}
	
	trigger = {
		has_reform = verkal_ozovar_magocracy
	}
}

luciande_lucians_domain_reform = {
	rank = {
		1 = DOMAIN
		2 = DOMAIN
		3 = DOMAIN
	}
	
	ruler_male = {
		1 = COUNT
		2 = COUNT
		3 = COUNT
	}
	
	ruler_female = {
		1 = COUNT
		2 = COUNT
		3 = COUNT
	}
	
	trigger = {
		has_reform = luciande_lucians_domain_reform
	}
}

eltikan_true_riei = {
	rank = {
		1 = RIEIDOM
		2 = RIEIDOM
		3 = GOD_BLESSED_RIEIDOM
	}
	
	ruler_male = {
		1 = RIEI
		2 = RIEI
		3 = GOD_BLESSED_RIEI
	}
	
	ruler_female = {
		1 = RIEI
		2 = RIEI
		3 = GOD_BLESSED_RIEI
	}
	
	trigger = {
		has_reform = eltikan_true_riei
	}
}

vermillion_throne_reform = {
	rank = {
		1 = DUCHY
		2 = KINGDOM
		3 = EMPIRE
	}
	ruler_male = {
		1 = KING
		2 = KING
		3 = KING
	}
	ruler_female = {
		1 = KING
		2 = KING
		3 = KING
	}
	trigger = {
		has_reform = vermillion_throne_reform
	}
}

vf_krilavuna_magocracy = {
	rank = {
		1 = RIVERSHIP
		2 = HIGH_RIVERSHIP
		3 = HIGH_RIVERSHIP
	}

	ruler_male = {
		1 = RIVERLORD
		2 = RIVERKING
		3 = RIVERKING
	}
	
	ruler_female = {
		1 = RIVERLADY
		2 = RIVERQUEEN
		3 = RIVERQUEEN
	}
	
	trigger = {
		has_reform = vf_krilavuna_magocracy
	}
}

lotus_seat_reform = {
	rank = {
		1 = LOTUS_SEAT
		2 = HIGH_LOTUS_SEAT
		3 = LOTUS_THRONE
	}

	ruler_male = {
		1 = RANA
		2 = RANA
		3 = MAHARANA
	}
	
	ruler_female = {
		1 = RANI
		2 = RANI
		3 = MAHARANI
	}

	consort_female = {
		1 = RANI
		2 = RANI
		3 = MAHARANI
	}
	
	trigger = {
		has_reform = lotus_seat_reform
	}
}

traveling_cheqhanate_reform = {
	rank = {
		1 = QAANATE
		2 = CHEQHANATE
		3 = GRAND_CHEQHANATE
	}

	ruler_male = {
		1 = QAAN
		2 = CHEQHAN
		3 = CHEQHAN
	}

	ruler_female = {
		1 = QATUUN
		2 = CHEQHATUUN
		3 = CHEQHATUUN
	}

	trigger = {
		has_reform = traveling_cheqhanate_reform
	}
}

kalsyto_khamgunai = {
	rank = {
		1 = KHOQSITO
		2 = KHOQSITO
		3 = KHOQSITO
	}

	ruler_male = {
		1 = YURONKHOLBU
		2 = YURONKHOLBU
		3 = YURONKHOLBU
	}

	ruler_female = {
		1 = YURONKHOLBU
		2 = YURONKHOLBU
		3 = YURONKHOLBU
	}

	trigger = {
		government = republic
		ruler_culture = khamgunai
		tag = J33
	}
}
kalsyto_metsamic = {
	rank = {
		1 = KHOQSITO
		2 = KHOQSITO
		3 = KHOQSITO
	}

	ruler_male = {
		1 = JOHTASTALTO
		2 = JOHTASTALTO
		3 = JOHTASTALTO
	}

	ruler_female = {
		1 = JOHTASTALTO
		2 = JOHTASTALTO
		3 = JOHTASTALTO
	}

	trigger = {
		government = republic
		ruler_culture = metsamic
		tag = J33
	}
}
kalsyto_zabatlari = {
	rank = {
		1 = KHOQSITO
		2 = KHOQSITO
		3 = KHOQSITO
	}

	ruler_male = {
		1 = RIAZDFOSIYA
		2 = RIAZDFOSIYA
		3 = RIAZDFOSIYA
	}

	ruler_female = {
		1 = RIAZDFOSIYA
		2 = RIAZDFOSIYA
		3 = RIAZDFOSIYA
	}

	trigger = {
		government = republic
		ruler_culture = zabatlari
		tag = J33
	}
}

eagle_hobgoblins_searching_reform = {
	rank = {
		1 = MAGE_COUNCIL
		2 = MAGE_COUNCIL
		3 = MAGE_COUNCIL
	}
	
	ruler_male = {
		1 = EMAGE_MALE
		2 = EMAGE_MALE
		3 = EMAGE_MALE
	}
	
	ruler_female = {
		1 = EMAGE_FEMALE
		2 = EMAGE_FEMALE
		3 = EMAGE_FEMALE
	}
	
	trigger = {
		has_reform = eagle_hobgoblins_searching_reform
	}
}
heroic_realm_reform_hero = {
    rank = {
        1 = HEROICREALM
        2 = HEROICKINGDOM
        3 = HEROICEMPIRE
    }
    ruler_male = {
        1 = HERO_PRINCE
        2 = HERO_KING
        3 = HERO_EMPEROR
    }
    ruler_female = {
        1 = HERO_PRINCESS
        2 = HERO_QUEEN
        3 = HERO_EMPRESS
    }
    trigger = {
		has_government_attribute = is_heroic_realm
		is_monarch_leader = yes
    }
} 

heroic_realm_reform = {
    rank = {
        1 = HEROICREALM
        2 = HEROICKINGDOM
        3 = HEROICEMPIRE
    }
    ruler_male = {
        1 = PRINCE
        2 = KING
        3 = EMPEROR
    }
    ruler_female = {
        1 = LADY
        2 = QUEEN
        3 = EMPRESS
    }
    trigger = {
		has_government_attribute = is_heroic_realm
    }
} 

eagle_hobgoblins_rule_of_order_reform = {
	rank = {
		1 = MAGE_COUNCIL
		2 = MAGE_COUNCIL
		3 = MAGE_COUNCIL
	}
	
	ruler_male = {
		1 = DENUNRANSUN
		2 = DENUNRANSUN
		3 = DENUNRANSUN
	}
	
	ruler_female = {
		1 = DENUNRANSUN
		2 = DENUNRANSUN
		3 = DENUNRANSUN
	}
	
	trigger = {
		has_reform = eagle_hobgoblins_rule_of_order_reform
	}
}

karakhanbar_black_hearth_council = { 
	rank = { 
		1 = DOMINION_K
		2 = DOMINION_K 
		3 = HEGEMONY
	} 
	 
	ruler_male = { 
		1 = OVERLORD 
		2 = OVERLORD 
		3 = HIGH_OVERLORD 
	} 
	 
	ruler_female = { 
		1 = OVERLORD 
		2 = OVERLORD 
		3 = HIGH_OVERLORD 
	} 
	 
	trigger = { 
		has_reform = karakhanbar_black_hearth_council_reform 
	}
}

grombari_council_reform = { 
	rank = { 
		1 = GREAT_COUNCIL
		2 = GREAT_COUNCIL 
		3 = GREAT_COUNCIL
	} 
	 
	ruler_male = { 
		1 = WARMASTER 
		2 = WARMASTER 
		3 = WARMASTER 
	} 
	 
	ruler_female = { 
		1 = WARMASTER 
		2 = WARMASTER 
		3 = WARMASTER 
	} 
	 
	trigger = { 
		has_reform = grombari_council_reform 
	}
}