# 

golden_highway_bulwar_proper = {
	565 567 572 561 584 596 598 600 601 602 608 613 628
}
golden_highway_far_bulwar = {
	625 626 627 631 634 639 640 641 642 643 647 558 585
}
golden_highway_far_salahad = {
	2900 2901 2902 2905 2908 2910 2913
}
golden_highway_rahen_coast = {
	4361 4363 4368 4379 4412 4411 4410 4381 4404 4391 4392 4418 4399 4420 4406 
}
golden_highway_dhujat = {
	4408 4409 4492 4496 4493 4497 4499
}
golden_highway_xianjie = {
	4470 4489 4500 4620 4511 4611 4938 4613 4559 4617 4618 4641 4817 4819
}
golden_highway_upper_yanshen = {
	4826 4952 4842 4845 4850 4846 4853 4854 4859 4861
}
golden_highway_yanshen_coast = {
	4873 4867 4868 4869 4870 4871
}

irrigation_dwarovar = {
	4125 4129 4123 4142 4131 4143 4158 4151 4152 4166 4164 4145
}

adbrabohvi_dam_near = {
	1133 1144 1137 2816 1142 1136 2861 1825 1826 1827 2859 1143 2858 1135 1877 1134 1874 2860 1830 1832 1833 1834 1822
}

adbrabohvi_dam_far = {
	1839 1838 1852 1853 2729 1840 1854 1855 1856 1860 1859 1857 1858 1841 1828 2857 1829 1831 1843
}

vels_bacar_dam_near = {
	2810 1821 1878 2811 1166 2837 2809 1819 1820 1824 2813 1167 2812 1187 1138 1837 2781 1140 1139 1148
}

vels_bacar_dam_far = {
	1149 1155 2783 2841 1150 2817 1154 1151 2606 2615 2844 1157 1156 2818 2784 1161 1158 1159 2815 2807 1160 1147 1146
}

bosancovac_dam_near = {
	1165 2839 1171 2814 2862 2840 2488 1172 1180 2742
}

bosancovac_dam_far = {
	1163 1164 2819 1162 1176 
}

mocbarja_dam_near = {
	1188 1170 1182 1168 1169 2808 1186
}

mocbarja_dam_far = {
	1851 1850 1848 1849 1847 2842 1846 1823 1800 1816 1815 2843 1817 1818 2838 1755
}

bojevynn = {
	1815 1816 1817 2843 1191 1190 1189
}

ancovynn = {
	1165 2837 2781 2811 1166 1140
}

arganynn = {
	1188 1187 1186 1168 2809 2812 1819 2813 1820 1878 1821
}

velsynn = {
	1138 1822 1825 1137 1826 1136 1827 1135 1828 1829 1830 1877 2860 1134 1833
}

predpadhynn = {
	1133 2757 1835 1031 1901 1873 1026 1028
}

west_dolindha = {	#Means west of Vareynn
	1823 2842 1824 1818 1820 1819 2809 1187 1188 1186 2813 1167 2808 2812 1168 1169 1170 1182 1755 2838
}

east_dolindha = {
	1166 2811 2837 1165 2862 2839 1172 2814 1171 1180 2742 2840 2488
}

sarda_eastern_lands = {
	2757 1133 1145 1144 1135 1877 1134 1874 2860 1137 1138 2816 1142 1136 1149 1148 1155 1139 1140 1141 2841 2810 2861 2859 1143 2858
}

ynn_western_lands = {	#The part of Dolindha and Sarda west of the Ynn
	1187 1818 1819 1820 1821 1822 1823 1824 1825 1826 1827 1828 1829 1830 1831 1832 1833 1834 1835 1837 1838 1839 1840 1841 1843 1844 1858 1878 2809 2842 2857
}

ynn_riverside = {
	1191 1190 1189 1168 2812 2813 1165 2837 1140 1138 1137 1136 1133 2757 2781 1835 1833 1830 1829 1828 1817 1816 1815 2843 1188 1186 1187 2809 1819 1820 2811 1166 1821 1878 1822 1135 1877 1134 2860 1827 1826 1825
}

deepwoods_lake_grove = {
	3005 3004 3006 3007 3008 7000 7001 7002
}

deepwoods_mountain_grove = {
	3018 3019 3020 3021 3022 7008 7009 7010
}

deepwoods_thorn_grove = {
	3013 3014 3015 3016 3017 7006 7007
}

deepwoods_bone_grove = {
	3009 3010 3011 3012 3067 7003 7004 7005
}

deepwoods_flower_grove = {
	3027 3028 3029 3030 3031 7016 7017
}

deepwoods_hunter_grove = {
	3023 3024 3025 3026 7011 7012 7013
}

deepwoods_arrow_grove = {
	3032 3033 3034 3035 3036 3037 3038 7014 7015
}

deepwoods_river_grove = {
	3039 3040 3041 3042 7018 7019 7020 7021
}

deepwoods_shadow_grove = {
	3043 3044 3045 3046 3047 7022 7023 7024
}

deepwoods_outward_gladeways = {
	3071 3048 3054 3068 3065 3064 3069 3070 7029
}

deepwoods_inner_gladeways = {
	3049 3055 3056 3059 3062 7026 7031 7032 
}

deepwoods_feytouched_gladeways = {
	3050 3051 3052 3053 3058 3057 3063 3066 7025 7027 7030 7033  
}

fey_abundant_goods_provinces = {
	3010 3013 3014 3019 3021 3023 3025 3029 3031 3034 3038 3043 3047 3067 7014 7020 7024 7026 7031 7032 7033
}

harimraj_core_lands = {
	4390 4418 4419 4417 4392 4393 4391 4421 4422 4425 4424 4423 4416 4404 4394 4405 4410 4413 4438
	4415 4414 4412 4411 4385 4379 4378 4368 4426 4428 4429 4432 4431 4430 4427 4433 4434 4435 4436 4441
	4399 4398 4406 4407 4408 4490 4373 4401 4381
}

kharunyana_jungles = {
	4389 4395 4551 4398 4562 4554 4556 4558 4557 4563 4569 4568 4572 4566 4567 4581 4579 4588
}

bhuvauri_dam_provinces = {
	4420 4409 4497 4600 4500 4470 4489 4364 4620 4510 4560 4565 4594 4418 4391 4410 4411 4430 4435 4438 4580 4941
}

east_alecand = {
	2756 2726 2758 2759 2727 2728 2761 2730 2762 2763 2731 2765 2764 2732 2767 2768 2733 2734 2735 2725 2724 2770
	2769 2736 2771 2737 2738 2775 2776 2777 2773 2772 2739 2745 2778 2743 2744
}

alen_river_cities = {
	216 219 337 220 339 221 222 223 225 226
}

western_alenic_reach = {
	721 706 722 704 705 723 752 731 702 703 724 700 699 696 695 697 698
}

lupulan_rainforest_interior = {
	4719 4721 4725 4726 4723 4724 4766 4735 4964 4733 4732 4772 4730 4956 4957 4953 4959 4741 4965 4736 4765 4710 4734 4737 4713 4767 4712 4768 4708 4769
}

porcelain_cities = {	#added Nundujisbid, which can become a porcelain city later and starts with the trade good
	4470 4500 4600 4493 4396 4409
}

suran_river = {
	565 567 572 561 584 596 598 600 601 604 607 612 625 626 627 631 634 639 640 641 642 643 
}

suran_and_baranun_river = {
	565 567 572 561 584 596 598 600 601 604 607 612 625 626 627 631 634 639 640 641 642 643 560 586 588 591 599 602 608 613
}

harpies_road = {
	536 544 545 649 654 660 663 661 666 667 671 619 3263 4117 672 673 674 678 677 676
}

sur_mountains = {
	679 680 682 693 692 691 686 687 605 606 689 597 683 685 688
}
seiche_1 = {
	5305 5229 5297 5296 5295 5289 5306
}

seiche_2 = {
	5278 5277 5276 5273 5271 5270
}

seiche_3 = {
	5259 5258 5257 5256 5252
}

seiche_4 = {
	5237 5236 5235 5234 5233 5229
}

triunic_crescent = {
	5224 5223 5195 5191 5190 5189 5188 5187 5180 5167 5166 5164 5163 5160 5158 5156 5151 5149 5146 5145 5141 5140 5135 5138 5137 5134 5130 5129 5126 5125 5123 5285
	5284 5283 5282 5304 5281 5280 5302 5300 5305 5229 5297 5296 5295 5289 5306 5286 5278 5277 5276 5273 5271 5270 5269 5267 5265 5264 5263 5262 5261 5259 5258 5257 
	5256 5252 5251 5249 5247 5246 5242 5241 5238 5236 5237 5235 5234 5233 
	5274 5275 5291 5292 5293 5294 5301 5279 5272 5268 5254 5250 5248 5245 5244 5121 5119 5117 5115 5116 5018 5011 5010 5008 5320 5321 5323 5108 
}

triunic_cities = {
	5229 5226 5231 5234 5235 5237 5238 5246 5248 5253 5256 5257 5258 5259 5262 5267 5269 5270 5271 5273 5274 5276 5287 5304 5284 5290 5293 5295 5296 5305 5249
}

fp_rivers = {
	5123 5122 5120 5111 5110 5109 5106 5015 5062 5061 5016 5013 5019 5021 5026 5025 5027 5029 5033 5035 5036 5037
	5129 5128 5131 5071 5074 5073 5092 5093 5094 5095 5096 5099 5102
	5146 5147 5148 5150 5149 5151 5155 5154 5152
	5189 5190 5186 5179 5166 5165
	5195 5191 5192 5184 5177 5174
	5217 5222 5216 5215 5212 5205 5202
}

fp_mainland_cot = {
	5003 5037 5029 5057 5110 5129 5102 5094 5077 5148 5086 5145 5160 5186 5174 5217 5202
}

fp_yarikhoi_cot = {
	5305 5295 5287 5304 5276 5262 5253 5257 5246 5236 5226
}

lake_shore = {
	5110 5111 5113 5112
}

wild_clan_lands = {
	5024 5019 5021 5020 5022 5005
}

triunic_road = {
	5203 5199 5198 5197 5194 5195 5183 5177 5174 5173 5171 5170 5188 5187 5186 5185 5192 5169 5166 5164 5162 5159 5157 5155 5151 5150 5148 5089 5085 5146
	5144 5142 5139 5132 5133 5130 5128 5071 5074 5073 5092 5093 5094 5096 5099 5127 5067 5113 5112 5123 5122 5120 5063 5059 5058 5062 5061 5015 5013 5004 5303
	5088 5103 5104 5105 4117
}

luna_river_basin = {
	898 299 298 296 327 906 329 587 109 394 282 284 295 287 25 45 50 569 285 331
}

hold_province = {
	62 526 4149 4119 4128 4122 4208 2868 2931 4236 4056 4039 2973
	4093 4217 4218 4078 4247 4284 4350 4311 4313 4265 4266 4323 2863 4097 2963 4100 2942 4238 4124 2914 912 4020 4147 5424
}

segbandal_hold_province = {
	4217 4078 4124 2914 4218
}

dwarovrod_group = {
	2864 2865 2866 2867 2871 2872 2873 2874 2875 2877 2878 2879 
	2880 2881 2882 2883 2884 2885 2886 2887 2888 2889 2890 2891 
	2892 2893 2894 2895 2932 2933 2934 2935 2937 4027 4028 4029 
	4043 4090 4091 4111 4112 4113 4114 4231 4242 4243 4244 4245 
	4246 4248 4249 4250 4255 4256 4257 4258 4259 4260 4261 4262 
	4263 4264 4297 4298 4300 4302 4303 4304 4305 4306 4307 4308 
	4309 4310 4314 4315 4316 4317 4318 4319 4320 4356 4359
}

dagrinrod_group = {
	3003 3002 3001 3000 2999 2998 2997 2996 2994 2993 2992 2991 2990 2989 2988 2876 4104
}

surakes_bulwari_cities = { 
	631 538 613 616 591 604 601 599 565 550 536 665 521 560 556 590 596 561 629 640 607 
} 
 
surakes_bulwari_borders = { 
	680 519 534 650 676 3263 643 2915 2922 4376 2913 566 2908
} 
 
surakes_river_provinces = { 
	565 561 560 596 591 599 601 604 613 607 629 631 640 643 521 536 
} 
 
surakes_mountain_provinces = { 
	2904 2908 665 522 660 676 688 687 550 682
} 
 
surakes_desert_provinces = { 
	6103 571 583 4400 2913 2909 2927 2923 2900
}

mothers_sorrow_group = {
	462 503 463 546 464 466 467 468 469 471 6088 472 473 474 475 6089 476 477 478 479 480 6090 481 482 483 484 486 5478 5479 5481
}
# themarenn mt
esmar_river_group = {
	328 281 297 44 280 916 274 333 267 266 260 911 262 254 908 234
}

logrodaine_river_group = {
	266 268 271 909 901 309 308 912
}

hehaine_river_group = {
	268 270 263 356 353 352 351 261 350
}

origin_province_group = {
	328 912 261 350
}

# Castanor MT
white_walls = {
	746 747 754 755 756 828 829 830 837 850 855 860 862 865 866 869 873 874
}
dragon_road = {
	829 830 821 825 820 809 801 800 807 803 441 440 431 428 443 446 3717 3718 447
}
legionway_inner_castanor = {
	829 830 834 835 839 837 754 841 853 855 865 840 847 849 828
}
legionway_south_castanor = {
	803 807 800 801 809 820 821 822 817 818 876 885 888 827 826 824 795 796 441 891 895 896 4097
}
legionway_west_castanor = {
	780 782 774 773 764 767 756 785 753 751 749 729 725 726 229 783 788 790 
}
legionway_to_bal_vroren = {
	748 744 742 738 737 740
}
legionway_bal_vroren_to_konungrhaven_citadel = {
	987 3189 984 983 982 980 978 977 975 3188 973 972 974 3187 954 956
}
legionway_bal_mire_to_bal_vertesk = {
	226 227 228 225 223 222 221 220 339 337 219 216
}
legionway_bal_vertesk_to_foddimad_citadel = {
	211 212 336 150 167 170 183
}
legionway_bal_vertesk_to_bal_hyl = {
	251 249 915 233 234 255 259 260 266 268 271 909 901 302 303
}
legionway_bal_dostan_to_bal_hyl = {
	440 431 430 428 427 323 324 325 904 305 306 313
}
legionway_forlorn_vale = {
	777 778 263 356 359 352
}
legionway_dragon_coast_to_redfort_citadel = {
	210 209 207 205 157 152 158 133 71 70 153 156 18 28 10 15 20 59 68 67
}
legionway_dragon_coast_to_daromsfort_citadel = {
	145 144 103 141 143 142 129 126 128 123 121 112 110 102 58
}
legionway_to_bal_ouord = {
	510 507 506 448 447 3718 3717 446 3714 442
}
legionway_bal_ouord_to_gelkalis = {
	512 513 520 529 530 531 535 536 541 543 547 545 550 651 654 653 655 665 652
}
legionway_gelkalis_to_anzabad = {
	610 591 588 586 560 664 663
}
legionway_anzabad_to_sorrowgate = {
	568 679 680 501 500 499 498 497 495 493 492 490 465 546 467 468 466 464
}
legionway_gelkalis_to_azka_sur = {
	668 671 618 616 622 624
}
legionway_gelkalis_to_sorrowgate = {
	610 603 568 679 680 501 500 499 498 497 495 493 492 490 465 546 467 468 466 464
}
castanorian_citadels = {
	306 441 510 216 229 740
}
greatwoods_province_group = {
	225 240 344 241 242 702 731 752 
	703 700 734 733 227 228 706 722 
	710 726 711 725 716 712 715 701
	713 714 717 719 720 727 728 750
	729 749 730 748 745 732 741 744
	742 739 738 737 740 758 751 724
	723 705 704 721 709 718 735 699
	696 695 697 698 694 343 229 230
	232 231 753 
}

marlliande_vampire_estates = {
	1024 1023 1021 2449 1959 1991 1127 1129 1128 1961 2609 1131 1132 1025 1026 1956 1027 2476 2563
}

ynncliffwalls_upper = {
	1153 2836 1152 1147 1145 2757 1835 1836 1882 1881 1879 1810
}
ynncliffwalls_lower = {
	1123 1128 2609 1131 1025 1031 1901 1029 1953 1032 1041 1042 1040 1038 1935 1949 1941 
}
ynn_dams_provinces = {
	1133 1138 1165 1186
}

# Esthil MT
southern_walls = {
	829 830 828 855 866 874 873 865 869 862 860
}
northern_walls = {
	756 755 754 747 746 850
}

# Ravelian State MT
rc_temple_provinces = {
	151 308 451 4 67 332 52 352 249 265 97
}
gommo_provinces_haless_bulwar = { 
	536 4435 365 4879 2773 4701 4963 4871 4500 4936 
	#Aqatbar, Rayavhashapal, Port Jaher Feiten Kherka Cay Cam Sinh Arawkelin Tianlou Sarisung Mao Ji
}

# Yanszin
original_yanszin = {
	4849 4853 4854 4933 4855 4950 4858 4861 4859
}
anjiang_path = {
	4846 4850 4845 4842 4952 4826 4819 4817 4641 4623 4622 4527
}

### Azkare Exclusive! ###
golden_highway_south_haless = { #From Semphrerong to Cay Cam Sinh
	4600 4599 4602 4603 4595 4797 4799 4800 4763 4764 4704 4703 4702 4961 4701
}
golden_highway_shamakhad = { #From Yanshen to Gronustad entrance
	4816 4636 4632 4631 4629 4525 4526 4528 4529 4630 4530 4531 4535 4538 4539
}
wall_of_yanshen = { #Azkare's Great wall of Yanshen
	4834 4833 4830 5409 4843 4975 4921 4919 4918 4922 4923 4924
}
wall_of_yanshen_demon_hills = { #Section of great wall in Demon Hills
	4834 4833 4830 5409
}
wall_of_yanshen_upper_yanshen = {  #Section of great wall in Upper Yanshen
	4843 4975
}
wall_of_yanshen_north_yanshen = {  #Section of great wall in North Yanshen
	4921 4919 4918 4922 4923 4924
}
pilgrims_road_area = {
	4466 4467 4474 4464 4478 4510 4509
}

# Feiten MT
jellyfish_coast_provinces = {
	4884 4885 4886 4883 4879 4878 4876 4904
}

# Ameion MT
initial_invasion = { 
	2522 2523 2527 2528 2529 2531 2532 
} 

excavation_sites = {
	2633 1791 2586 2500 2736 2467 2495 2534 2477 6753
}
# Gelkalis MT
gelkalis_core_zone = {
	653 655 656 659 660 663 661 665 664 666 667 668 669 671 670 619 4117 672 673 674 675 676 677 678 3263 649 650 652 654
}
gelkalis_core_zone_textile = {
	653 659 660 663 665 664 666 668 669 670 672 673 676 677 619 652 649
}

# Cestirmark MT
cestirmark_proper_coast = {
	1992 1871 1019 1020 2449
}

concord_capitals = {
	1024 1035 1030 1037 1047 1871
}

concord_new_cities = {
	2563 1867 1031 1036 2614 1049
}

ynnsmouth_connection = {
	1028 1873 1031 2757 1133
}

trollsbay_lower_cliff_passages = {
	1128 1031 1901 1042 1949
}

noruin_major_cities = {
	1948 1939 1024 1035 1030 1037 1047 1871 2557 1015
}

halfling_ruins = {
	5758 5763 5710 5840 5845
}

amussus_grave_surroundings = {
	3197 684 686 687 691 692 583 6101 6102 6103 6104
}

amacimst_near_cursed_ones = {
	1174 1175 1176 1177 1178 1179 1184 1197 1183 1181
	1747 1318 1746 1749 1750 1748
}

dameaser_path_provinces = {
	2 3 4 5 6 8 168
}

into_the_empire_path_provinces = {
	422 423 320 310 311 902 309 302 576 280 44 297 279 281 910 330 276 277
}

#Vyzemby
shrine_provinces = {
	6599 5710 5823 6634 5825 6626 6610 6632 6608 5821
	5829 6612
}

amezatany_colonisation_provinces = {
	5758 5759 5761 6309 5762 5763 5764 5766
}
#Breluslad Riverways	(Brelar MT)

brelynn_riverway = {
	2488 1165 2862 2814 1171 2840 2838 1749 1746
}

north_ynn_riverway = {
	1165 1186 1191 2811 1166 2812 2813 1168 1188 1189 1190 1183 1181 2742 1180 1172 2839
}

dalaire_riverway = {
	1165 1202 1207 2849 1212 1211 1217 1237 1236 1743 1745 1197 1183
}

rzenta_riverway = {
	1984 1192 1193 1194 1774 1191
}

watermill_provinces = {
	2488 1165 1191 1186 1183 1211
}

# Spirit system
# Temple Provinces w/ starting conditions: 4380 4384 4397 4411 4417 4420 4438 4450 4465 4469 4488 4499 4510 4527 4546d 4565 4570 4580 4630d 4633d 4764 4811 4839d 4859 4871 4925 4930 4941d 4949 4951 4955d 4964 4979 4618
temple_province_group = {
	4380 4384 4396 4397 4411 4417 4420 4438 4450 4465 4469 4488 4499 4510 4527 4546 4565 4570 4580 4612 4618 4630 4633 4710 4719 4755 4764 4780 4794 4811 4839 4859 4871 4925 4930 4941 4949 4951 4955 4958 4964 4979
}
dhurasidheni_temple_area = {
	4438 4439 4440 4441 4442 4434 4435 4436 4437 4373 4430 4431 4433 4361 4362 4363 4432 4443
}
bubhagama_temple_area = {
	4450 4451 4452 4445 4446 4448 4449 4447 4548 4444
}
sharaja_temple_area = {
	4397 4453 4454 4455 4456 4457 4458 4459 4460 4466
}
sighajisbid_temple_area = {
	4469 4471 4473 4461 4472 4477 4479 4480 4508
}
dhenijansar_temple_area = {
	4411 4385 4405 4410 4412 4365 4368 4378 4379 4426 4427 4428 4401 4414 4381 4429
}
mindanan_temple_area = {
	4384 4374 4375 4386 4383 4377 4366 4367 4370 4387 4388 4382 4389
}
sardika_temple_area = {
	4380 4369 4372 4371
}
ghundagar_temple_area = {
	4417 4391 4392 4394 4418 4419 4421 4422 4423 4425 4393 4404 4416 4413 4415 4390 4424
}
sramaya_temple_area = { 
	4420 4399 4406 4395 4398 4551 4554 4556 4558 4555 4561 4562
}
maharaaja_temple_area = {
	4488 4490 4491 4408 4494 4482 4407 4487 4481 4485 4486 4495 4483 4484
}
sarnavan_temple_area = {
	4510 4509 4514 4464 4475 4478 4515 4474 4467 4468
}
tughayasa_temple_area = {
	4527 4504 4505 4507 4513 4524 4512 4939 4511 4609 4608 4506 4523
}
sarilavhan_temple_area = {
	4630 4530 4531 4535 4538 4539 4536 4540 4529 4541 
}
khadisrapur_temple_area = {
	4465 4476 4519 4532 4533 4534 4462 4463 4520 4550 4515 4516 4517 4518 4521 4522
}
ghatasak_temple_area = {
	4546 4542 4545 4543 4549 4635 4639 4640 4537 4629 4525 4526 4528
}
sir_temple_area = {
	4633 4632 4636 4637 4638 4642 4634 4627 4628 4631 4624
}
bimlau_temple_area = {
	4565 4564 4582 4583 4557 4560 4563 4593 4594 4598 4589 4590 4595
}
prukakhin_temple_area = {
	4567 4568 4569 4572 4570 4571 4573 4574 4577 4575 4576 4586 4566
}
khabtei_temple_area = {
	4580 4584 4585 4578 4587 4591 4803 4804 4588 4579 4592 4581
}
mahoang_temple_area = {
	4764 4696 4704 4762 5429 4763 4761 4967 4760 4801 4800 4946 4758 4802 4798
}
lapnam_temple_area = {
	4941 4795 4796 4605 4799 4797 4603 4604 4947
}
khirnadhiman_temple_area = {
	4499 4599 4600 4601 4602 4606 4501 4497 4498 4500 4502 4503 4470 4489 4364 4620
}
jiangshengdian_temple_area = { # Jianxusi
	4811 4821 4810 4809 4820 4808 4822 4934 4806 4782 4783 4784 4935
}
samabok_temple_area = { # Lamwun
	4951 5426 4840 4825 4898 4981 4826 4952 4985 4899
}
zyuhung_temple_area = {
	4839 4836 4884 4983 4835 4838 4841 4885 4888 4889 4893 4837 4984 4982 4900 4824
}
luoyi_temple_area = { #Luoyip
	4949 4882 4887 4890 4886 4883 4879 4878 4881 4896 4905 4880 4892 4894 4895 4891
}
yanchung_temple_area = { # Yanzhong
	4859 4858 4861 4855 4950 4853 4933 4854 4846 4847 4851 4849 4906
}
lanjincun_temple_area = {
	4930 4864 4932 4857 4862 4860 4873 4867
}
tianlou_temple_area = {
	4871 4876 4904 4877 5420 4870 4872 4869 4868 4913 4978 4912 4907 4977 4908 4911 4909
}
damaogong_temple_area = {
	4979 4910 4916 4980 4927 4917 4928 4914 4915 4919 4921
}
jondang_temple_area = {
	4925 4922 4923 4924 4926 4920 4918
}
keoaden_temple_area = {
	4955 4956 4730 4744 4746 4747 4823 4743 4739 4740 4741 4742 4959 4953 4957 4965 4736 4731 4729
}
brenulan_temple_area = {
	4964 4735 4733 4732 4727 4774 4728 4772
}
phangban_temple_area = {
	4396 4596 4597 4492 4496 4493 4409
}
shanyutian_temple_area = {
	4618 4613 4617 4623 4625 4626 4641 4619 4938 4615 4559 4621 4622 4948 4616 4611 4612
}

# Great Spirits
marutha_spirit_area = {
	4413 4414 4415 4429 4431 4432 4433 4441 4443 4444 4447 4548 4477 4481 4482 4483 4407 4484
	4445 4446 4448 4449 4450 4451 4452 4453 4454 4456 4458 4459 4460 4397 4455 
	4457 4466 4424 4461 4472 4469 4471 4473 4479 4480 4508 4488 4490
}

dhenbasana_spirit_area = {
	4361 4362 4363 4366 4367 4370 4371 4369 4372 4380 4365 4368 4378 4379 4374 4375 4384 4386
	4382 4383 4377 4385 4393 4394 4404 4381 4405 4410 4411 4412 4416 4426 4427 4428 4387 4388
	4401 4421 4422 4423 4425 4391 4392 4417 4418 4419 4430 4434 4435 4436 4437 4373 4438 4439 4440 4442 4390 4389
}

kharunyana_spirit_area = {
	4395 4398 4551 4399 4406 4420 4554 4556 4558 4555 4500 4470 4489 4364 4620 4485 4486 4487 4495
	4561 4562 4409 4492 4408 4491 4493 4496 4494 4501 4497 4498 4499 4502 4503 4504 4505 4506 4509
	4510 4514 4507 4513 4523 4524 4516 4517 4521 4522 4464 4468 4478 4519 4532 4533 4534 4596 4597 4515 4520
	4396 4599 4600 4601 4602 4606 4467 4474 4475 4462 4463 4465 4476 4518 4550
}

tughayasa_spirit_area = {
	4527
}

hengdu_bowu_spirit_area = {
	4622 4623 4625 4626 4821 4810 4809 4820 4811 4617 4618 4619 4822 4808
	4641 4512 4939 4616 4948 4511 4611 4608 4609 4612 4613 4615 4559 4938 4621 4806 4935 4782 4784
	4783 4607 4610 4614 4793 4786 4794 4785 4934 4936 4937 4940 4781 4777
}

telebei_spirit_area = {
	4557 4560 4563 4593 4594 4595 4598 4795 4796 4941 4799 4797 4566 4581 4589
	4605 4789 4788 4790 5425 4791 4792 4564 4565 4582 4583 4603 4604 4787 4947
}

hukai_spirit_area = {
	4570 4571 4573 4569 4580 4584 4585 4578 4587 4576 4577 4586 4574 4575 4591 4592 4803 4804 4802 
	4798 4800 4801 4946 4763 4761 4967 4567 4568 4572 4579 4588 4590
}

hukai_telebei_spirit_area = {
	4570 4571 4573 4569 4580 4584 4585 4578 4587 4576 4577 4586 4574 4575 4591 4592 4803 4804 4802 
	4798 4800 4801 4946 4763 4761 4967 4567 4568 4572 4579 4588 4590 4557 4560 4563 4593 4594
	4595 4598 4795 4796 4941 4799 4797 4566 4581 4589 4605 4789 4788 4790 5425 4791 4792 4564 4565
	4582 4583 4603 4604 4787 4947
}

phokhao_spirit_area = {
	4779 4778 4943 4780 4776 4775 4759 5424 4942 5428 4756 4945 4755 4754 4968 4944 6301 6300
	4748 4745 4753 4752 4824 4900 4984 4982 4983 4835 4838 4841 4836 4839 4837 4884 4885 4888 4889 4893
}

gehet_ketine_spirit_area = {
	4698 4958 4702 4703 4696 4704 4764 4762 4758 4760 4966 4757 4749 4750 4751 4744 4746 4955 4747 
	4705 4960 4954 4738 4739 4740 4743 4823 4694 4695 4697 4771 5429
}

lupulan_spirit_area = {
	4699 4700 4961 4701 4769 4709 4768 4711 4770 4706 4708 4707 4710 4734 4737 4957 4953 4959 4741 
	4965 4736 4742 4730 4729 4956 4731 4735 4964 4733 4726 4723 4724 4766 4962 4713 4712 4767 4714 
	4719 4721 4725 4715 4718 4716 4717 4720 4963 4722 4727 4774 4728 4732 4772 4765
}

semat_tidukhai_spirit_area = { #evil statue dude
	4765
}

cinulau_spirit_area = {
	4773 6141 6140 6153 6136 6137 6139 6151 6148 6149 6145 6146 6142 6138 6144 6147 6152 
	3249 3250 3251 3252 3253 1173
}

yanhe_spirit_area = {
	4535 4538 4539 4536 4540 4541 4530 4531 4630 4529 4528 4526 4542 4546 4545 4537 4543 4549 4635 
	4639 4640 4629 4631 4525 4638 4642 4634 4632 4633 4636 4637 4624 4627 4628 4816 4817 4818 4819
	4826 4952 4985 4899 4825 4898 4981 5426 4951 4840 4850 4906 4846 
	4847 4849 4853 4851 4933 4842 4845 4854 4855 4950 4859 4858 4861 
	4871 4870 4869 4868 4873 4867 4864 4930 4932 4913 4978 4912 4907 
	4977 4908 4911 4909 4857 4862 4860
}

hokuma_spirit_area = {
	4973 4831 4832 4834 5430 4970 4830 4969 4829 4971 4812 4815 4813 4814 4972 4828 4902 4901 4827
	4833 5409 4843 4844 4848 4852 4974 4975 4976 4856
}

huszien_spirit_area = {
	4875 4903 4874 4931 4872 4876 4904 4877 5420 4894 4896 4895 4905 4880 4892 4891 4890 4882 4949 4887 4886 4883 4879 4878 4881
	4910 4979 4916 4928 4914 4915 4980 4927 4917 4926 4920 4918 4919 4921 4922 4923 4924 4925
}

#Bomdan Spirit Forts
spirit_forts_province_group = {
	4576 4580 4802 4565 4941 4600 4703
}

luciande_mist_area = {
	261	360	358	355	248	257	775	777	779	778	361	314	354	356
}

# zansap MT
bronze_road_group = {
	597 688 687 686 692 6102 6101 6100 489 487 5478 5479 5480 5477 5472 5471 5468 5469 5491 5493 5460 5457 5452 5442 5441 5437 5435 5434 5431 566 2925 2924 2923 2911 2912
}

kodarve_lake_group = {
	5286 5280 5281 5304 5282 5283 5285 5138 5137 5134 5129 5126 5125 5123 5302 5300 5305 5299 5297 5296 5295 5289 5306
}

yukelqur_lake_group = {
	5276 5277 5278 5280 5281 5304 5282 5284 5285 5138 5135 5140 5141 5145 5146 5149 5151 5156 5158 5160 5163 5164 5166 5167 5180 5261 5262 5263 5264 5265 5267 5269 5270 5271 5273
}

zernuuk_lake_group = {
	5188 5259 5258 5257 5256 5252 5251 5249 5247 5246 5242 5241 5238 5236 5237 5235 5234 5233 5229 5224 5223 5195 5191 5190 5189
}

#Thangoya MT
sikai_townships_group = {
	4777 4778 4779 4780 4781 4787 4788 4789 4790 4791 4792 4940 4943 5425
}

infernal_court_provinces = {
	101 63 266 227 750 840 191 257 426 221 8 833
	4097 165 216 280 365 898 417 442 14 234 787
}

infernal_court_temples = {
	3 33 227 234 266 353 840
}

northern_imperial_lands_group = {
	207 209 347 208 214 215 216 251 235 219 253 236 249 233 234 915 914 335 342 258 357 245 246 247 256 252 349 238 244 334 250
} 
alecandi_capital_provinces = {
	2728 2731 2732 2736 2738 2773 2745
}
nekhei_capital_provinces = {
	2595 2669 2674 2677 2680 2717 2684 2625
}
kheionai_capital_provinces = {
	2728 2731 2732 2736 2738 2773 2745
	2595 2669 2674 2677 2680 2717 2684 2625
}

freemarches_rudmen_route_1 = {
	1197 1747 2482 2820 1745 1742 1235
 	1184 1196 1198 1185
}

freemarches_rudmen_route_2 = {
	1200 1236 1239 1242 1241
}


zyujyut_bokai_provinces = {
	4835 4836 4837
}
#Kumarkand NSC
F30_nsc_major_temples_provinces = {
	565 556 536 595 601 625 631 643
}

#Kumarkand OSC
F30_major_osc_temples = {
	522 601 631 643 5434
}
#Pasiragha MT
pasiragha_pilgrim_path = {
	4362 4363 4373 4434 4435 4436 4438
}

pasiragha_debate_road = {
	4440 4442 4444 4446 4548 
}

pasiragha_thought_highway = {
	4408 4464 4466 4467 4468 4469 4473 4478 4484 
	4485 4486 4488 4490 4509 4510
}

pasiragha_hp_colonies = {
	5444 5445 5446 5447 5448 5503 5504 5505 5506 
	5507 5509 5520 5522 5526 5527 5528 5530 6651 
	6658 6661 6684
}

pasiragha_east_border = {
	4395 4396 4398 4399 4406 4420 4551 4554 4555 
	4556 4557 4558 4560 4561 4562 4563 4564 4565 
	4566 4567 4568 4569 4570 4571 4573 4574 4575 
	4576 4577 4578 4579 4580 4581 4582 4583 4584 
	4585 4586 4587 4588 4589 4590 4591 4592 4593 
	4594 4595 4596 4597 4598 4599 4600 4601 4602 
	4603 4604 4605 4606 4694 4695 4697 4771 4795 
	4796 4797 4798 4799 4800 4801 4802 4803 4804 
	4941 4946 4947
}

pasiragha_west_border = {
	4365 4368 4373 4374 4375 4377 4378 4379 4381 
	4382 4383 4384 4385 4386 4387 4388 4389 4390 
	4391 4392 4393 4394 4397 4401 4404 4405 4407 
	4408 4409 4410 4412 4413 4414 4415 4416 4417 
	4418 4419 4421 4422 4423 4424 4425 4425 4426 
	4427 4428 4429 4430 4431 4432 4433 4434 4435 
	4436 4437 4438 4439 4440 4441 4442 4443 4444 
	4445 4446 4447 4448 4449 4450 4451 4452 4453 
	4454 4455 4456 4457 4458 4459 4460 4461 4462 
	4463 4464 4465 4466 4467 4468 4469 4471 4472 
	4473 4474 4475 4476 4477 4478 4479 4480 4481 
	4482 4483 4484 4485 4486 4487 4490 4491 4492 
	4493 4494 4495 4496 4497 4498 4499 4501 4502 
	4503 4504 4505 4506 4507 4508 4509 4510 4513  
	4514 4515 4516 4517 4518 4519 4520 4521 4522 
	4523 4524 4525 4526 4527 4528 4529 4530 4531 
	4532 4533 4534 4535 4536 4537 4538 4539 4540 
	4541 4542 4543 4545 4546 4548 4549 4550 4624 
	4627 4628 4629 4630 4631 4632 4633 4634 4635 
	4636 4637 4638 4639 4640 4642   
}

raj_1444_lands = {
	4365 4368 4373 4374 4375 4377 4378 4379 4381
	4382 4383 4384 4385 4386 4387 4388 4390 4391
	4392 4393 4394 4401 4404 4405 4407 4408 4409
	4410 4412 4413 4414 4415 4416 4417 4418 4419
	4421 4422 4423 4424 4425 4425 4426 4427 4428
	4429 4430 4431 4432 4433 4434 4435 4436 4437
	4438 4439 4440 4441 4442 4443 4444 4445 4446
	4447 4448 4449 4450 4451 4452 4455 4457 4461
	4466 4469 4471 4472 4473 4477 4479 4480 4481
	4482 4483 4484 4485 4486 4487 4490 4491 4492
	4493 4494 4495 4496 4497 4498 4499 4501 4502
	4503 4504 4505 4506 4508 4527 4548
}

khugra_adzalaz_river_shore = {
	5914 5905 5910 5928 5907 5909 5908 5913 5912 5911
}

escann_proper = { #West, Inner, South Castanor + Whistevale + Cursewood
	778 4097 742 803 710 860 833 832 831 #jumbled provinces to optimise Escanni_wars decisions
	229 230 232 231 725 726 729 749 730 732 741 745 744 748 727 750 728 751 753 758 759
	761 762 757 760 767 756 763 792 765 764 766 768 769 770 771 776 780 772 773 774 781 782 856 857
	785 786 787 789 784 783 788 790 794 795 796 793 799 791 797 798 800 808 801 809 810 802 805 807
	806 812 811 815 814 813 816 817 818 819 886 887 889 890 892 893 894 895 896 897 820 822
	824 826 827 821 825 823 829 830 828 834 835 836 755 837 839 754 842 747 848 859 862
	840 843 845 847 841 853 855 746 743 850 849 846 852 858 861 851 844 854 864 869 865
	866 874 873 868 870 863 872 878 879 867 871 881 880 882 884 1806 883 891 888 885 875 876 877
	779 777 775 358 257 248 355
}
larankar_north_arc = {
	2465 2469 2485 2489 2490 2484 2483 2492 2493 
	2495 2496 2497 2498 2499 2500 2508 2509 6559
}

larankar_south_arc = {
	2570 2568 2575 2577 2578 2579 2576 2565 2560 
	2559 2527 2528 2544 2541 2521 2520 2543 2539 
	6756 2501
}

endioka_river = {
	2465 2469 2485 2489 2490 2484 2483
}
sanghariyar_rahen_coast_wall_provinces = {
	2912 2910 4437 4427 4368 4378 4386 4377 4384 4434
}
sanghariyar_southern_wall_provinces = {
	5445 6651 5509 5530 5542 6649 5444 5447 5448 5506 6684 6637 5536 5543 6650
}
sanghariyar_raj_wall_provinces = {
	4442 4443 4414 4415 4416 4417 4419 4406 2908 4420
}
upper_alen_river_banks = {
	229 225 240 226 227 228 344 242 230 232 726 725 729 730 732 749 751 753 754 747 746 743 850 849 852 848 847 845 846 858 860 851 854 864 869 862 861 863 837 839 832 833 831 841 853 855 865 872 873
}

taychend_the_straight_road_provinces = {
	2515 2526 2527 2528 2537 2543 2544 2559 2560 2565 2576 2577
}

taychend_the_path_of_wine_provinces = {
	2515 2517 2518 2522 2523 2525 2530 2579 6559
}

cannorian_holy_sites = {
	833 4 82 249 151 97 227 266 265 332 52 451 308
}

raheni_school_origin_provinces = {
	4409 4474 4391 4383 4500 4367 4859 4435 4286
}

#Forbidden Plains Lake Province Groups
fp_westmarches = {
	5299 5300 5301 5302 5305 5297 5298 5290 5240 5289 5295 5296 5306 5284 5285 5283 5280 5281 5282 5304 5291 5292 5293 5294
}

fp_heartlands = {
	5286 5287 5288 5279 5272 5274 5269 5270 5271 5273 5275 5276 5277 5278
}

fp_brightmarch = {
	5246 5247 5248 5249 5251 5252 5253 5255 5250 5254 5268 5264 5265 5266 5267 5256 5257 5258 5259 5260 5261 5262 5263
}

fp_amberlands = {
	5242 5243 5244 5245 5235 5236 5241 5238 5239 5237 5232 5233 5234 5230 5231 5229 5226 5227 5228 5224 5225
}

cleaved_sea_islands = {
	2717 2716 2718 2681 2672 2747 2750 2719 2720 2721 2722 2774 2735 2725 2724
}

taychend_islands = {
	2329 2561 2564 2330
}

important_skaldhyrric_provs = {
	696 731 723 730 717 177 169 190 221 229 745 138 112 93 43 8 216 337 349 777 774 840 832 831 833 951 2787 1203 1202 1746 1015 932 1006 1057 945 1083
}

four_starting_shirgrii = { #Does not include Heiyukcheng, sorry. Use-case is for non-Azjakuma missions that care about the Shirgrii
	4831 5430 4828 4829
}
##############################################################################################################################################
####### PLEASE KEEP ALL PROVINCE GROUPS THAT ARE TO HAVE A BLANK NAME BELOW HERE, AND ALL THAT SHOULD HAVE LOCA ABOVE HERE ###########
##############################################################################################################################################

down_river_from_shadow = {
	5663 5662 5620 5617 5614 5619 5614 5618 5613 5607 6636 6639 5606 5621 5603 
	5602 5597 5591 5687 5589 5588 5555 5568 6740 5556 5519 5553 5552 5551 5544 
	6712 6717 5538 5536 6637 5531 5529 5616 5601 5615 5599 5598 5596 6727 5499 
	5590 6710 5497 5496 5691 5689 5495 6741 5498 5500 5501 6735 5688 5594 5593
	5516 5502 5508 6664 6684 5506 5505 
}

#averilibet missions
south_denbari = {
	5600 5612 5613 6642 5614 5605 5609 5611 5602 6644 6643 5587 6640 5607 5608 
	5621 6639 5603 5606 6636 5616 5617 5601
}

nsc_incident_target_birsartanses = { 
	545 547 550 651 657 658 
} 
 
nsc_incident_target_sareyand = {
	636 637 638 639 640 641
} 
 
nsc_incident_target_azka_evran = {
	532 534 535 536 537 541 544 3223
} 
 
nsc_incident_target_irrliam = {
	597 605 606 683 685 688 689 
} 
 
nsc_incident_target_varamhar = { 
	619 666 667 668 669 671 670 4117 3263
}

amussus_relics_spawns = {
	516 517 518 519 521 522 523 520 528 529 525 527 526 530 531 534 535 536 571 566 558 646 541 
	532 537 544 538 539 540 650 548 550 545 547 542 543 549 551 553 552 649 651 652 654 554 555
	556 557 657 658 659 662 653 655 656 660 663 661 664 665 666 667 668 669 671 670 618 619 564
	565 563 567 572 562 561 570 568 584 560 586 559 588 595 594 593 679 680 682 683 685 693 688
	689 597 596 598 600 589 590 591 603 610 599 601 602 585 604 611 609 614 605 606 607 612 690
	625 626 627 628 624 608 613 615 616 617 622 621 620 623 629 630 632 633 631 634 636 637 635
	639 638 640 641 642 643 644 647 648 645
}

pop_menu_variables = {
	1 2 3 4 5 6 7 8 9 10 11 12 13 14 15 16 17 18 19 20
}
# true abomination

#Effelai hub zones
#Eastern Effelai
tswohvothamus_hub_zone = {
	2272 2273 2803 2274 2276 2344 2271 2270 2269 2247 2248 2268 2249 2250 2252 6503
}
ainemuno_hub_zone = {
	2239 2238 2240 2243 2244 2245 2242 2806 2246 2805 2293 2289 2292 2290 2291 2804
}
wohaiowh_hub_zone = {
	2287 2237 2286 2279 2277 2275 2280 2278 2288 2282 2284 2281 2285 2236 2235
}
#Dry Coast
orothaua_hub_zone = {
	2512 2336 2345 2335 2337 2338 2346 2347 2307 2308 2331 2332 2333
}
uumunkes_hub_zone = {
	2304 2302 2300 2303 2306 2305 2301 2309 2296 2297 2298 2294 2299 2295
}
#South Effelai / Mushroom Forest
muudand_hub_zone = {
	2264 2266 2267 2343 2341 2342 2340 2339 #2507 this is getting removed from the effelai
}
skiswoh_hub_zone = {
	2366 2377 2378 2370 2371 2369 2367 2368 2379 2381 2380
}
tskeowoh_hub_zone = {
	2363 2364 2365 2376 2375 2373 2374 2372
}
#West Effelai
tsiivoiuga_hub_zone = {
	2348 2349 2350 2215 2352 2353 2351
}
aneaurey_hub_zone = {
	2355 2354 2394 2357 2356 2358
}
#Soiruin
rakionaastuy_hub_zone = {
	2189 2188 2193 2195 2190 2191 2192 2359 
}
aneuuam_hub_zone = {
	2178 2179 2180 2199 1306 2175 2177 2176 2186 2187 2181
}
senaane_hub_zone = {
	2182 2203 2204 2196 2197 2198 2201 2202 2205 2183 2184
}
#Leechdens
tohamachucha_hub_zone = {
	2211 2210 2212 2213 2207 2185 2206 2209 2214 2216 2217
}
tihichi_hub_zone = {
	2221 2220 2265 2223 2395 2218 2219 2228 2229 2222
}
nafahitoha_hub_zone = {
	2226 2227 2224 2225 2234 2233 2231 #2232 leechfather :)
}
#Effelai Hubs
effelai_hub_provinces_group = {
	2212 2219 2225 2286 2240 2273 2302 2336 2267 2377 2375 2350 2355 2193 2199 2204
}


# Shoutouts to Paradox for removing every_trade_node and forcing us to make this instead
# :obrtroll: make sure to update this literally every single time a trade node is added or changes province :obrtroll:
trade_node_provinces = {
	6838 1690 5406 5381 5202 5315 1444 4990 1374 1683 4779 4559 4630 4247 4311 4952 4859 1372 1371 1445
	1957 1851 1165 1133 1693 1492 1369 1366 1364 4460 4500 4435 4485 6686 5460 5600 1347 1361 1343 1348
	5996 1339 1330 1449 5921 1458 6241 2484 1545 2377 1607 1539 2595 1546 2665 1731 1741 1553 1681 1511
	1438 1528 1519 1527 1583 1576 3082 3084 5872 6029 481 2901 5085 5312 1382 5003 5029 5102 5728 1465
	1467 1504 3023 4124 671 4100 2931 880 4236 808 833 229 245 4202 1289 1263 1324 1294 1477 1267 1928
	1259 1292 640 601 1309 1312 1303 1305 904 901 1296 1926 1270 4119 2556
}

#Azkare
arkare_parliament_variables = {
	4565 4600 4572 4580 4941 4703 4771 5429 4751 4955 4775 4779 4963 4964 4965 4966 4527 4485 4500 4409
	5353 5351 5364 5348 4362 4420 4417 4412 4435 4510 4450 4397 4511 4465 4633 4542 4979 4871 4879 4839
	4559 4701 4925 4852 4774 4776 4777 4778 4504 4411 4630 2520 4614 5424 4976 4631
}

arkare_parliament_culture_group_variables = {
	4565 5429 4963 4527 5353 4362 4450 4979 4774 4504
}

azkare_parliament_bom_variables = {
	4565 4572 4580 4941 4771
}

azkare_parliament_kai_variables = {
	5429 4751 4955 4775 4779 4703
}

azkare_parliament_kelino_variables = {
	4963 4964 4965 4966
}

azkare_parliament_middle_raheni_variables = {
	4527 4500 4409 4600
}

azkare_parliament_odheongun_variables = {
	5353 5351 5364 5348
}

azkare_parliament_south_raheni_variables = {
	4362 4420 4417 4412 4435 4510
}

azkare_parliament_upper_raheni_variables = {
	4450 4397 4511 4465 4633 4542 4485
}

azkare_parliament_yan_variables = {
	4979 4871 4879 4839 4559 4701 4925 4852
}

azkare_parliament_yanglam_variables = {
	4774 4776 4777 4778
}

azkare_parliament_non_human_variables = {
	4504 4411 4630 2520 4614 5424 4976 4631
}



castanorians_citadels_including_new_from_mt = {
	306 441 510 216 229 740 # Original 6
	956 183 3 665 468 560 643 68 58
}


permanent_damestear_province_group = {
	9 146 4811 5483 6118
}

#Spiderwretch Silk Road
spiderwretch_silk_road_provinces = {
	5032 5039 5040 5052 5053 5055 5073 5092 5093 5094 5096 5099
	5102 5103 5104 5074 5071 5128 5129 5130 5134 5137 5138 5285 
	5283 5282
}

kobold_traps_provinces = {
	126 138 146 167 173 177 184 187 189 213 3362 4646 # Dragon Coast
	196 197 217 694 696 698 703 # Alenic Reach and Alenic Frontier
	65 71 76 112 120 139 161 # Small Country and Lencenor
	155 208 216 # The Dameshead
}

gerudian_kobold_traps = {
	733 740 952 979 984 997 998 3187 707 4185
}

tf_taras_border_provinces = {
	2605 2604 2603 2591 2587 2586 2584 # provinces bordering the taras'su ervan lake
}

escanni_refugee_centers = {
	723 721 #Alenic Reach 2 
	220 243 343 349 245 #Alenic Frontier 5
	151 214 216 253 915 255 #Damescrown 6
	258 422 #Forlorn Vale 2
	911 264 268 275 274 297 273 309 320 #Esmaria 9
	428 433 440 451 #Dostanor & Daravan's Folly 4
	306 312 325 420 413 411 417 318 923 #The Borders 9
	380 #Businor 1
	291 288 331 50 284 394 327 52 899 328 9 8 # East Dameshead 12
	154 10 16 24 43 #West Dameshead 5
}

nomsyulhan_gateway_border = {
	6829 6831 6832 6836 6837
}

dynamic_merfolk_region = {
	6616 6617 3241 3242 3243 6621 6622 5828 5829 6626 6627 6628 6625 6624 6634 6629 6630 5832 6631 6632 6633 5831 3256 3255 3254 #favahnosy
	5833 5834 3258 3259 3257 6030 3260 5893 5895 5896 5898 5900 5903 5914 5929 5934 5938 5940 5941 5943 5948 5949 6031 6032 6033 #throden gokad
	6004 6007 #odu kherass
	6669 6009 6060 6035 6676 6036 6034 6673 6037 6038 6039 6040 6041 6042 6680 6000 6678 6043 6044 6045 6046 6047 6048 6049 6051 #jasiir jadid
	6052 6677 6683 6679 6056 6127 6019 6021 6672 6018 6674 6675 6017 6671
	6568 6587 6575 6079 6069 6077 6078 6075 6076 6074 6588 6086 6072 6073 6585 6087 6085 6580 3231 6581 6567 6574 6573 6070 6566 #ardimya
	6066 6577 6578 6068 3232 3233 6065 6570 6572 6571 6061 3229 6063 3227 5848 3226 6569
	5653 5634 5631 5624 5622 #ishyamtumu
	5586 5582 5577 5576 5574 5563 5558 6648 5550 6650 5545 6645 5541 5581 3248 3247 #bamaliwuni
	3253 6152 6147 6144 6138 3252 1173 6145 6146 6148 6149 6142 3251 6136 6139 6151 6137 3250 6153 3249 6140 6141 4773 #ringlet isles
}

taric_and_cagodic_minorities = {
	696 700 704 715 956 975 976 978
	721 722 723 952 982 984 6271
}

taric_and_cagodic_conversion_provinces = {
	987 989 988 6284 6220 991 992 990
	4176 4184 4180 4174 4175 4173 4171
}

stalbor_across_cannor_provinces = {
	8 10 52 66 67 97 126 146 216 221 229 234 265 292
    306 316 352 365 696 723 740 780 840 865 904
}

crimson_deluge_provinces = {
	191 192 193 194 195 196 201 202 203 204 340 217 218 224 237 239 243 338 221 222 223 341 346 337 220 339 225 240 226 227 228 241 343 344 242 #Alenic Frontier
	261 351 360 359 350 353 354 356 361 352 423 314 422 779 778 777 775 #Forlorn Vale
	275 269 905 265 575 917 264 308 309 302 901 912 301 280 44 576 297 273 272 900 263 270 268 271 909 266 267 260 911 259 274 916 333 279 311 320 310 902 #Esmaria
	11 8 168 3 6 4 5 2 9 524 50 51 45 25 37 277 899 29 278 52 53 54 55 56 288 292 293 289 838 290 291 283 285 286 331 569 328 281 910 276 330 327 298 898 287 295 906 282 296 394 284 109 587 329 #East Dameshead
	303 304 305 306 315 300 579 294 923 332 307 903 299 907 318 319 918 312 326 321 920 323 324 322 421 325 904 418 419 313 316 317 913 409 410 411 414 415 417 919 416 420 412 413 921 922 #The Borders
	229 230 232 231 710 725 726 729 749 730 732 741 745 742 744 748 727 750 728 751 753 758 759 761 762 757 760 767 756 763 792 765 764 766 768 769 770 771 776 780 772 773 774 781 782 856 857
	785 786 787 789 784 783 788 790 794 795 796 793 799 791 797 798 800 808 801 809 810 802 803 805 807 806 812 811 815 814 813 816 817 818 819 886 887 889 890 892 893 894 895 896 897 4097 820 822
	824 826 827 821 825 823 829 830 828 831 832 833 834 835 836 755 837 839 754 842 747 848 859 862 840 843 845 847 841 853 855 746 743 850 849 846 852 858 860 861 851 844 854 864 869 865
	866 874 873 868 870 863 872 878 879 867 871 881 880 882 884 1806 883 891 888 885 875 876 877 #West + South + Inner Castanor
	446 3716 3717 3718 3719 442 804 3714 3720 443 444 3712 3713 3715 449 450 3721 3722 445 451 447 448 #Daravan's Folly
	424 427 428 426 425 441 440 439 438 431 432 433 434 430 435 437 436 429 #Dostanor
	506 507 508 6762 509 510 511 512 513 514 515 6759 #Ourdia
}

crimson_deluge_core_provinces = {
	303 304 305 306 315 300 579 294 923 332 307 903 299 907 318 319 918 312 326 321 920 323 324 322 421 325 904 418 419 313 316 317 913 409 410 411 414 415 417 919 416 420 412 413 921 922 #The Borders
	229 230 232 231 710 725 726 729 749 730 732 741 745 742 744 748 727 750 728 751 753 758 759 761 762 757 760 767 756 763 792 765 764 766 768 769 770 771 776 780 772 773 774 781 782 856 857
	785 786 787 789 784 783 788 790 794 795 796 793 799 791 797 798 800 808 801 809 810 802 803 805 807 806 812 811 815 814 813 816 817 818 819 886 887 889 890 892 893 894 895 896 897 4097 820 822
	824 826 827 821 825 823 829 830 828 831 832 833 834 835 836 755 837 839 754 842 747 848 859 862 840 843 845 847 841 853 855 746 743 850 849 846 852 858 860 861 851 844 854 864 869 865
	866 874 873 868 870 863 872 878 879 867 871 881 880 882 884 1806 883 891 888 885 875 876 877 #West + South + Inner Castanor
}

# Aelantir Native culture groups stuff

fograc_provinces = {
	2054 2055 2056 2057 2058 2059 2060 2061 3277 3278 3279 3280 3286 3287 3289
}

#Taychendi Empire Nuke Radii
J84_cannor_nuke_red = {
	9 4 2 5 524 3 6 8 168 11 16 21 23 24 151 60 155 154 153 156 18 28 17 10 15 13 19 22 30 27 26 265 269 905 275 330 276 37 899 29 52 53 54 # 264 917 575 333 274 916 279 910
}

J84_cannor_nuke_orange = {
	207 205 157 152 65 61 20 31 32 41 57 42 43 14 259 267 277 278 55 56 45 50 51 260 266 900 272 280 44 297 281 328 394
}

J84_cannor_nuke_yellow = {
	209 208 66 63 160 159 158 69 68 59 33 34 40 48 49 47 46 283 569 25 282 329 296 298 898 301 576 273 909 271 268 263 911 262 255
}

J84_haless_nuke_red = {
	4420 4399 4409 4408 4555 4561 4562 4554 4564 4558 4556 4557 4560 4563 4398 4395 4551 4406 4418 4390 4389 4387 4388 4393 4391 4392 4417 4421 4419 4407 4482 4490 4488 4491 4494 4492 4496 4396 4596 4597 4598 4583 4593 4582 4565 4589 4581 4566 4568 4567
}

J84_haless_nuke_orange = {
	4383 4377 4384 4394 4404 4381 4405 4410 4413 4416 4415 4423 4422 4425 4481 4483 4484 4485 4486 4495 4498 4497 4493 4599 4602 4603 4594 4590 4588 4579 4572 4569
}

ebonsteel_provinces = {
	200 733 979 998 #small 
	2833 3187 #medium
	984 #urviksten
	4185 #isolated
}

J84_haless_nuke_yellow = {
	4547 4380 4382 4375 4374 4386 4385 4411 4412 4414 4424 4472 4471 4477 4473 4480 4487 4502 4501 4499 4600 4601 4606 4604 4605 4595 4592 4591 4587 4584 4578 4571 4570
}

J84_mp_cannor_nuke_red = {
	9 4 2 5 524 3 6 8 168 11 16 21 23 24
}

J84_mp_cannor_nuke_orange = {
	151 60 155 154 153 156 18 28 17 10 15 13 19 22 30 27 26 265 269 905 275 330 276 37 899 29 52 53 54
}

J84_mp_cannor_nuke_yellow = {
	207 205 157 152 65 61 20 31 32 41 57 42 43 14 259 264 917 575 267 333 274 916 279 910 277 278 55 56 45 50 51
}

J84_mp_haless_nuke_red = {
	4420 4399 4409 4408 4555 4561 4562 4554 4564 4558 4556 4557 4560 4563 4398 4395 4551 4406 4418 4390
}

J84_mp_haless_nuke_orange = {
	4389 4387 4388 4393 4391 4392 4417 4421 4419 4407 4482 4490 4488 4491 4494 4492 4496 4396 4596 4597 4598 4583 4593 4582 4565 4589 4581 4566 4568 4567
}

J84_mp_haless_nuke_yellow = {
	4547 4380 4382 4383 4377 4384 4394 4404 4381 4416 4422 4423 4425 4481 4483 4484 4485 4486 4495 4498 4497 4499 4600 4601 4493 4599 4602 4606 4604 4603 4605 4594 4595 4590 4588 4579 4572 4569 4571 4570
}

#Moonhaven MT stuff
starting_elf_provinces = {
	900 5 55 53 54 56 335 256 357
}

############################################################################################################
#######Do NOT put province_groups with visible localization under these! These INTENTIONALLY have EMPTY loc.
############################################################################################################
#######Do NOT put groups that have localization here! This is like the 3rd warning here##############
############################################################################################################