#By JellyCow!! Needs to be edited if Tarakar gets missions
maskedbutcher_missions_1 = {
	slot = 1
	generic = no
	ai = yes
	has_country_shield = yes
	potential = {
		OR = {
			tag = H81
			AND = {
				was_tag = H81
				NOT = { tag = Z57 }
			}
		}
	}

	H81_maskedbutcher_all_the_world = {
		icon = mission_underground_cave
		required_missions = {

		}
		position = 2

		provinces_to_highlight = {
			OR = {
				area = orlghelovar_area
				area = south_altar_area
				area = north_altar_area
				area = argrod_origin_area
				province_id = 4093
				province_id = 2942
				province_id = 2943
			}
			is_empty = no
			NOT = {
				owned_by = ROOT
			}
		}

		trigger = {
			has_institution = feudalism
			custom_trigger_tooltip = {
				tooltip = mb_world_serpentreach_tt
				AND = {
					orlghelovar_area = {
						type = all
						OR = {
							is_empty = yes
							owned_by = ROOT
						}
					}
					south_altar_area = {
						type = all
						OR = {
							is_empty = yes
							owned_by = ROOT
						}
					}
					north_altar_area = {
						type = all
						OR = {
							is_empty = yes
							owned_by = ROOT
						}
					}
					argrod_origin_area = {
						type = all
						OR = {
							is_empty = yes
							owned_by = ROOT
						}
					}
					4093 = {
						OR = {
							is_empty = yes
							owned_by = ROOT
						}
					}
					2942 = {
						OR = {
							is_empty = yes
							owned_by = ROOT
						}
					}
					2943 = {
						OR = {
							is_empty = yes
							owned_by = ROOT
						}
					}
				}
			}
			custom_trigger_tooltip = {
				tooltip = skill_2_advisor_tt
				employed_advisor = {
					skill = 2
				}
			}
		}

		effect = {
			serpentreach_region = {
				discover_country = ROOT
			}
			custom_tooltip = mb_all_the_world_tt
			set_country_flag = mb_all_the_world_reward_flg
			hidden_effect = {
				every_owned_province = {
					limit = { is_city = no }
					add_province_modifier = {
						name = mb_from_the_dark
						duration = 7300
					}
				}
			}
		}
	}
}

maskedbutcher_missions_2 = {
	slot = 2
	generic = no
	ai = yes
	has_country_shield = yes
	potential = {
		OR = {
			tag = H81
			AND = {
				was_tag = H81
				NOT = { tag = Z57 }
			}
		}
	}

	H81_maskedbutcher_cauldron = {
		icon = mission_forge
		required_missions = {
			H81_maskedbutcher_and_ye_shall_find
			H81_maskedbutcher_all_the_world
		}
		position = 3

		trigger = {
			OR = {
				reform_level = 4
				NOT = {
					government = tribal
				}
			}
		}

		effect = {
			change_government = theocracy
			add_government_reform = abyssal_otardom_reform
		}
	}

}

maskedbutcher_missions_3 = {
	slot = 3
	generic = no
	ai = yes
	has_country_shield = yes
	potential = {
		OR = {
			tag = H81
			AND = {
				was_tag = H81
				NOT = { tag = Z57 }
			}
		}
	}

	H81_maskedbutcher_seek = {
		icon = mission_mechanical_mining
		required_missions = {

		}
		position = 1

		provinces_to_highlight = {
			OR = {
				area = orlghelovar_area
				area = south_altar_area
				area = north_altar_area
				area = argrod_origin_area
				province_id = 4093
				province_id = 2942
				province_id = 2943
			}
			has_province_modifier = expedition_target
		}

		trigger = {
			OR = {
				check_variable = {
					expeditions_completed_var = 2
				}
				custom_trigger_tooltip = {
					tooltip = mb_empty_serpentreach_tt
					NOT = {
						orlghelovar_area = {
							has_province_modifier = expedition_target
						}
						south_altar_area = {
							has_province_modifier = expedition_target
						}
						north_altar_area = {
							has_province_modifier = expedition_target
						}
						argrod_origin_area = {
							has_province_modifier = expedition_target
						}
						4093 = {
							has_province_modifier = expedition_target
						}
						2942 = {
							has_province_modifier = expedition_target
						}
						2943 = {
							has_province_modifier = expedition_target
						}
					}
				}
			}
			OR = {
				reform_level = 2
				NOT = {
					government = tribal
				}
			}
			4033 = {
				NOT = { has_province_modifier = expedition_target }
				owned_by = ROOT
			}
		}

		effect = {
			4033 = {
				set_province_flag = mb_vampire_expedition_flag
				spawn_expedition = yes
			}
		}
	}

	H81_maskedbutcher_and_ye_shall_find = {
		icon = mission_treasure_room
		required_missions = {
			H81_maskedbutcher_seek
		}
		position = 2

		provinces_to_highlight = {
			province_id = 4033
			has_province_modifier = expedition_target
		}

		trigger = {
			custom_trigger_tooltip = {
				tooltip = mb_expeditiondone_tt
				has_country_flag = mb_expedition_done_flag
			}
			stability = 1
			OR = {
				prestige = 60
				power_projection = 30
			}
		}

		effect = {
			country_event = {
				id = flavour_maskedbutcher.3
			}
		}
	}

	H81_maskedbutcher_crucible = {
		icon = mission_anvil
		required_missions = {
			H81_maskedbutcher_and_ye_shall_find
		}
		position = 3

		provinces_to_highlight = {
			province_id = 4033
			NOT = { owned_by = ROOT }
		}

		trigger = {
			OR = {
				capital = 2942
				capital = 4093
				capital = 4238
			}
			owns_core_province = 4033
			OR = {
				check_variable = {
					expeditions_completed_var = 5
				}
				custom_trigger_tooltip = {
					tooltip = mb_empty_serpentreach_skomdihr_tt
					NOT = {
						orlghelovar_area = {
							has_province_modifier = expedition_target
						}
						south_altar_area = {
							has_province_modifier = expedition_target
						}
						north_altar_area = {
							has_province_modifier = expedition_target
						}
						argrod_origin_area = {
							has_province_modifier = expedition_target
						}
						shazstundihr_area = {
							has_province_modifier = expedition_target
						}
						arg_ordstun_area = {
							has_province_modifier = expedition_target
						}
						kings_caverns_area = {
							has_province_modifier = expedition_target
						}
						2961 = {
							has_province_modifier = expedition_target
						}
						4127 = {
							has_province_modifier = expedition_target
						}
						2946 = {
							has_province_modifier = expedition_target
						}
						2962 = {
							has_province_modifier = expedition_target
						}
					}
				}
			}
		}

		effect = {
			if = {
				limit = {
					has_estate = estate_vampires
				}
				custom_tooltip = mb_moonlight2_tt
			}
			else = {
				custom_tooltip = mb_moonlight_tt
			}
			4033 = {
				set_province_flag = mb_moonlight_province_flg
			}
			hidden_effect = {
				country_event = {
					id = flavour_maskedbutcher.101
				}
			}
		}
	}

	H81_maskedbutcher_dark_below = {
		icon = mission_burning_man
		required_missions = {
			H81_maskedbutcher_cauldron
			H81_maskedbutcher_crucible
		}
		position = 4

		provinces_to_highlight = {
			NOT = { owned_by = ROOT }
			OR = {
				AND = {
					area = orlghelovar_area
					NOT = {
						province_id = 2939
						province_id = 2940
					}
				}
				province_id = 4031
				area = north_altar_area
				area = argrod_origin_area
				province_id = 4093
				province_id = 2942
				province_id = 2943
			}
		}

		trigger = {
			custom_trigger_tooltip = {
				tooltip = mb_dark_serpentreach_tt
				AND = {
					orlghelovar_area = {
						type = all
						OR = {
							AND = {
								owned_by = ROOT
								is_city = yes
							}
							province_id = 2939
							province_id = 2940
						}
					}
					4031 = {
						owned_by = ROOT
						is_city = yes
					}
					north_altar_area = {
						type = all
						owned_by = ROOT
						is_city = yes
					}
					argrod_origin_area = {
						type = all
						owned_by = ROOT
						is_city = yes
					}
					4093 = {
						owned_by = ROOT
						is_city = yes
					}
					2942 = {
						owned_by = ROOT
						is_city = yes
					}
					2943 = {
						owned_by = ROOT
						is_city = yes
					}
				}
			}
			OR = {
				capital = 2942
				capital = 4093
				capital = 4238
			}
			if = {
				limit = {
					capital = 2942
				}
				AND = {
					owns_core_province = 4093
					4093 = { 
						OR = {
							has_province_modifier = blorc_plunder_camp
							has_province_modifier = blorc_war_camp
						}
						has_fort_building_trigger = yes
					}
					owns_core_province = 4238
					4238 = { 
						OR = {
							has_province_modifier = blorc_plunder_camp
							has_province_modifier = blorc_war_camp
						}
						has_fort_building_trigger = yes
					}
				}
			}
			else_if = {
				limit = {
					capital = 4093
				}
				AND = {
					owns_core_province = 2942
					2942 = { 
						OR = {
							has_province_modifier = blorc_plunder_camp
							has_province_modifier = blorc_war_camp
						}
						has_fort_building_trigger = yes
					}
					owns_core_province = 4238
					4238 = { 
						OR = {
							has_province_modifier = blorc_plunder_camp
							has_province_modifier = blorc_war_camp
						}
						has_fort_building_trigger = yes
					}
				}
			}
			else_if = {
				limit = {
					capital = 4238
				}
				AND = {
					owns_core_province = 2942
					2942 = { 
						OR = {
							has_province_modifier = blorc_plunder_camp
							has_province_modifier = blorc_war_camp
						}
						has_fort_building_trigger = yes
					}
					owns_core_province = 4093
					4093 = { 
						OR = {
							has_province_modifier = blorc_plunder_camp
							has_province_modifier = blorc_war_camp
						}
						has_fort_building_trigger = yes
					}
				}
			}
			else = {
				custom_trigger_tooltip = {
					tooltip = mb_dark_below_nocap_tt
					always = no
				}
			}
			hidden_trigger = { NOT = { ai = yes } }
		}

		effect = {
			set_country_flag = mb_dark_below_flg
			swap_non_generic_missions = yes
			country_event = {
				id = flavour_maskedbutcher.2
			}
		}
	}
}

maskedbutcher_missions_4 = {
	slot = 4
	generic = no
	ai = yes
	has_country_shield = yes
	potential = {
		OR = {
			tag = H81
			AND = {
				was_tag = H81
				NOT = { tag = Z57 }
			}
		}
	}

}

maskedbutcher_missions_3b = {
	slot = 3
	generic = no
	ai = yes
	has_country_shield = yes
	potential = {
		OR = {
			tag = H81
			AND = {
				was_tag = H81
				NOT = { tag = Z57 }
			}
		}
		has_country_flag = mb_dark_below_flg
	}

	H81_maskedbutcher_ties_that_bind = {
		icon = mission_well_of_majesty
		required_missions = {
			H81_maskedbutcher_dark_below
		}
		position = 5

		provinces_to_highlight = {
			OR = {
				area = orlghelovar_area
				area = south_altar_area
				area = north_altar_area
				area = argrod_origin_area
				province_id = 4093
				province_id = 2942
				province_id = 2943
			}
			OR = {
				is_city = no
				NOT = {
					owned_by = ROOT
					culture = ROOT
					religion = ROOT
				}
				AND = {
					NOT = {
						province_id = 4093
						province_id = 2942
						province_id = 4238
					}
					NOT = {
						development = 5
					}
				}
			}
		}

		trigger = {
			custom_trigger_tooltip = {
				tooltip = mb_ties_serpentreach_tt
				AND = {
					orlghelovar_area = {
						type = all
						owned_by = ROOT
						is_city = yes
						OR = {
							province_id = 4238
							development = 5
						}
						culture = ROOT
						religion = ROOT
					}
					south_altar_area = {
						type = all
						owned_by = ROOT
						is_city = yes
						development = 5
						culture = ROOT
						religion = ROOT
					}
					north_altar_area = {
						type = all
						owned_by = ROOT
						is_city = yes
						development = 5
						culture = ROOT
						religion = ROOT
					}
					argrod_origin_area = {
						type = all
						owned_by = ROOT
						is_city = yes
						development = 5
						culture = ROOT
						religion = ROOT
					}
					4093 = {
						owned_by = ROOT
						is_city = yes
						culture = ROOT
						religion = ROOT
					}
					2942 = {
						owned_by = ROOT
						is_city = yes
						culture = ROOT
						religion = ROOT
					}
					2943 = {
						owned_by = ROOT
						is_city = yes
						development = 5
						culture = ROOT
						religion = ROOT
					}
				}
			}
			has_estate_privilege = estate_church_one_faith_one_culture
			OR = {
				NOT = {
					estate_influence = {
						estate = estate_church
						influence = 40
					}
				}
				estate_loyalty = {
					estate = estate_church
					loyalty = 60
				}
			}
		}

		effect = {
			set_country_flag = mb_arok_ankash_flg
			custom_tooltip = mb_mage_change_tt
			set_estate_privilege = estate_mages_organization_religious
			change_estate_land_share = {
				estate = estate_church
				share = -5
			}
			change_estate_land_share = {
				estate = estate_mages
				share = 5
			}
		}
	}
}

maskedbutcher_missions_4b = {
	slot = 4
	generic = no
	ai = yes
	has_country_shield = yes
	potential = {
		OR = {
			tag = H81
			AND = {
				was_tag = H81
				NOT = { tag = Z57 }
			}
		}
		has_country_flag = mb_dark_below_flg
	}

	H81_maskedbutcher_rulers_end = {
		icon = mission_blood_sacrifice
		required_missions = {
			H81_maskedbutcher_dawnborne
		}
		position = 2

		provinces_to_highlight = {
			OR = {
				AND = {
					owned_by = ROOT
					is_capital = yes
					NOT = { province_has_center_of_trade_of_level = 3 }
				}
				AND = {
					area = arg_ordstun_area
					has_terrain = cavern
					OR = {
						NOT = { is_city = yes }
						NOT = { owned_by = ROOT }
					}
				}
			}
		}

		trigger = {
			OR = {
				capital_scope = {
					province_has_center_of_trade_of_level = 3
				}
				arg_ordstun_area = {
					type = all
					owned_by = ROOT
					is_city = yes
				}
			}
			orlghelovar_area = {
				type = all
				owned_by = ROOT
				is_city = yes
			}
			south_altar_area = {
				type = all
				owned_by = ROOT
				is_city = yes
			}
			has_old_dookan_omen = yes
		}

		effect = {
			country_event = {
				id = flavour_maskedbutcher.6
			}
			every_owned_province = {
				add_devastation = -25
			}
			set_country_flag = mb_falsedragon_flg
			swap_non_generic_missions = yes
		}
	}
}

maskedbutcher_missions_5b = {
	slot = 5
	generic = no
	ai = yes
	has_country_shield = yes
	potential = {
		OR = {
			tag = H81
			AND = {
				was_tag = H81
				NOT = { tag = Z57 }
			}
		}
		has_country_flag = mb_dark_below_flg
	}

	H81_maskedbutcher_dawnborne = {
		icon = mission_thorned_lady
		required_missions = {

		}
		position = 1

		provinces_to_highlight = {
			OR = {
				AND = {
					OR = {
						province_id = 2942
						province_id = 4093
						province_id = 4238
					}
					has_province_modifier = mb_ap_dauntless_six
				}
				AND = {
					province_id = 2944
					NOT = {
						has_manpower_building_trigger = yes
						has_fort_building_trigger = yes
					}
				}
				AND = {
					owned_by = ROOT
					is_capital = yes
					NOT = {
						has_production_or_gold_building_trigger = yes
						has_manpower_building_trigger = yes
					}
				}
			}
		}

		trigger = {
			custom_trigger_tooltip = {
				tooltip = mb_no_dauntless_hold_tt
				AND = {
					2942 = {
						NOT = {
							has_province_modifier = mb_ap_dauntless_six
						}
					}
					4093 = {
						NOT = {
							has_province_modifier = mb_ap_dauntless_six
						}
					}
					4238 = {
						NOT = {
							has_province_modifier = mb_ap_dauntless_six
						}
					}
				}
			}
			2944 = {
				owned_by = ROOT
				has_manpower_building_trigger = yes
				has_fort_building_trigger = yes
			}
			capital_scope = {
				has_manpower_building_trigger = yes
				has_production_or_gold_building_trigger = yes
			}
		}

		effect = {
			country_event = {
				id = flavour_maskedbutcher.4
			}
		}
	}

	H81_maskedbutcher_duskbound = {
		icon = mission_burning_witch
		required_missions = {
			H81_maskedbutcher_dawnborne
		}
		position = 2

		provinces_to_highlight = {
			OR = {
				AND = {
					owned_by = ROOT
					has_province_modifier = mb_arianne_last_stand
					NOT = {
						num_of_units_in_province = {
							who = ROOT
							amount = 10
						}
					}
				}
				AND = {
					owned_by = ROOT
					province_with_mineable_goods = yes
					NOT = {
						has_production_building_trigger = yes
					}
				}
			}
		}

		trigger = {
			any_owned_province = {
				has_province_modifier = mb_arianne_last_stand
				num_of_units_in_province = {
					who = ROOT
					amount = 10
				}
			}
			num_of_owned_provinces_with = {
				value = 2
				province_with_mineable_goods = yes
				has_production_building_trigger = yes
			}
			OR = {
				have_cast_broad_ward = yes
				court_mage = 3
			}
		}

		effect = {
			country_event = {
				id = flavour_maskedbutcher.5
			}
		}
	}
}

maskedbutcher_missions_4c = {
	slot = 4
	generic = no
	ai = yes
	has_country_shield = yes
	potential = {
		OR = {
			tag = H81
			AND = {
				was_tag = H81
				NOT = { tag = Z57 }
			}
		}
		has_country_flag = mb_falsedragon_flg
	}

	H81_maskedbutcher_follow_lights = {
		icon = mission_crystal_cave
		required_missions = {
			H81_maskedbutcher_rulers_end
			H81_maskedbutcher_duskbound
		}
		position = 3

		provinces_to_highlight = {
			OR = {
				AND = {
					owned_by = ROOT
					is_capital = yes
					NOT = { has_tax_building_trigger = yes }
				}
				AND = {
					province_id = 4033
					NOT = { owned_by = ROOT }
					NOT = { has_building = mage_tower }
					NOT = { base_production = 5 }
				}
			}
		}

		trigger = {
			capital_scope = { has_tax_building_trigger = yes }
			4033 = {
				owned_by = ROOT
				has_building = mage_tower
				base_production = 5
			}
		}

		effect = {
			country_event = {
				id = flavour_maskedbutcher.7
			}
		}
	}

	H81_maskedbutcher_sleeper_awake = {
		icon = mission_writing_book
		required_missions = {
			H81_maskedbutcher_follow_lights
			H81_maskedbutcher_dark_below
		}
		position = 5

		trigger = {
			stability = 2
			if = {
				limit = { NOT = { mission_completed = H81_maskedbutcher_follow_lights } }
				custom_trigger_tooltip = {
					tooltip = sleeper_awake_spoiler_tt
					has_estate_privilege = estate_vampires_mask_halfling
					has_country_flag = active_frenzy_flg
				}
			}
			else = {
				custom_trigger_tooltip = {
					tooltip = sleeper_awake_spoiler_tt
					always = yes
				}
				has_estate_privilege = estate_vampires_mask_halfling
				custom_trigger_tooltip = {
					tooltip = has_frenzy_tt
					has_country_flag = active_frenzy_flg
				}
			}
		}

		effect = {
			country_event = {
				id = flavour_maskedbutcher.8
			}
		}
	}
}

maskedbutcher_missions_1d = {
	slot = 1
	generic = no
	ai = yes
	has_country_shield = yes
	potential = {
		OR = {
			tag = H81
			AND = {
				was_tag = H81
				NOT = { tag = Z57 }
			}
		}
		has_country_flag = mb_drowninthedeep_flg
	}

	H81_maskedbutcher_follyfall = {
		icon = mission_green_village
		required_missions = {
			H81_maskedbutcher_by_glass_and_marble
		}
		position = 8

		provinces_to_highlight = {
			NOT = { 
				AND = {
					owned_by = ROOT
					development = 8
				}			
			}
			AND = {
				region = daravans_folly_region
				NOT = { province_id = 451 }
			}
		}

		trigger = {
			daravans_folly_region = {
				type = all
				OR = {
					province_id = 451
					AND = {
						owned_by = ROOT
						development = 8
					}
				}
			}
			num_of_owned_provinces_with = {
				value = 3
				region = daravans_folly_region
				has_tax_building_trigger = yes
			}
		}

		effect = {
			custom_tooltip = gnoll_reserve_tt
			hidden_effect = {
				every_owned_province = {
					limit = { region = daravans_folly_region }
					change_culture = flamemarked_gnoll
					add_province_modifier = {
						name = mb_reserve
						duration = -1
					}
					set_province_flag = gnollish_reserve_flag
				}
			}
		}
	}
}

maskedbutcher_missions_2d = {
	slot = 2
	generic = no
	ai = yes
	has_country_shield = yes
	potential = {
		OR = {
			tag = H81
			AND = {
				was_tag = H81
				NOT = { tag = Z57 }
			}
		}
		has_country_flag = mb_drowninthedeep_flg
	}

	H81_maskedbutcher_by_glass_and_marble = {
		icon = mission_sunset
		required_missions = {
			H81_maskedbutcher_mountains_edge
		}
		position = 7

		provinces_to_highlight = {
			OR = {
				area = zagnabad_area
				area = aqatbahar_area
				area = medbahar_area
				area = oudmarck_area
				area = tencmarck_area
				area = lencmarck_area
			}
			NOT = { owned_by = ROOT }
		}

		trigger = {
			zagnabad_area = {
				type = all
				owned_by = ROOT
			}
			OR = {
				medbahar_area = {
					type = all
					owned_by = ROOT
				}
				aqatbahar_area = {
					type = all
					owned_by = ROOT
				}
			}
			tencmarck_area = {
				type = all
				owned_by = ROOT
			}
			OR = {
				oudmarck_area = {
					type = all
					owned_by = ROOT
				}
				lencmarck_area = {
					type = all
					owned_by = ROOT
				}
			}
		}

		effect = {
			set_estate_privilege = estate_mages_steady_ichorletting
			tungr_mountains_area = { add_permanent_claim = ROOT }
			daravans_folly_region = { add_permanent_claim = ROOT }
		}
	}

	H81_maskedbutcher_copper_taste = {
		icon = mission_mountain_castle
		required_missions = {
			H81_maskedbutcher_by_glass_and_marble
		}
		position = 8

		provinces_to_highlight = {
			OR = {
				AND = {
					OR = {
						area = tungr_mountains_area
						area = medbahar_area
					}
					NOT = { owned_by = ROOT }
				}
				AND = {
					province_id = 526
					NOT = { 
						OR = {
							has_province_modifier = blorc_plunder_camp
							has_province_modifier = blorc_war_camp
						} 
					}
				}
				AND = {
					province_id = 527
					NOT = { development = 12 }
				}
			}
		}

		trigger = {
			tungr_mountains_area = {
				type = all
				owned_by = ROOT
			}
			medbahar_area = {
				type = all
				owned_by = ROOT
			}
			526 = { 
				OR = {
					has_province_modifier = blorc_plunder_camp
					has_province_modifier = blorc_war_camp
				} 
			}
			527 = { development = 12 }
		}

		effect = {
			custom_tooltip = dwarven_reserve_tt
			hidden_effect = {
				every_owned_province = {
					limit = { OR = { area = tungr_mountains_area area = medbahar_area } }
					change_culture = diamond_dwarf
					add_province_modifier = {
						name = mb_reserve
						duration = -1
					}
					set_province_flag = dwarven_reserve_flag
				}
			}
			527 = {
				add_province_modifier = {
					name = mb_bloodied_beards
					duration = -1
				}
			}
		}
	}

	H81_maskedbutcher_utter_dread = {
		icon = mission_empowerment
		required_missions = {
			H81_maskedbutcher_copper_taste
			H81_maskedbutcher_nighthawks
		}
		position = 9

		provinces_to_highlight = {
			OR = {
				region = bahar_region
				region = harpy_hills_region
			}
			NOT = { owned_by = ROOT }
		}

		trigger = {
			bahar_region = {
				type = all
				owned_by = ROOT
			}
			harpy_hills_region = {
				type = all
				owned_by = ROOT
			}
			check_variable = {
				which = mb_blood_frenzies
				value = 5
			}
			check_variable = {
				which = mb_blood_moons
				value = 3
			}
		}

		effect = {
			country_event = { id = flavour_maskedbutcher.14 }
			custom_tooltip = can_craft_mask_3_tt
			set_country_flag = level_3_masks_unlock_flg
		}
	}

	H81_maskedbutcher_fill_the_void = {
		icon = mission_destroyed_city
		required_missions = {
			H81_maskedbutcher_utter_dread
		}
		position = 10

		provinces_to_highlight = {
			OR = {
				AND = {
					OR = {
						province_id = 601
						province_id = 631
						province_id = 643
						province_id = 522
						province_id = 5434
					}
					NOT = { owned_by = ROOT }
					NOT = { religion = ROOT }
					NOT = { has_building = mage_tower }
				}
				AND = {
					area = bulwar_area
					NOT = { owned_by = ROOT }
					NOT = { religion = ROOT }
				}
			}
		}

		trigger = {
			num_of_owned_provinces_with = {
				value = 2
				OR = {
					province_id = 631
					province_id = 643
					province_id = 522
					province_id = 5434
				}
				owned_by = ROOT
				religion = ROOT
				has_building = mage_tower
			}
			601 = {
				owned_by = ROOT
				religion = ROOT
				has_building = mage_tower
			}
			bulwar_area = {
				type = all
				owned_by = ROOT
				religion = ROOT
			}
		}

		effect = {
			country_event = { id = flavour_maskedbutcher.16 }
		}
	}
}

maskedbutcher_missions_3d = {
	slot = 3
	generic = no
	ai = yes
	has_country_shield = yes
	potential = {
		OR = {
			tag = H81
			AND = {
				was_tag = H81
				NOT = { tag = Z57 }
			}
		}
		has_country_flag = mb_drowninthedeep_flg
	}

	H81_maskedbutcher_mountains_edge = {
		icon = mission_head_on_spike
		required_missions = {
			H81_maskedbutcher_ties_that_bind
		}
		position = 6

		trigger = {
			num_of_owned_provinces_with = {
				value = 5
				has_manpower_building_trigger = yes
			}
			OR = {
				any_known_country = {
					OR = {
						any_owned_province = { region = bahar_region }
						any_subject_country = { any_owned_province = { region = bahar_region } }
					}
					has_spy_network_from = {
						who = ROOT
						value = 25
					}
				}
				any_owned_province = { region = bahar_region }
			}
			OR = {
				any_known_country = {
					OR = {
						any_owned_province = { region = ourdia_region }
						any_subject_country = { any_owned_province = { region = ourdia_region } }
					}
					has_spy_network_from = {
						who = ROOT
						value = 25
					}
				}
				any_owned_province = { region = ourdia_region }
			}
			OR = {
				spymaster = 2
				custom_trigger_tooltip = {
					tooltip = mb_level_3_advisor_tt
					employed_advisor = {
						category = DIP
						skill = 3
					}
				}
			}
		}

		effect = {
			bahar_region = {
				discover_country = ROOT
			}
			ourdia_region = {
				discover_country = ROOT
			}
			harpy_hills_region = {
				discover_country = ROOT
			}
			daravans_folly_region = {
				discover_country = ROOT
			}
			add_country_modifier = {
				name = mb_hunt_begins
				duration = 18250
			}
			zagnabad_area = { add_permanent_claim = ROOT }
			aqatbahar_area = { add_permanent_claim = ROOT }
			medbahar_area = { add_permanent_claim = ROOT }
			tencmarck_area = { add_permanent_claim = ROOT }
			lencmarck_area = { add_permanent_claim = ROOT }
			oudmarck_area = { add_permanent_claim = ROOT }
		}
	}

	H81_maskedbutcher_hole = {
		icon = mission_moon_moon
		required_missions = {
			H81_maskedbutcher_inward_perfection
		}
		position = 7

		provinces_to_highlight = {
			OR = {
				AND = {
					province_id = 2963
					NOT = { 
						OR = {
							has_province_modifier = blorc_plunder_camp
							has_province_modifier = blorc_war_camp
						} 
					}
					NOT = { has_fort_building_trigger = yes }
				}
				AND = {
					OR = {
						area = jorkad_junction_area
						area = dwarovrod_21_24_area
					}
					NOT = { owned_by = ROOT }
				}
				AND = {
					province_id = 2884
					NOT = { has_fort_building_trigger = yes }
				}
				AND = {
					is_capital = yes
					has_discovered = ROOT
					owner = { fast_owns_num_pops_of_race = { race = halfling amount = 1 } }
				}
			}
		}

		trigger = {
			2963 = {
				OR = {
					has_province_modifier = blorc_plunder_camp
					has_province_modifier = blorc_war_camp
				}
				has_fort_building_trigger = yes
			}
			2884 = { has_fort_building_trigger = yes }
			jorkad_junction_area = {
				type = all
				owned_by = ROOT
			}
			dwarovrod_21_24_area = {
				type = all
				owned_by = ROOT
			}
			OR = {
				spy_ideas = 1
				spymaster = 4
			}
			any_known_country = {
				fast_owns_num_pops_of_race = { race = halfling amount = 1 }
				has_spy_network_from = {
					who = ROOT
					value = 40
				}
			}
		}

		effect = {
			add_country_modifier = {
				name = mb_dream_flight
				duration = 3650
			}
			siffiraeri_area = { add_permanent_claim = ROOT }
			kharfiraeri_area = { add_permanent_claim = ROOT }
			nansalen_area = { add_permanent_claim = ROOT }
			misharallen_area = { add_permanent_claim = ROOT }
			firanyalen_area = { add_permanent_claim = ROOT }
			bulwar_proper_region = { discover_country = ROOT }
			custom_tooltip = halfling_reserve_tt
			hidden_effect = {
				every_owned_province = {
					limit = { OR = { area = jorkad_junction_area area = dwarovrod_21_24_area } }
					change_culture = redfoot_halfling
					add_province_modifier = {
						name = mb_reserve
						duration = -1
					}
					set_province_flag = halfling_reserve_flag
				}
			}
		}
	}

	H81_maskedbutcher_nighthawks = {
		icon = mission_heunthume
		required_missions = {
			H81_maskedbutcher_hole
		}
		position = 8

		provinces_to_highlight = {
			OR = {
				AND = {
					OR = {
						area = siffiraeri_area
						area = kharfiraeri_area
						area = nansalen_area
						area = misharallen_area
						area = firanyalen_area
					}
					NOT = { owned_by = ROOT }
				}
				AND = {
					province_id = 660
					OR = {
						NOT = { has_tax_building_trigger = yes }
						NOT = { has_building = mage_tower }
					}
				}
			}
		}

		trigger = {
			num_of_owned_provinces_with = {
				value = 15
				OR = {
					area = siffiraeri_area
					area = kharfiraeri_area
					area = nansalen_area
					area = misharallen_area
					area = firanyalen_area
				}
			}
			misharallen_area = {
				type = all
				owned_by = ROOT
			}
			nansalen_area = {
				type = all
				owned_by = ROOT
			}
			660 = {
				owned_by = ROOT
				has_tax_building_trigger = yes
				has_building = mage_tower
			}
			church_power = 200
			has_country_modifier = racial_focus_harpy
			reform_level = 5
		}

		effect = {
			add_church_power = -200
			country_event = { id = flavour_maskedbutcher.11 }
		}
	}

	H81_maskedbutcher_bring_them_down = {
		icon = mission_burning_parthenon
		required_missions = {
			H81_maskedbutcher_khagtragom
		}
		position = 10

		provinces_to_highlight = {
			OR = {
				region = ogre_valley_region
				region = serpents_vale_region
				region = northern_pass_region
			}
			NOT = { owned_by = ROOT }
		}

		trigger = {
			far_moitsa_area = {
				type = all
				owned_by = ROOT
			}
			tanning_valley_area = {
				type = all
				owned_by = ROOT
			}
			OR = {
				AND = {
					serpents_vale_region = {
						type = all
						owned_by = ROOT
					}
					num_of_owned_provinces_with = {
						value = 10
						region = northern_pass_region
					}
				}
				ogre_valley_region = {
					type = all
					owned_by = ROOT
				}
			}
		}

		effect = {
			custom_tooltip = troll_reserve_tt
			hidden_effect = {
				every_owned_province = {
					limit = { OR = { area = far_moitsa_area area = tanning_valley_area } }
					change_culture = forest_troll
					add_province_modifier = {
						name = mb_reserve
						duration = -1
					}
					set_province_flag = troll_reserve_flag
				}
			}
			set_country_flag = cave_troll_de_flg
			if = {
				limit = { ogre_valley_region = { type = all owned_by = ROOT } }
				custom_tooltip = hill_ogre_reserve_tt
				hidden_effect = {
					every_owned_province = {
						limit = {
							OR = {
								area = dzimokli_area
								area = krotavatsvi_area
								area = ghavatalur_area
								area = kvakeinolba_area
							}
						}
						change_culture = fathide_ogre
						add_province_modifier = {
							name = mb_reserve
							duration = -1
						}
						set_province_flag = hill_ogre_reserve_flag
					}
				}
				custom_tooltip = swamp_ogre_de_tt
				set_country_flag = swamp_ogre_de_flg
			}
			else_if = {
				limit = {
					serpents_vale_region = {
						type = all
						owned_by = ROOT
					}
					num_of_owned_provinces_with = {
						value = 10
						region = northern_pass_region
					}
				}
				custom_tooltip = swamp_ogre_reserve_tt
				hidden_effect = {
					every_owned_province = {
						limit = { region = serpents_vale_region }
						change_culture = mossmouth_ogre
						add_province_modifier = {
							name = mb_reserve
							duration = -1
						}
						set_province_flag = swamp_ogre_reserve_flag
					}
				}
				hidden_effect = { northern_pass_region = { set_province_flag = mb_do_not_highlight_flg } }
				custom_tooltip = hill_ogre_de_tt
				set_country_flag = hill_ogre_de_flg
			}
			else = {
				custom_tooltip = mb_one_region_or_other_tt
			}
			custom_tooltip = mb_reserve_menu_tt
			set_country_flag = mb_reserve_menu_flg
		}
	}

	H81_maskedbutcher_piercing_light = {
		icon = mission_the_dame_tears
		required_missions = {
			H81_maskedbutcher_fill_the_void
			H81_maskedbutcher_bring_them_down
			H81_maskedbutcher_bloody_husbandry
		}
		position = 11

		provinces_to_highlight = {
			OR = {
				AND = {
					region = west_dwarovar_region
					NOT = { owned_by = ROOT }
					NOT = { area = anvils_horn_area area = krakdhum_area area = dead_end_tunnel_area }
				}
				AND = {
					region = bulwar_proper_region
					owned_by = ROOT
					NOT = { religion = ROOT }
				}
			}
		}

		trigger = {
			west_dwarovar_region = {
				type = all
				OR = {
					owned_by = ROOT
					area = anvils_horn_area
					area = krakdhum_area
					area = dead_end_tunnel_area
				}
			}
			num_of_owned_provinces_with = {
				value = 15
				region = bulwar_proper_region
				religion = ROOT
			}
		}

		effect = {
			country_event = {
				id = flavour_maskedbutcher.18
			}
			set_country_flag = mb_drowndrowndrown_flg
			swap_non_generic_missions = yes
		}
	}
}

maskedbutcher_missions_4d = {
	slot = 4
	generic = no
	ai = yes
	has_country_shield = yes
	potential = {
		OR = {
			tag = H81
			AND = {
				was_tag = H81
				NOT = { tag = Z57 }
			}
		}
		has_country_flag = mb_drowninthedeep_flg
	}

	H81_maskedbutcher_inward_perfection = {
		icon = mission_machine
		required_missions = {
			H81_maskedbutcher_ties_that_bind
			H81_maskedbutcher_sleeper_awake
		}
		position = 6

		provinces_to_highlight = {
			OR = {
				AND = {
					province_id = 4100
					OR = {
						NOT = { owned_by = ROOT }
						NOT = { has_province_modifier = blorc_plunder_camp has_province_modifier = blorc_war_camp }
						NOT = { has_fort_building_trigger = yes }
					}
				}
				AND = {
					province_id = 2973
					OR = {
						NOT = { owned_by = ROOT }
						NOT = { has_province_modifier = blorc_plunder_camp has_province_modifier = blorc_war_camp }
					}
				}
			}
		}

		trigger = {
			4100 = {
				owned_by = ROOT
				OR = {
					has_province_modifier = blorc_plunder_camp
					has_province_modifier = blorc_war_camp
				}
				has_fort_building_trigger = yes
			}
			2973 = {
				owned_by = ROOT
				OR = {
					has_province_modifier = blorc_plunder_camp
					has_province_modifier = blorc_war_camp
				}
			}
		}

		effect = {
			add_country_modifier = {
				name = mb_reaching_higher
				duration = 18250
			}
			deepwoods_arrow_grove = {
				discover_country = ROOT
				add_permanent_claim = ROOT
			}
		}
	}

	H81_maskedbutcher_chilling_cinders = {
		icon = mission_burning_separation
		required_missions = {
			H81_maskedbutcher_inward_perfection
		}
		position = 7

		provinces_to_highlight = {
			OR = {
				AND = {
					province_id = 4039
					OR = {
						NOT = { owned_by = ROOT }
						NOT = { has_province_modifier = blorc_plunder_camp has_province_modifier = blorc_war_camp }
					}
				}
				AND = {
					area = buradforge_area
					OR = {
						NOT = { owned_by = ROOT }
						AND = {
							NOT = { has_tax_building_trigger = yes }
							NOT = { has_manufactory_trigger = yes }
						}
					}
				}
			}
		}

		trigger = {
			4039 = {
				owned_by = ROOT
				OR = {
					has_province_modifier = blorc_plunder_camp
					has_province_modifier = blorc_war_camp
				}
			}
			buradforge_area = {
				type = all
				owned_by = ROOT
			}
			num_of_owned_provinces_with = {
				value = 2
				area = buradforge_area
				has_tax_building_trigger = yes
				has_manufactory_trigger = yes
			}
		}

		effect = {
			custom_tooltip = kobold_reserve_tt
			hidden_effect = {
				every_owned_province = {
					limit = { OR = { area = buradforge_area area = gor_burad_area } }
					change_culture = darkscale_kobold
					add_province_modifier = {
						name = mb_reserve
						duration = -1
					}
					set_province_flag = kobold_reserve_flag
				}
			}
			west_dwarovar_region = {
				limit = { NOT = { owned_by = ROOT } }
				add_permanent_claim = ROOT
			}
		}
	}

	H81_maskedbutcher_old_heart = {
		icon = mission_west_serpentspine_map
		required_missions = {
			H81_maskedbutcher_hole
			H81_maskedbutcher_chilling_cinders
		}
		position = 8

		provinces_to_highlight = {
			OR = {
				AND = {
					province_id = 2931
					OR = {
						NOT = { owned_by = ROOT }
						NOT = { has_province_modifier = blorc_plunder_camp has_province_modifier = blorc_war_camp }
					}
				}
				AND = {
					province_id = 4236
					OR = {
						NOT = { owned_by = ROOT }
						NOT = { has_province_modifier = blorc_plunder_camp has_province_modifier = blorc_war_camp }
					}
				}
				AND = {
					continent = serpentspine
					has_great_project = {
						type = any
						tier = 0
					}
				}
			}
		}

		trigger = {
			2931 = {
				owned_by = ROOT
				OR = {
					has_province_modifier = blorc_plunder_camp
					has_province_modifier = blorc_war_camp
				}
			}
			4236 = {
				owned_by = ROOT
				OR = {
					has_province_modifier = blorc_plunder_camp
					has_province_modifier = blorc_war_camp
				}
			}
			any_owned_province = {
				continent = serpentspine
				has_great_project = {
					type = any
					tier = 2
				}
			}
		}

		effect = {
			serpents_vale_region = { discover_country = ROOT add_permanent_claim = ROOT }
			northern_pass_region = { discover_country = ROOT }
			northern_pass_region = {
				limit = { NOT = { area = dwaroval_area area = lower_logr_area area = hjyrtsikki_area } }
				add_permanent_claim = ROOT
			}
			add_country_modifier = {
				name = mb_north_heart
				duration = 18250
			}
		}
	}

	H81_maskedbutcher_khagtragom = {
		icon = mission_centaur_shooting
		required_missions = {
			H81_maskedbutcher_nighthawks
			H81_maskedbutcher_old_heart
			H81_maskedbutcher_cold_iron
		}
		position = 9

		provinces_to_highlight = {
			OR = {
				AND = {
					OR = {
						province_id = 3263
						province_id = 4073
					}
					OR = {
						NOT = { owned_by = ROOT }
						NOT = { has_fort_building_trigger = yes }
						NOT = { has_manpower_building_trigger = yes }
						NOT = { has_building = ramparts }
						NOT = { development = 12 }
						NOT = {
							num_of_units_in_province = {
								who = ROOT
								amount = 20
							}
						}
					}
				}
				province_id = 5052
			}
		}

		trigger = {
			3263 = {
				owned_by = ROOT
				has_fort_building_trigger = yes
				has_manpower_building_trigger = yes
				has_building = ramparts
				development = 12
				num_of_units_in_province = {
					who = ROOT
					amount = 20
				}
			}
			4073 = {
				owned_by = ROOT
				has_fort_building_trigger = yes
				has_manpower_building_trigger = yes
				has_building = ramparts
				development = 12
				num_of_units_in_province = {
					who = ROOT
					amount = 20
				}
			}
			5052 = {
				OR = {
					owner = {
						has_spy_network_from = {
							who = ROOT
							value = 40
						}
					}
					owned_by = ROOT
					is_empty = yes
				}
			}
		}

		effect = {
			ogre_valley_region = { discover_country = ROOT add_permanent_claim = ROOT }
			serpent_gift_region = { discover_country = ROOT add_permanent_claim = ROOT }
			east_forbidden_plains_region = { discover_country = ROOT }
			west_forbidden_plains_region = { discover_country = ROOT }
			yyl_moista_region = { discover_country = ROOT }
			caubheameas_area = { add_permanent_claim = ROOT }
			ugheabar_area = { add_permanent_claim = ROOT }
			3263 = {
				add_province_modifier = {
					name = mb_forward_fortress
					duration = 18250
				}
			}
			4073 = {
				add_province_modifier = {
					name = mb_forward_fortress
					duration = 18250
				}
			}
		}
	}

	H81_maskedbutcher_bloody_husbandry = {
		icon = mission_horse_siege
		required_missions = {
			H81_maskedbutcher_khagtragom
		}
		position = 10

		provinces_to_highlight = {
			fast_has_pop_of_race = { race = centaur }
			NOT = { owned_by = ROOT }
		}

		trigger = {
			fast_owns_num_pops_of_race = { race = centaur amount = 20 }
			egoirnasgh_area = {
				type = all
				owned_by = ROOT
			}
			caubheameas_area = {
				type = all
				owned_by = ROOT
			}
			5102 = {
				trade_share = {
					country = ROOT
					share = 50
				}
			}
		}

		effect = {
			custom_tooltip = centaur_reserve_tt
			hidden_effect = {
				every_owned_province = {
					limit = { OR = { area = egoirnasgh_area area = caubheameas_area } }
					change_culture = inaer_centaur
					add_province_modifier = {
						name = mb_reserve
						duration = -1
					}
					set_province_flag = centaur_reserve_flag
				}
			}
		}
	}
}

maskedbutcher_missions_5d = {
	slot = 5
	generic = no
	ai = yes
	has_country_shield = yes
	potential = {
		OR = {
			tag = H81
			AND = {
				was_tag = H81
				NOT = { tag = Z57 }
			}
		}
		has_country_flag = mb_drowninthedeep_flg
	}

	H81_maskedbutcher_treetapping = {
		icon = mission_alone_in_the_forest_2
		required_missions = {
			H81_maskedbutcher_inward_perfection
		}
		position = 7

		provinces_to_highlight = {
			OR = {
				AND = {
					province_group = deepwoods_arrow_grove
					OR = {
						NOT = { owned_by = ROOT }
						AND = {
							NOT = { has_production_building_trigger = yes }
						}
					}
				}
				AND = {
					province_id = 3033
					NOT = { has_tax_building_trigger = yes }
				}
			}
		}

		trigger = {
			deepwoods_arrow_grove = {
				type = all
				owned_by = ROOT
			}
			num_of_owned_provinces_with = {
				value = 4
				province_group = deepwoods_arrow_grove
				has_production_building_trigger = yes
			}
			3033 = {
				has_tax_building_trigger = yes
			}
		}

		effect = {
			country_event = {
				id = flavour_maskedbutcher.10
			}
		}
	}

	H81_maskedbutcher_cold_iron = {
		icon = mission_secret_of_the_veil
		required_missions = {
			H81_maskedbutcher_treetapping
		}
		position = 8

		provinces_to_highlight = {
			OR = {
				province_group = deepwoods_arrow_grove
				province_group = deepwoods_river_grove
			}
			NOT = { owned_by = ROOT }
		}

		trigger = {
			custom_trigger_tooltip = {
				tooltip = mb_elf_or_goblin_crafted_tt
				OR = {
					has_country_flag = elven_mask_1
					has_country_flag = goblin_mask_1
				}
			}
			num_of_owned_provinces_with = {
				value = 30
				superregion = deepwoods_superregion
			}
			deepwoods_arrow_grove = {
				type = all
				owned_by = ROOT
			}
			deepwoods_river_grove = {
				type = all
				owned_by = ROOT
			}
			num_of_owned_provinces_with = {
				value = 3
				superregion = deepwoods_superregion
				has_building = mage_tower
			}
		}

		effect = {
			country_event = {
				id = flavour_maskedbutcher.12
			}
		}
	}
}

maskedbutcher_missions_2e = {
	slot = 2
	generic = no
	ai = yes
	has_country_shield = yes
	potential = {
		OR = {
			tag = H81
			AND = {
				was_tag = H81
				NOT = { tag = Z57 }
			}
		}
		has_country_flag = mb_drowndrowndrown_flg
	}

	H81_maskedbutcher_unto_luminant = {
		icon = mission_stormy_seas
		required_missions = {
			
		}
		position = 11

		provinces_to_highlight = {
			owned_by = ROOT
			has_port = yes
			OR = {
				NOT = { has_coast_defense_building_trigger = yes }
				AND = {
					NOT = { has_building = wharf }
					has_wharf_trade_goods = yes
				}
			}
		}

		trigger = {
			has_flagship = yes
			navy_size_percentage = 0.75
			num_of_owned_provinces_with = {
				value = 10
				has_coast_defense_building_trigger = yes
			}
			num_of_owned_provinces_with = {
				value = 5
				has_building = wharf
			}
		}

		effect = {
			every_owned_province = {
				limit = { has_province_modifier = mb_rising_tide }
				remove_province_modifier = mb_rising_tide
			}
			add_country_modifier = {
				name = mb_new_luminant
				duration = -1
			}
			custom_tooltip = new_reserves_tt
			set_country_flag = mb_new_reserves_flg
		}
	}

	H81_maskedbutcher_horror_at_dusk = {
		icon = mission_hanged_tree
		required_missions = {
			H81_maskedbutcher_unto_luminant
			H81_maskedbutcher_heard_forgotten
		}
		position = 13

		provinces_to_highlight = {
			owned_by = ROOT
			OR = {
				AND = {
					OR = {
						has_province_modifier = mb_ap_butcherbane2
						has_province_modifier = mb_ap_roaming_heroes
					}
					NOT = {
						num_of_units_in_province = {
							who = ROOT
							amount = 25
						}
					}
				}
				AND = {
					OR = {
						any_neighbor_province = { has_province_modifier = mb_ap_butcherbane2 }
						any_neighbor_province = { has_province_modifier = mb_ap_roaming_heroes }
					}
					NOT = {
						num_of_units_in_province = {
							who = ROOT
							amount = 10
						}
					}
				}
			}
		}

		trigger = {
			custom_trigger_tooltip = {
				tooltip = all_parties_blocked_tt
				any_owned_province = {
					has_province_modifier = mb_ap_butcherbane2
					num_of_units_in_province = {
						who = ROOT
						amount = 25
					}
					all_neighbor_province = {
						OR = {
							num_of_units_in_province = {
								who = ROOT
								amount = 10
							}
							NOT = {
								owned_by = ROOT
							}
						}
					}
				}
				num_of_owned_provinces_with = {
					value = 3
					has_province_modifier = mb_ap_roaming_heroes
					num_of_units_in_province = {
						who = ROOT
						amount = 25
					}
					all_neighbor_province = {
						OR = {
							num_of_units_in_province = {
								who = ROOT
								amount = 10
							}
							NOT = {
								owned_by = ROOT
							}
						}
					}
				}
			}
		}

		effect = {
			country_event = { id = flavour_maskedbutcher.21 }
		}
	}
}

maskedbutcher_missions_3e = {
	slot = 3
	generic = no
	ai = yes
	has_country_shield = yes
	potential = {
		OR = {
			tag = H81
			AND = {
				was_tag = H81
				NOT = { tag = Z57 }
			}
		}
		has_country_flag = mb_drowndrowndrown_flg
	}

	H81_maskedbutcher_heard_forgotten = {
		icon = mission_fire_acolyte
		required_missions = {
			H81_maskedbutcher_piercing_light
			H81_maskedbutcher_hope_at_dawn
		}
		position = 12

		trigger = {
			estate_influence = {
				estate = estate_mages
				influence = 75
			}
			have_cast_broad_ward = yes
			OR = {
				army_tradition = 80
				army_professionalism = 0.4
			}
		}

		effect = {
			country_event = { id = flavour_maskedbutcher.20 }
		}
	}

	H81_maskedbutcher_monism = {
		icon = mission_solaris
		required_missions = {
			H81_maskedbutcher_horror_at_dusk
			H81_maskedbutcher_true_nightfall
		}
		position = 14

		trigger = {
			NOT = { has_spawned_rebels = final_hopefuls_rebels }
			custom_trigger_tooltip = {
				tooltip = centaur_crafted_tt
				has_country_flag = centaur_mask_2
			}
			custom_trigger_tooltip = {
				tooltip = dwarven_crafted_tt
				has_country_flag = dwarven_mask_2
			}
			custom_trigger_tooltip = {
				tooltip = elven_crafted_tt
				has_country_flag = elven_mask_2
			}
			custom_trigger_tooltip = {
				tooltip = gnollish_crafted_tt
				has_country_flag = gnollish_mask_2
			}
			custom_trigger_tooltip = {
				tooltip = goblin_crafted_tt
				has_country_flag = goblin_mask_2
			}
			custom_trigger_tooltip = {
				tooltip = halfling_crafted_tt
				has_country_flag = halfling_mask_2
			}
			custom_trigger_tooltip = {
				tooltip = harimari_crafted_tt
				has_country_flag = harimari_mask_2
			}
			custom_trigger_tooltip = {
				tooltip = harpy_crafted_tt
				has_country_flag = harpy_mask_2
			}
			custom_trigger_tooltip = {
				tooltip = hobgoblin_crafted_tt
				has_country_flag = hobgoblin_mask_2
			}
			custom_trigger_tooltip = {
				tooltip = human_crafted_tt
				has_country_flag = human_mask_2
			}
			custom_trigger_tooltip = {
				tooltip = kobold_crafted_tt
				has_country_flag = kobold_mask_2
			}
			custom_trigger_tooltip = {
				tooltip = lizardfolk_crafted_tt
				has_country_flag = lizardfolk_mask_2
			}
			custom_trigger_tooltip = {
				tooltip = ogre_crafted_tt
				has_country_flag = ogre_mask_2
			}
			custom_trigger_tooltip = {
				tooltip = ruinborn_crafted_tt
				has_country_flag = ruinborn_mask_2
			}
			custom_trigger_tooltip = {
				tooltip = troll_crafted_tt
				has_country_flag = troll_mask_2
			}
		}

		effect = {
			custom_tooltip = no_more_reserves_tt
			country_event = { id = flavour_maskedbutcher.22 }
		}
	}
}

maskedbutcher_missions_4e = {
	slot = 4
	generic = no
	ai = yes
	has_country_shield = yes
	potential = {
		OR = {
			tag = H81
			AND = {
				was_tag = H81
				NOT = { tag = Z57 }
			}
		}
		has_country_flag = mb_drowndrowndrown_flg
	}

	H81_maskedbutcher_hope_at_dawn = {
		icon = mission_sunset_alternative
		required_missions = {
			
		}
		position = 11

		trigger = {
			OR = {
				check_variable = {
					which = mb_oblations_claimed
					value = 50
				}
				AND = {
					custom_trigger_tooltip = {
						tooltip = 7_masks_equipped_tt
						num_of_estate_privileges = {
							estate = estate_vampires
							value = 8
						}
					}
					reform_level = 11
				}
			}
		}

		effect = {
			country_event = { id = flavour_maskedbutcher.19 }
		}
	}

	H81_maskedbutcher_hunger_pangs = {
		icon = mission_dark_ritual
		required_missions = {
			H81_maskedbutcher_hope_at_dawn
		}
		position = 12

		provinces_to_highlight = {
			owned_by = ROOT
			OR = {
				AND = {
					superregion = forbidden_lands_superregion
					NOT = { religion = ROOT }
				}
				has_province_modifier = mb_ap_world_eaters
			}
		}

		trigger = {
			num_of_owned_provinces_with = {
				value = 65
				superregion = forbidden_lands_superregion
				religion = ROOT
			}
			any_owned_province = {
				has_province_modifier = mb_ap_world_eaters
				num_of_units_in_province = {
					who = ROOT
					amount = 25
				}
				all_neighbor_province = {
					num_of_units_in_province = {
						who = ROOT
						amount = 10
					}
				}
			}
		}

		effect = {
			set_country_flag = world_eaters_dead
			random_owned_province = {
				limit = { has_province_modifier = mb_ap_world_eaters }
				remove_province_triggered_modifier = mb_ap_world_eaters
			}
			custom_tooltip = hunger_pang_reward_tt
			hidden_effect = {
				every_owned_province = {
					limit = { OR = { region = ogre_valley_region region = serpents_vale_region region = northern_pass_region region = yyl_moista_region } }
					add_province_modifier = {
						name = mb_weaponised_hunger
						duration = -1
					}
				}
			}
		}
	}

	H81_maskedbutcher_true_nightfall = {
		icon = mission_star_comet
		required_missions = {
			H81_maskedbutcher_heard_forgotten
			H81_maskedbutcher_hunger_pangs
		}
		position = 13

		provinces_to_highlight = {
			OR = {
				region = bulwar_proper_region
				region = harpy_hills_region
				region = bahar_region
				region = ourdia_region
			}
			OR = {
				NOT = { owned_by = ROOT }
				NOT = { religion = ROOT }
			}
		}

		trigger = {
			4033 = { has_province_modifier = mb_moonlight15 }
			bulwar_proper_region = {
				type = all
				owned_by = ROOT
				religion = ROOT
			}
			harpy_hills_region = {
				type = all
				owned_by = ROOT
				religion = ROOT
			}
			bahar_region = {
				type = all
				owned_by = ROOT
				religion = ROOT
			}
			ourdia_region = {
				type = all
				owned_by = ROOT
				religion = ROOT
			}
		}

		effect = {
			custom_tooltip = better_nightfall_unlock_tt
			set_country_flag = better_nightfall_flg
			custom_tooltip = better_blood_frenzy_unlock_tt
			set_country_flag = buffed_blood_frenzy_flag
		}
	}
}