########################################
# Events for Devotion (Theocracies)
#
# written by Sara Wendel-?rtqvist
########################################
#
#Anbennar change : event call .100 to .219 are disactivated in the on_action file
########################################

namespace = devotion_events

### General Events for Theocracies ###

# General Hospital
country_event = {
	id = devotion_events.1
	title = devotion_events.1.t
	desc = devotion_events.1.d
	picture = WOUNDED_SOLDIERS_eventPicture
	
	trigger = {
		has_dlc = "Common Sense"
		uses_devotion = yes
		NOT = {
			has_country_modifier = dev_general_hospital
		}
	}
	
	

	is_triggered_only = yes
	
	mean_time_to_happen = {
		days = 1
	}
		
	option = {
		name = devotion_events.1.a
		ai_chance = {
			factor = 55
			modifier = {
				factor = 0
				has_estate = estate_church
				NOT = {
					estate_loyalty = {
						estate = estate_church
						loyalty = 40
					}
				}
			}
		}
		reduce_estate_church_loyalty_effect = yes
		add_country_modifier = {
			name = dev_general_hospital
			duration = 3650
		}
	}
	
	option = {
		name = devotion_events.1.b
		ai_chance = {
			factor = 45
		}
		add_estate_church_loyalty_effect = yes
		add_devotion = 10
	}
}

# Fort Maintenance
country_event = {
	id = devotion_events.2
	title = devotion_events.2.t
	desc = devotion_events.2.d
	picture = FORT_eventPicture
	
	trigger = {
		has_dlc = "Common Sense"
		uses_devotion = yes
		NOT = {
			has_country_modifier = dev_fort_maintenance
		}
	}
	
	is_triggered_only = yes
	
	mean_time_to_happen = {
		days = 1
	}
		
	option = {
		name = devotion_events.2.a
		add_country_modifier = {
			name = dev_fort_maintenance
			duration = 3650
		}
	}
	option = {
		name = devotion_events.2.b
		add_devotion = -10
	}
}

# Modernization of the Forts
country_event = {
	id = devotion_events.3
	title = devotion_events.3.t
	desc = devotion_events.3.d
	picture = FORT_eventPicture
	
	trigger = {
		has_dlc = "Common Sense"
		uses_devotion = yes
		has_country_modifier = dev_fort_maintenance
	}
	
	is_triggered_only = yes
	
	mean_time_to_happen = {
		days = 1
	}
	
	option = {
		name = devotion_events.3.a
		ai_chance = {
			factor = 50
			modifier = {
				factor = 0.25
				has_estate = estate_burghers
				NOT = {
					estate_loyalty = {
						estate = estate_burghers
						loyalty = 40
					}
				}
			}
		}
		reduce_estate_burghers_loyalty_effect = yes
		add_country_modifier = {
			name = dev_modern_forts
			duration = 3650
		}
	}
	option = {
		name = devotion_events.3.b
		ai_chance = {
			factor = 50
			modifier = {
				factor = 0.25
				has_estate = estate_church
				NOT = {
					estate_loyalty = {
						estate = estate_church
						loyalty = 40
					}
				}
			}
		}
		add_devotion = -10
		reduce_estate_church_loyalty_effect = yes
	}
}

# Citizens complain about fort taxes
country_event = {
	id = devotion_events.4
	title = devotion_events.4.t
	desc = devotion_events.4.d
	picture = COUNTRY_COLLAPSE_eventPicture
	
	trigger = {
		has_dlc = "Common Sense"
		uses_devotion = yes
		any_owned_province = {
			has_influencing_fort = yes
			NOT = { is_capital = yes }
		}
	}
	
	is_triggered_only = yes
	
	mean_time_to_happen = {
		days = 1
	}
		
	option = {
		name = devotion_events.4.a
		every_owned_province = {
			limit = {
				has_influencing_fort = yes
				NOT = { is_capital = yes }
			}
			add_local_autonomy = 10
		}
	}
	
	option = {
		name = devotion_events.4.b
		every_owned_province = {
			limit = {
				has_influencing_fort = yes
				NOT = { is_capital = yes }
			}
			add_unrest = 5
		}
	}
}

# Embellishment of Forts 
country_event = {
	id = devotion_events.5
	title = devotion_events.5.t
	desc = devotion_events.5.d
	picture = FORT_eventPicture
	
	trigger = {
		has_dlc = "Common Sense"
		uses_devotion = yes
		any_owned_province = {
			has_influencing_fort = yes
		}		
	}
	
	is_triggered_only = yes
	
	mean_time_to_happen = {
		days = 1
	}
		
	option = {
		name = devotion_events.5.a
		add_devotion = 5
	}
	
	option = {
		name = devotion_events.5.b
		add_prestige = 10
	}
}

# The Quest for Religious Freedom
#country_event = {
#	id = devotion_events.6
#	title = devotion_events.6.t
#	desc = devotion_events.6.d
#	picture = PROTESTANT_GREAT_REFORMER_eventPicture
#	
#	trigger = {
#		has_dlc = "Common Sense"
#		uses_devotion = yes
#		religion = catholic
#		NOT = { has_reform = papacy_reform }
#		is_religion_enabled = protestant
#		any_owned_province = {
#			religion = catholic
#			development = 10
#			is_capital = no
#			any_neighbor_province = {
#				religion = protestant
#			}
#		}
#	}
#	
#	immediate = {
#		hidden_effect = {
#			random_owned_province = {
#				limit = {
#					religion = catholic
#					development = 10
#					is_capital = no
#					any_neighbor_province = {
#						religion = protestant
#					}
#				}
#				set_province_flag = prov_wants_rel_free
#			}
#		}
#	}
#	
#	is_triggered_only = yes
#	
#	mean_time_to_happen = {
#		days = 1
#	}
#		
#	option = {
#		name = devotion_events.6.a
#		ai_chance = {
#			factor = 50
#			modifier = {
#				factor = 0
#				has_estate = estate_burghers
#				NOT = {
#					estate_loyalty = {
#						estate = estate_burghers
#						loyalty = 40
#					}
#				}
#			}
#		}
#		add_devotion = 10
#		add_prestige = 25
#		reduce_estate_burghers_loyalty_effect = yes
#		random_owned_province = {
#			limit = { has_province_flag = prov_wants_rel_free }
#			add_base_production = -1
#			clr_province_flag = prov_wants_rel_free	
#		}
#	}
#	option = {
#		name = devotion_events.6.b
#		ai_chance = {
#			factor = 50
#		}
#		add_devotion = -25
#		add_estate_burghers_loyalty_effect = yes
#		random_owned_province = {
#			limit = { has_province_flag = prov_wants_rel_free }
#			change_religion = protestant
#			add_local_autonomy = 20
#			clr_province_flag = prov_wants_rel_free	
#		}
#	}
#}

# False Beliefs
country_event = {
	id = devotion_events.7
	title = devotion_events.7.t
	desc = devotion_events.7.d
	picture = RELIGION_eventPicture
	
	trigger = {
		has_dlc = "Common Sense"
		has_reform = monastic_order_reform
		any_owned_province = {
			base_production = 2
			is_in_capital_area = yes
			NOT = {
				religion_group = ROOT
			}
		}
	}
	
	is_triggered_only = yes
	
	mean_time_to_happen = {
		days = 1
	}
		
	option = {
		name = devotion_events.7.a
		ai_chance = {
			factor = 50
		}
		add_estate_church_loyalty_effect = yes
		add_devotion = 10
		random_owned_province = {
			limit = {
				base_production = 2
				is_in_capital_area = yes
				NOT = {
					religion_group = ROOT
				}
			}
			add_province_modifier = {
				name = dev_heretical_expulsion
				duration = 3650
			}
			add_base_production = -1
		}
	}
	
	option = {
		name = devotion_events.7.b
		ai_chance = {
			factor = 50
			modifier = {
				factor = 0
				has_estate = estate_church
				NOT = {
					estate_loyalty = {
						estate = estate_church
						loyalty = 40
					}
				}
			}
		}
		reduce_estate_church_loyalty_effect = yes
		add_devotion = -5
		add_prestige = -5
	}
}

# Forgery of Documents
country_event = {
	id = devotion_events.8
	title = devotion_events.8.t
	desc = devotion_events.8.d
	picture = ECONOMY_eventPicture
	
	trigger = {
		has_dlc = "Common Sense"
		uses_devotion = yes
	}
	
	is_triggered_only = yes
	
	mean_time_to_happen = {
		days = 1
	}
		
	option = {
		name = devotion_events.8.a
		add_adm_power = 50
		set_country_flag = dev_forged_documents_flag
		add_corruption = 0.5
		custom_tooltip = devotion_events.8.ct
	}
	
	option = {
		name = devotion_events.8.b
		add_devotion = 5
	}
}

# Forged Documents
country_event = {
	id = devotion_events.9
	title = devotion_events.9.t
	desc = devotion_events.9.d
	picture = ACCUSATION_eventPicture
	
	trigger = {
		has_dlc = "Common Sense"
		uses_devotion = yes
		has_country_flag = dev_forged_documents_flag

	}
	
	is_triggered_only = yes
	
	mean_time_to_happen = {
		days = 1
	}
		
	immediate = {
		hidden_effect = {
			clr_country_flag = dev_forged_documents_flag
		}
	}
	
	option = {
		name = devotion_events.9.a
		add_prestige = -10
	}
}

# The Local Noble
country_event = {
	id = devotion_events.10
	title = devotion_events.10.t
	desc = devotion_events.10.d
	picture = ELECTION_REPUBLICAN_eventPicture
	
	trigger = {
		has_dlc = "Common Sense"
		uses_devotion = yes
		has_country_flag = theo_local_noble_flag
		NOT = { devotion = 80 }
	}
	
	is_triggered_only = yes
	
	mean_time_to_happen = {
		days = 1
	}
		
	immediate = {
		hidden_effect = {
			clr_country_flag = theo_local_noble_flag
		}
	}
	
	option = {
		name = devotion_events.10.a
		add_devotion = 10
	}
}

# The Foreign Noble
country_event = {
	id = devotion_events.11
	title = devotion_events.11.t
	desc = devotion_events.11.d
	picture = ELECTION_REPUBLICAN_eventPicture
	
	trigger = {
		has_dlc = "Common Sense"
		uses_devotion = yes
		has_country_flag = theo_foreign_noble_flag
	}
	
	is_triggered_only = yes
	
	mean_time_to_happen = {
		days = 1
	}
		
	immediate = {
		hidden_effect = {
			clr_country_flag = theo_foreign_noble_flag
		}
	}
	
	option = {
		name = devotion_events.11.a
		add_dip_power = 50
	}
}

# The Merchant's Son
country_event = {
	id = devotion_events.12
	title = devotion_events.12.t
	desc = devotion_events.12.d
	picture = ELECTION_REPUBLICAN_eventPicture
	
	trigger = {
		has_dlc = "Common Sense"
		uses_devotion = yes
		has_country_flag = theo_merchants_son_flag
	}
	
	is_triggered_only = yes
	
	mean_time_to_happen = {
		days = 1
	}
		
	immediate = {
		hidden_effect = {
			clr_country_flag = theo_merchants_son_flag
		}
	}
	
	option = {
		name = devotion_events.12.a
		add_mercantilism = 1
	}
}

# The Talented Theologian
country_event = {
	id = devotion_events.13
	title = devotion_events.13.t
	desc = devotion_events.13.d
	picture = ELECTION_REPUBLICAN_eventPicture

	trigger = {
		has_dlc = "Common Sense"
		uses_devotion = yes
		has_country_flag = theo_talented_theologian_flag
	}
	
	is_triggered_only = yes
	
	mean_time_to_happen = {
		days = 1
	}
		
	immediate = {
		hidden_effect = {
			clr_country_flag = theo_talented_theologian_flag
		}
	}
	
	option = {
		name = devotion_events.13.a
		add_adm_power = 50
	}
}

# The Local Preacher
country_event = {
	id = devotion_events.14
	title = devotion_events.14.t
	desc = devotion_events.14.d
	picture = ELECTION_REPUBLICAN_eventPicture
	
	trigger = {
		has_dlc = "Common Sense"
		uses_devotion = yes
		has_country_flag = theo_local_preacher_flag
	}
	
	is_triggered_only = yes
	
	mean_time_to_happen = {
		days = 1
	}
		
	immediate = {
		hidden_effect = {
			clr_country_flag = theo_local_preacher_flag
		}
	}
	
	option = {
		name = devotion_events.14.a
		add_prestige = 10
		add_years_of_income = 0.1
	}
}

# An Influential Reformer
#country_event = {
#	id = devotion_events.26
#	title = devotion_events.26.t
#	desc = devotion_events.26.d
#	picture = PROTESTANT_GREAT_REFORMER_eventPicture
#	
#	trigger = {
#		has_dlc = "Common Sense"
#		uses_devotion = yes
#		OR = {
#			religion = reformed
#			religion = protestant
#		}
#		has_country_flag = theo_influential_reformer_flag
#	}
#	
#	is_triggered_only = yes
#	
#	mean_time_to_happen = {
#		days = 1
#	}
#		
#	immediate = {
#		hidden_effect = {
#			clr_country_flag = theo_influential_reformer_flag
#		}
#	}
#	
#	option = {
#		name = devotion_events.26.a
#		add_prestige = 10
#		if = { 
#			limit = { religion = reformed }
#			add_fervor = 15
#		}
#		if = { 
#			limit = { religion = protestant }
#			add_church_power = 15
#		}
#	}
#}

# Rule Challenged
country_event = {
	id = devotion_events.15
	title = devotion_events.15.t
	desc = devotion_events.15.d
	picture = ACCUSATION_eventPicture
	
	trigger = {
		has_dlc = "Common Sense"
		uses_devotion = yes
		NOT = { has_reform = papacy_reform }
	}
	
	is_triggered_only = yes
	
	mean_time_to_happen = {
		days = 1
	}
		
	option = {
		name = devotion_events.15.a
		add_devotion = -10
	}
}

# Banned Pilgrimages and Superstitious Practices
country_event = {
	id = devotion_events.16
	title = devotion_events.16.t
	desc = devotion_events.16.d
	picture = RELIGION_eventPicture
	
	trigger = {
		has_dlc = "Common Sense"
		uses_devotion = yes
		#NOT = {
		#	religion_group = muslim
		#}
		#Anbennar
		NOT = { has_adventurer_reform = yes }
		NOT = { has_reform = magocracy_reform }
		NOT = { 
			OR = {
				has_reform = wulin
				has_reform = xiaken
				has_reform = indep_xiaken
				has_reform = one_xia
			}
		}
	}
	
	is_triggered_only = yes
	
	mean_time_to_happen = {
		days = 1
	}
		
	option = {
		name = devotion_events.16.a
		ai_chance = {
			factor = 50
			modifier = {
				factor = 0.25
				has_estate = estate_church
				NOT = {
					estate_loyalty = {
						estate = estate_church
						loyalty = 40
					}
				}
			}
		}
		add_devotion = -10
		add_estate_burghers_loyalty_effect = yes
		reduce_estate_church_loyalty_effect = yes
	}
	option = {
		name = devotion_events.16.b
		ai_chance = {
			factor = 50
			modifier = {
				factor = 0.25
				has_estate = estate_burghers
				NOT = {
					estate_loyalty = {
						estate = estate_burghers
						loyalty = 40
					}
				}
			}
		}
		add_prestige = -10
		reduce_estate_burghers_loyalty_effect = yes
		add_estate_church_loyalty_effect = yes
	}
}

# The Great Feud
province_event = {
	id = devotion_events.17
	title = devotion_events.17.t
	desc = devotion_events.17.d
	picture = COUNTRY_COLLAPSE_eventPicture
	
	trigger = {
		has_dlc = "Common Sense"
		OR = {
			unrest = 1
			local_autonomy = 20
		}
		has_influencing_fort = yes
		is_capital = no
		owner = {
			government = theocracy
		}
		
	}
	
	is_mtth_scaled_to_size = 1
	
	mean_time_to_happen = {
		months = 360
	}
		
	option = {
		name = devotion_events.17.a
		ai_chance = {
			factor = 50
			modifier = {
				factor = 0.25
				owner = {
					has_estate = estate_burghers
					NOT = {
						estate_loyalty = {
							estate = estate_burghers
							loyalty = 40
						}
					}
				}
			}
		}
		owner = {
			reduce_estate_burghers_loyalty_effect = yes
		}
		add_province_modifier = {
			name = add_unrest_5_modifier
			duration = 3650
		}			
	}
	option = {
		name = devotion_events.17.b
		ai_chance = {
			factor = 50
			modifier = {
				factor = 0.25
				owner = {
					has_estate = estate_church
					NOT = {
						estate_loyalty = {
							estate = estate_church
							loyalty = 40
						}
					}
				}
			}
		}
		add_local_autonomy = 10			
		owner = { add_devotion = -10 }
		owner = {
			reduce_estate_church_loyalty_effect = yes
		}
	}
}

# The Mad Seer
country_event = {
	id = devotion_events.18
	title = devotion_events.18.t
	desc = devotion_events.18.d
	picture = BUDDHISM_BAD_eventPicture.dds
	
	trigger = {
		has_dlc = "Common Sense"
		uses_devotion = yes
		
		NOT = { has_adventurer_reform = yes }
		NOT = { has_reform = magocracy_reform }
		NOT = { 
			OR = {
				has_reform = wulin
				has_reform = xiaken
				has_reform = indep_xiaken
				has_reform = one_xia
			}
		}
	}
	
	is_triggered_only = yes
	
	mean_time_to_happen = {
		days = 1
	}
		
	option = {
		name = devotion_events.18.a
		ai_chance = {
			factor = 50
		}
		add_adm_power = -50
		add_estate_church_loyalty_effect = yes
	}
	option = {
		name = devotion_events.18.b
		ai_chance = {
			factor = 50
			modifier = {
				factor = 0
				has_estate = estate_church
				NOT = {
					estate_loyalty = {
						estate = estate_church
						loyalty = 40
					}
				}
			}
		}
		add_devotion = -10
		reduce_estate_church_loyalty_effect = yes
	}
}

# A Council after our own Tastes
country_event = {
	id = devotion_events.19
	title = devotion_events.19.t
	desc = devotion_events.19.d
	picture = DEBATE_REPUBLICAN_eventPicture
	
	trigger = {
		has_dlc = "Common Sense"
		uses_devotion = yes
		NOT = {
			advisor = theologian
		}
		NOT = { has_reform = papacy_reform }
		
		NOT = { has_adventurer_reform = yes }
		NOT = { has_reform = magocracy_reform }
		NOT = { 
			OR = {
				has_reform = wulin
				has_reform = xiaken
				has_reform = indep_xiaken
				has_reform = one_xia
			}
		}
	}
	
	is_triggered_only = yes
	
	mean_time_to_happen = {
		days = 1
	}
		
	option = {
		name = devotion_events.19.a
		generate_scaled_advisor_of_type_and_religion_effect = {
			type = theologian
			discount = yes
			religion = root
		}
	}
	option = {
		name = devotion_events.19.b
		add_devotion = 10
	}
}

# The Social and Political Conflict
province_event = {
	id = devotion_events.20
	title = devotion_events.20.t
	desc = devotion_events.20.d
	picture = DEBATE_REPUBLICAN_eventPicture
	
	trigger = {
		has_dlc = "Common Sense"
		local_autonomy = 25
		is_state = yes
		owner = {
			uses_devotion = yes
		}
		
	}
	
	is_mtth_scaled_to_size = 1
	
	mean_time_to_happen = {
		months = 360
	}
		
	option = {
		name = devotion_events.20.a
		ai_chance = {
			factor = 50
			modifier = {
				factor = 0
				owner = {
					has_estate = estate_burghers
					NOT = {
						estate_loyalty = {
							estate = estate_burghers
							loyalty = 40
						}
					}
				}
			}
		}
		add_local_autonomy = -25
		owner = {
			reduce_estate_burghers_loyalty_effect = yes
		}
		add_province_modifier = {
			name = add_unrest_5_modifier
			duration = 3650
		}
	}
	option = {
		name = devotion_events.20.b
		ai_chance = {
			factor = 50
		}
		owner = {
			add_estate_burghers_loyalty_effect = yes
		}
		owner = { add_devotion = 10 }
	}
}

# The Secularists Among Us
country_event = {
	id = devotion_events.21
	title = devotion_events.21.t
	desc = devotion_events.21.d
	picture = DEBATE_REPUBLICAN_eventPicture
	
	trigger = {
		has_dlc = "Common Sense"
		uses_devotion = yes
		NOT = {
			devotion = 20
		}
		NOT = { has_ruler_flag = denied_secularists }
		NOT = { has_reform = papacy_reform }
		
		NOT = { has_adventurer_reform = yes }
		NOT = { has_reform = magocracy_reform }
		NOT = { has_reform = secular_order_reform }
		NOT = { has_reform = magisterium_reform }
		NOT = { has_reform = oracular_order_reform }
		NOT = { 
			OR = {
				has_reform = wulin
				has_reform = xiaken
				has_reform = indep_xiaken
				has_reform = one_xia
			}
		}
	}
	
	
	mean_time_to_happen = {
		months = 3
	}
		
	option = {
		name = devotion_events.21.a
		ai_chance = {
			factor = 50
			modifier = {
				factor = 0
				has_estate = estate_church
				NOT = {
					estate_loyalty = {
						estate = estate_church
						loyalty = 40
					}
				}
			}
		}
		reduce_estate_church_loyalty_effect = yes
		change_government_to_monarchy = yes
		kill_ruler = yes
	}
	option = {
		name = devotion_events.21.b
		ai_chance = {
			factor = 50
		}
		set_ruler_flag = denied_secularists
		add_estate_church_loyalty_effect = yes
		add_devotion = 10
		add_prestige = -25
	}
}

# Decadent Ruler
country_event = {
	id = devotion_events.22
	title = devotion_events.22.t
	desc = devotion_events.22.d
	picture = COURT_eventPicture
	
	trigger = {
		has_dlc = "Common Sense"
		uses_devotion = yes
		NOT = {
			devotion = 50
		}
		
		NOT = { has_adventurer_reform = yes }
		NOT = { has_reform = magocracy_reform }
		NOT = { 
			OR = {
				has_reform = wulin
				has_reform = xiaken
				has_reform = indep_xiaken
				has_reform = one_xia
			}
		}
	}
	
	is_triggered_only = yes
	
	mean_time_to_happen = {
		days = 1
	}
		
	option = {
		name = devotion_events.22.a
		add_yearly_manpower = -1.0
		add_corruption = 2
		reduce_estate_church_loyalty_effect = yes
	}
}

# Corrupt [Root.Monarch.GetTitle]
country_event = {
	id = devotion_events.23
	title = devotion_events.23.t
	desc = devotion_events.23.d
	picture = CORRUPTION_eventPicture
	
	trigger = {
		has_dlc = "Common Sense"
		uses_devotion = yes
		NOT = {
			devotion = 50
		}
	}
	
	is_triggered_only = yes
	
	mean_time_to_happen = {
		days = 1
	}
		
	option = {
		name = devotion_events.23.a
		ai_chance = {
			factor = 50
			modifier = {
				factor = 0
				has_estate = estate_church
				NOT = {
					estate_loyalty = {
						estate = estate_church
						loyalty = 40
					}
				}
			}
		}
		add_stability = -1
		reduce_estate_church_loyalty_effect = yes
	}
	option = {
		name = devotion_events.23.b
		ai_chance = {
			factor = 50
		}
		add_corruption = 4
	}
}

# Volunteers for the Holy Fight
country_event = {
	id = devotion_events.24
	title = devotion_events.24.t
	desc = devotion_events.24.d
	picture = LAND_MILITARY_eventPicture
	
	trigger = {
		has_dlc = "Common Sense"
		uses_devotion = yes
		OR = {
			at_war_with_religious_enemy = yes
			any_neighbor_country = {
				truce_with = ROOT
				NOT = { religion = root }
			}
		}
		devotion = 75
		
		NOT = { has_adventurer_reform = yes }
		NOT = { has_reform = magocracy_reform }
		NOT = { 
			OR = {
				has_reform = wulin
				has_reform = xiaken
				has_reform = indep_xiaken
				has_reform = one_xia
			}
		}
	}
	
	is_triggered_only = yes
	
	mean_time_to_happen = {
		days = 1
	}
		
	option = {
		name = devotion_events.24.a
		add_yearly_manpower = 0.5
	}
}



### Events for Christian Theocracies

# Conflict between City and Bishopric
#country_event = {
#	id = devotion_events.100
#	title = devotion_events.100.t
#	desc = devotion_events.100.d
#	picture = ANGRY_MOB_eventPicture
#	
#	trigger = {
#		has_dlc = "Common Sense"
#		uses_devotion = yes
#		religion_group = christian
#		num_of_cities = 2
#		any_owned_province = {
#			local_autonomy = 25
#			is_state = yes
#		}
#		NOT = { has_reform = papacy_reform }
#	}
#	
#	is_triggered_only = yes
#	
#	mean_time_to_happen = {
#		days = 1
#	}
#		
#	option = {
#		name = devotion_events.100.a
#		ai_chance = {
#			factor = 50
#			modifier = {
#				factor = 0.25
#				has_estate = estate_church
#				NOT = {
#					estate_loyalty = {
#						estate = estate_church
#						loyalty = 40
#					}
#				}
#			}
#		}
#		add_adm_power = 50
#		reduce_estate_church_loyalty_effect = yes
#		add_estate_burghers_loyalty_effect = yes
#	}
#	
#	option = {
#		name = devotion_events.100.b
#		ai_chance = {
#			factor = 50
#			modifier = {
#				factor = 0.25
#				has_estate = estate_burghers
#				NOT = {
#					estate_loyalty = {
#						estate = estate_burghers
#						loyalty = 40
#					}
#				}
#			}
#		}
#		add_devotion = 10
#		reduce_estate_burghers_loyalty_effect = yes
#		add_estate_church_loyalty_effect = yes
#		random_owned_province = {
#			limit = {
#				local_autonomy = 25
#				is_state = yes
#			}
#			add_local_autonomy = -10
#			add_province_modifier = {
#				name = add_unrest_5_modifier
#				duration = 3650
#			}
#		}
#	}
#}
#
## The Lanterne of Light
#country_event = {
#	id = devotion_events.101
#	title = devotion_events.101.t
#	desc = devotion_events.101.d
#	picture = RELIGION_eventPicture
#	
#	trigger = {
#		has_dlc = "Common Sense"
#		uses_devotion = yes
#		religion_group = christian
#		OR = {
#			any_owned_province = {
#				NOT = {
#					religion = ROOT
#				}
#			}
#			NOT = { devotion = 50 }
#		}
#	}
#	
#	is_triggered_only = yes
#	
#	mean_time_to_happen = {
#		days = 1
#	}
#		
#	option = {
#		name = devotion_events.101.a
#		add_devotion = 10
#		add_prestige = -5
#	}
#	option = {
#		name = devotion_events.101.b
#		add_devotion = -5
#		add_prestige = 10
#	}
#}
#
## Unfair Taxes
#country_event = {
#	id = devotion_events.102
#	title = devotion_events.102.t
#	desc = devotion_events.102.d
#	picture = ANGRY_MOB_eventPicture
#	
#	trigger = {
#		has_dlc = "Common Sense"
#		uses_devotion = yes
#		religion_group = christian
#		any_owned_province = {
#			OR = {
#				unrest = 1
#				local_autonomy = 50
#			}
#			development = 10
#		}
#		NOT = { has_reform = papacy_reform }
#	}
#	
#	is_triggered_only = yes
#	
#	mean_time_to_happen = {
#		days = 1
#	}
#		
#	option = {
#		name = devotion_events.102.a
#		add_years_of_income = -0.1
#		add_adm_power = -10
#		country_event = {
#			id = devotion_events.103
#		}
#	}
#	option = {
#		name = devotion_events.102.b
#		add_devotion = 5
#	}
#}

# The Gala Dinner
country_event = {
	id = devotion_events.103
	title = devotion_events.103.t
	desc = devotion_events.103.d
	picture = DIPLOMACY_eventPicture
	
	is_triggered_only = yes
	
	option = {
		name = devotion_events.103.a
		add_devotion = 10
		random_owned_province = {
			limit = {
				OR = {
					unrest = 1
					local_autonomy = 50
				}
				development = 10
			}
			if = {
				limit = {
					unrest = 1
				}
				add_province_modifier = {
					name = remove_unrest_5_modifier
					duration = 3650
				}
			}
			if = {
				limit = {
					local_autonomy = 50
				}
				add_local_autonomy = -10
			}
		}
	}
	
	option = {
		name = devotion_events.103.b
		add_adm_power = 20
		add_dip_power = 20
		add_mil_power = 20
		add_estate_burghers_loyalty_effect = yes
	}
}

# Bonfire of the Vanities
#country_event = {
#	id = devotion_events.104
#	title = devotion_events.104.t
#	desc = devotion_events.104.d
#	picture = PROTESTANT_GREAT_REFORMER_eventPicture
#	
#	trigger = {
#		has_dlc = "Common Sense"
#		uses_devotion = yes
#		religion_group = christian
#		NOT = {
#			has_country_modifier = dev_bonfire_vanities_timer
#		}
#	}
#	
#	is_triggered_only = yes
#	
#	mean_time_to_happen = {
#		days = 1
#	}
#		
#	immediate = {
#		hidden_effect = {
#			add_country_modifier = {
#				name = dev_bonfire_vanities_timer
#				duration = 3650
#				hidden = yes
#			}
#		}
#	}
#	
#	option = {
#		name = devotion_events.104.a
#		add_devotion = 10
#	}
#	
#	option = {
#		name = devotion_events.104.b
#		add_prestige = 5
#	}
#}

# Bishop's Needle
#province_event = {
#	id = devotion_events.105
#	title = devotion_events.105.t
#	desc = devotion_events.105.d
#	picture = FORT_eventPicture
#	
#	trigger = {
#		has_dlc = "Common Sense"
#		religion_group = christian
#		has_building = fort_15th
#		local_autonomy = 50
#		is_state = yes
#		is_capital = no
#		NOT = { has_province_modifier = add_unrest_5_modifier }
#		owner = {
#			government = theocracy
#			religion_group = christian
#			NOT = { has_reform = papacy_reform }
#		}
#	}
#	
#	is_mtth_scaled_to_size = 1
#	
#	mean_time_to_happen = {
#		months = 360
#	}
#		
#	option = {
#		name = devotion_events.105.a
#		ai_chance = {
#			factor = 50
#			modifier = {
#				factor = 0
#				owner = {
#					has_estate = estate_burghers
#					NOT = {
#						estate_loyalty = {
#							estate = estate_burghers
#							loyalty = 40
#						}
#					}
#				}
#			}
#		}
#		owner = {
#			add_devotion = 10
#			reduce_estate_burghers_loyalty_effect = yes
#		}
#		add_local_autonomy = -10
#		add_province_modifier = {
#			name = add_unrest_5_modifier
#			duration = 3650
#		}
#	}
#	
#	option = {
#		name = devotion_events.105.b
#		ai_chance = {
#			factor = 50
#		}
#		owner = {
#			add_adm_power = 50
#			add_estate_burghers_loyalty_effect = yes
#		}
#		add_local_autonomy = 10
#	}
#}


# Jubilee
#country_event = {
#	id = devotion_events.107
#	title = devotion_events.107.t
#	desc = devotion_events.107.d
#	picture = POPE_PREACHING_eventPicture
#	
#	trigger = {
#		has_dlc = "Common Sense"
#		uses_devotion = yes
#		NOT = {
#			has_country_flag = dev_jubilee_flag
#		}
#		religion = catholic
#		has_reform = leading_clergy_reform
#	}
#	
#	is_triggered_only = yes
#	
#	mean_time_to_happen = {
#		days = 1
#	}
#		
#	option = {
#		name = devotion_events.107.a
#		set_country_flag = dev_jubilee_flag
#		add_country_modifier = {
#			name = dev_jubilee
#			duration = 3650
#		}
#		if = {
#			limit = {
#				religion = catholic
#				exists = PAP
#				PAP = {
#					religion = catholic
#				}
#			}
#			PAP = {
#				country_event = {
#					id = devotion_events.108
#				}
#			}
#		}
#	}
#	
#	option = {
#		name = devotion_events.107.b
#		add_devotion = 10
#	}
#}

# Pope gets the news
country_event = {
	id = devotion_events.108
	title = devotion_events.108.t
	desc = devotion_events.108.d
	picture = POPE_PREACHING_eventPicture

	is_triggered_only = yes
	
	option = {
		name = devotion_events.108.a
		add_opinion = {
			who = FROM
			modifier = opinion_jubilee_bad
		}
		FROM = {
			set_country_flag = dev_jubilee_bad_flag
			country_event = { id = devotion_events.109 }
		}
	}
	
	option = {
		name = devotion_events.108.b
		add_opinion = {
			who = FROM
			modifier = opinion_jubilee_good
		}
		FROM = {
			set_country_flag = dev_jubilee_good_flag
			country_event = { id = devotion_events.109 }
		}
	}
}

# Pope's Reaction to Jubilee
country_event = {
	id = devotion_events.109
	title = devotion_events.109.t
	desc = devotion_events.109.d
	picture = POPE_PREACHING_eventPicture
	
	is_triggered_only = yes
	
	option = {
		name = devotion_events.109.a
		trigger = {
			has_country_flag = dev_jubilee_bad_flag
		}
		tooltip = {
			PAP = {
				add_opinion = {
					who = ROOT
					modifier = opinion_jubilee_bad
				}
			}
		}
	}
	
	option = {
		name = devotion_events.109.b
		trigger = {
			has_country_flag = dev_jubilee_good_flag
		}
		clr_country_flag = dev_jubilee_good_flag
		tooltip = {
			PAP = {
				add_opinion = {
					who = ROOT
					modifier = opinion_jubilee_good
				}
			}
		}
	}
}

# The Papal Prot?g?
#country_event = {
#	id = devotion_events.110
#	title = devotion_events.110.t
#	desc = devotion_events.110.d
#	picture = POPE_PREACHING_eventPicture
#	
#	trigger = {
#		has_dlc = "Common Sense"
#		uses_devotion = yes
#		has_country_flag = theo_papal_protege_flag
#		religion = catholic
#	}
#	
#	is_triggered_only = yes
#	
#	mean_time_to_happen = {
#		days = 1
#	}
#		
#	immediate = {
#		hidden_effect = {
#			clr_country_flag = theo_papal_protege_flag
#		}
#	}
#	
#	option = {
#		name = devotion_events.110.a
#		add_devotion = 10
#	}
#}

# Confiscation of a Reformed Church
#country_event = {
#	id = devotion_events.117
#	title = devotion_events.117.t
#	desc = devotion_events.117.d
#	picture = ANGRY_MOB_eventPicture
#	
#	trigger = {
#		has_dlc = "Common Sense"
#		uses_devotion = yes
#		religion_group = christian
#		NOT = {
#			religion = reformed
#		}
#		is_religion_enabled = reformed
#		any_owned_province = {
#			religion = reformed
#		}
#		NOT = { has_reform = papacy_reform }
#	}
#	
#	is_triggered_only = yes
#	
#	mean_time_to_happen = {
#		days = 1
#	}
#		
#	option = {
#		name = devotion_events.117.a
#		random_owned_province = {
#			limit = {
#				religion = reformed
#			}
#			add_province_modifier = {
#				name = dev_confiscated_reformed_church
#				duration = 3650
#			}
#		}
#	}
#}

# Hallesches Heilthum
#country_event = {
#	id = devotion_events.118
#	title = devotion_events.118.t
#	desc = devotion_events.118.d
#	picture = ARTWORK_eventPicture
#	
#	trigger = {
#		has_dlc = "Common Sense"
#		uses_devotion = yes
#		religion_group = christian
#		NOT = {
#			devotion = 70
#		}
#	}
#	
#	is_triggered_only = yes
#	
#	mean_time_to_happen = {
#		days = 1
#	}
#		
#	option = {
#		name = devotion_events.118.a
#		trigger = {
#			OR = {
#				religion = reformed
#				religion = protestant
#			}
#		}
#		add_stability_or_adm_power = yes
#		add_devotion = 10
#	}
#	option = {
#		name = devotion_events.118.b
#		trigger = {
#			NOT = {
#				OR = {
#					religion = reformed
#					religion = protestant
#				}
#			}
#		}
#		add_stability_or_adm_power = yes
#		add_devotion = 10
#	}
#}

# The Nag's Head Rumor
#country_event = {
#	id = devotion_events.119
#	title = devotion_events.119.t
#	desc = devotion_events.119.d
#	picture = ACCUSATION_eventPicture
#	
#	trigger = {
#		has_dlc = "Common Sense"
#		uses_devotion = yes
#		religion_group = christian
#		NOT = { has_reform = papacy_reform }
#	}
#	
#	is_triggered_only = yes
#	
#	mean_time_to_happen = {
#		days = 1
#	}
#		
#	option = {
#		name = devotion_events.119.a
#		add_devotion = -10
#	}
#	option = {
#		name = devotion_events.119.b
#		add_prestige = -10
#	}
#}

### Events for Muslim Theocracies

# The Local Imam Khatib
#country_event = {
#	id = devotion_events.200
#	title = devotion_events.200.t
#	desc = devotion_events.200.d
#	picture = RELIGION_eventPicture
#	
#	trigger = {
#		has_dlc = "Common Sense"
#		religion_group = muslim
#		uses_devotion = yes
#		has_country_flag = theo_imam_khatib_flag
#	}
#	
#	is_triggered_only = yes
#	
#	mean_time_to_happen = {
#		days = 1
#	}
#		
#	immediate = {
#		hidden_effect = {
#			clr_country_flag = theo_imam_khatib_flag
#		}
#	}
#	
#	option = {
#		name = devotion_events.200.a
#		add_prestige = 10
#		add_years_of_income = 0.1
#	}
#}
#
## The Guiding Principles
#country_event = {
#	id = devotion_events.201
#	title = devotion_events.201.t
#	desc = devotion_events.201.d
#	picture = RELIGION_eventPicture
#	
#	trigger = {
#		has_dlc = "Common Sense"
#		religion_group = muslim
#		uses_devotion = yes
#	}
#	
#	is_triggered_only = yes
#	
#	mean_time_to_happen = {
#		days = 1
#	}
#		
#	option = {
#		name = devotion_events.201.a
#		add_devotion = 10
#	}
#	option = {
#		name = devotion_events.201.b
#		add_adm_power = 50
#	}
#}
#
## Heart of Mercy
#country_event = {
#	id = devotion_events.202
#	title = devotion_events.202.t
#	desc = devotion_events.202.d
#	picture = RELIGION_eventPicture
#	
#	trigger = {
#		has_dlc = "Common Sense"
#		religion_group = muslim
#		uses_devotion = yes
#		piety = 0.2
#	}
#	
#	is_triggered_only = yes
#	
#	mean_time_to_happen = {
#		days = 1
#	}
#		
#	option = {
#		name = devotion_events.202.a
#		add_devotion = 10
#		add_prestige = 5
#	}
#	option = {
#		name = devotion_events.202.b
#		add_dip_power = 50
#	}
#}
#
## Bayt al-mal
#country_event = {
#	id = devotion_events.203
#	title = devotion_events.203.t
#	desc = devotion_events.203.d
#	picture = FARMING_eventPicture
#	
#	trigger = {
#		has_dlc = "Common Sense"
#		religion_group = muslim
#		uses_devotion = yes
#		NOT = {
#			OR = {
#				is_bankrupt = yes
#				num_of_loans = 10
#			}
#		}
#	}
#	
#	is_triggered_only = yes
#	
#	mean_time_to_happen = {
#		days = 1
#	}
#		
#	option = {
#		name = devotion_events.203.a
#		add_years_of_income = 0.5
#	}
#	option = {
#		name = devotion_events.203.b
#		add_devotion = 20
#	}
#}
#
## The Education of Women
#country_event = {
#	id = devotion_events.204
#	title = devotion_events.204.t
#	desc = devotion_events.204.d
#	picture = BIG_BOOK_eventPicture
#	
#	trigger = {
#		has_dlc = "Common Sense"
#		religion_group = muslim
#		uses_devotion = yes
#		NOT = {
#			has_country_modifier = dev_educated_women
#		}
#	}
#	
#	is_triggered_only = yes
#	
#	mean_time_to_happen = {
#		days = 1
#	}
#		
#	option = {
#		name = devotion_events.204.a
#		add_country_modifier = {
#			name = dev_educated_women
#			duration = -1
#		}
#	}
#	option = {
#		name = devotion_events.204.b
#		add_prestige = 25
#		
#	}
#}
#
## The Bazaar
#country_event = {
#	id = devotion_events.205
#	title = devotion_events.205.t
#	desc = devotion_events.205.d
#	picture = MERCHANTS_TALKING_eventPicture
#
#	trigger = {
#		has_dlc = "Common Sense"
#		religion_group = muslim
#		uses_devotion = yes
#		OR = {
#			NOT = {
#				mercantilism = 50
#			}
#			NOT = {
#				trade_efficiency = 0.5
#			}
#		}
#	}
#	
#	is_triggered_only = yes
#	
#	mean_time_to_happen = {
#		days = 1
#	}
#		
#	option = {
#		name = devotion_events.205.a
#		ai_chance = {
#			factor = 50
#			modifier = {
#				factor = 0.25
#				has_estate = estate_church
#				NOT = {
#					estate_loyalty = {
#						estate = estate_church
#						loyalty = 40
#					}
#				}
#			}
#		}
#		add_mercantilism = 1
#		reduce_estate_church_loyalty_effect = yes
#	}
#	option = {
#		name = devotion_events.205.b
#		ai_chance = {
#			factor = 50
#		}
#		add_devotion = 10
#		add_estate_church_loyalty_effect = yes
#	}
#}
#
## Religious Cleansing
#province_event = {
#	id = devotion_events.206
#	title = devotion_events.206.t
#	desc = devotion_events.206.d
#	picture = RELIGION_eventPicture
#	
#	trigger = {
#		has_dlc = "Common Sense"
#		has_owner_religion = no
#		owner = {
#			religion_group = muslim
#			uses_devotion = yes
#			NOT = { tolerance_to_this = 0 }
#		}
#		religion_group = muslim
#		NOT = { has_province_modifier = dev_religious_cleansing }
#	}
#	
#	is_mtth_scaled_to_size = 1
#	
#	mean_time_to_happen = {
#		months = 360
#	}
#		
#	option = {
#		name = devotion_events.206.a
#		ai_chance = {
#			factor = 50
#		}
#		if = {
#			limit = {
#				owner = {
#					has_estate = estate_church
#				}
#			}
#			owner = {
#				add_estate_church_loyalty_effect = yes
#			}
#		}
#		add_province_modifier = {
#			name = dev_religious_cleansing
#			duration = 3650
#		}
#	}
#	option = {
#		name = devotion_events.206.b
#		ai_chance = {
#			factor = 50
#			modifier = {
#				factor = 0
#				owner = {
#					has_estate = estate_church
#					NOT = {
#						estate_loyalty = {
#							estate = estate_church
#							loyalty = 40
#						}
#					}
#				}
#			}
#		}
#		owner = {
#			add_piety = -0.10
#			add_devotion = 10
#		}
#		owner = {
#			reduce_estate_church_loyalty_effect = yes
#		}
#	}
#}
#
## The Corrupt Governor
#country_event = {
#	id = devotion_events.207
#	title = devotion_events.207.t
#	desc = devotion_events.207.d
#	picture = CORRUPTION_eventPicture
#	
#	trigger = {
#		has_dlc = "Common Sense"
#		religion_group = muslim
#		uses_devotion = yes
#		any_owned_province = {
#			OR = {
#				base_production = 3
#				base_tax = 3
#				unrest = 2
#			}
#		}
#	}
#	
#	is_triggered_only = yes
#	
#	mean_time_to_happen = {
#		days = 1
#	}
#		
#	option = {
#		name = devotion_events.207.a
#		add_adm_power = -100
#	}
#	option = {
#		name = devotion_events.207.b
#		add_devotion = -15
#	}
#	option = {
#		name = devotion_events.207.c
#		add_corruption = 1
#		random_owned_province = {
#			limit = {
#				OR = {
#					base_production = 3
#					base_tax = 3
#					unrest = 2
#				}
#			}
#			add_province_modifier = {
#				name = add_unrest_5_modifier
#				duration = 3650
#			}
#		}
#	}
#}
#
## A Kafir in Our Court
#country_event = {
#	id = devotion_events.208
#	title = devotion_events.208.t
#	desc = devotion_events.208.d
#	picture = ACCUSATION_eventPicture
#	
#	trigger = {
#		has_dlc = "Common Sense"
#		religion_group = muslim
#		uses_devotion = yes
#		OR = {
#			advisor = theologian
#			advisor = philosopher
#			advisor = natural_scientist
#			advisor = inquisitor
#		}
#	}
#	
#	is_triggered_only = yes
#	
#	mean_time_to_happen = {
#		days = 1
#		modifier = {
#			factor = 2
#			employed_advisor = {
#				category = ADM
#				religion = heathen
#			}
#		}
#		modifier = {
#			factor = 0.5
#			employed_advisor = {
#				category = ADM
#				religion = root
#			}
#		}
#	}
#		
#	option = {
#		name = devotion_events.208.a
#		ai_chance = {
#			factor = 33
#			modifier = {
#				factor = 0
#				has_estate = estate_church
#				NOT = {
#					estate_loyalty = {
#						estate = estate_church
#						loyalty = 40
#					}
#				}
#			}
#		}
#		add_devotion = -10
#		reduce_estate_church_loyalty_effect = yes
#	}
#	option = {
#		name = devotion_events.208.b
#		ai_chance = {
#			factor = 33
#		}
#		add_dip_power = -50
#	}
#	option = {
#		name = devotion_events.208.c
#		ai_chance = {
#			factor = 33
#		}
#		add_estate_church_loyalty_effect = yes
#		add_adm_power = -35
#		remove_advisor = theologian
#		remove_advisor = philosopher
#		remove_advisor = natural_scientist
#		remove_advisor = inquisitor
#	}
#}
#
## The Coup Against Decadence
#country_event = {
#	id = devotion_events.209
#	title = devotion_events.209.t
#	desc = devotion_events.209.d
#	picture = ANGRY_MOB_eventPicture
#	
#	trigger = {
#		has_dlc = "Common Sense"
#		religion_group = muslim
#		uses_devotion = yes
#		is_female = no
#		any_owned_province = {
#			unrest = 1
#		}
#		NOT = {
#			OR = {
#				adm = 3
#				dip = 3
#				mil = 3
#			}
#		}
#		NOT = {
#			OR = {
#				piety = 0
#				devotion = 50
#			}
#		}
#	}
#	
#	is_triggered_only = yes
#	
#	mean_time_to_happen = {
#		days = 1
#	}
#		
#	option = {
#		name = devotion_events.209.a
#		add_stability = -1
#	}
#	option = {
#		name = devotion_events.209.b
#		capital_scope = {
#			spawn_rebels = {
#				type = noble_rebels
#				size = 2
#			}
#		}
#	}
#}
#
## The Rafida
#country_event = {
#	id = devotion_events.210
#	title = devotion_events.210.t
#	desc = devotion_events.210.d
#	picture = RELIGION_eventPicture
#	
#	trigger = {
#		has_dlc = "Common Sense"
#		religion = sunni
#		uses_devotion = yes
#		any_owned_province = {
#			religion = shiite
#		}
#	}
#	
#	is_triggered_only = yes
#	
#	mean_time_to_happen = {
#		days = 1
#	}
#		
#	option = {
#		name = devotion_events.210.a
#		ai_chance = {
#			factor = 50
#		}
#		add_adm_power = -50
#		random_owned_province = {
#			limit = {
#				religion = shiite
#			}
#			add_province_modifier = {
#				name = dev_rafida
#				duration = 3650
#			}
#		}
#		add_estate_church_loyalty_effect = yes
#	}
#	option = {
#		name = devotion_events.210.b
#		ai_chance = {
#			factor = 50
#			modifier = {
#				factor = 0
#				has_estate = estate_church
#				NOT = {
#					estate_loyalty = {
#						estate = estate_church
#						loyalty = 40
#					}
#				}
#			}
#		}
#		add_devotion = -10
#		reduce_estate_church_loyalty_effect = yes
#	}
#}
#
## The Nasibi
#country_event = {
#	id = devotion_events.211
#	title = devotion_events.211.t
#	desc = devotion_events.211.d
#	picture = RELIGION_eventPicture
#	
#	trigger = {
#		has_dlc = "Common Sense"
#		religion = shiite
#		uses_devotion = yes
#		any_owned_province = {
#			religion = sunni
#		}
#	}
#	
#	is_triggered_only = yes
#	
#	mean_time_to_happen = {
#		days = 1
#	}
#		
#	option = {
#		name = devotion_events.211.a
#		ai_chance = {
#			factor = 50
#		}
#		random_owned_province = {
#			limit = {
#				religion = sunni
#			}
#			add_province_modifier = {
#				name = dev_nasibi
#				duration = 3650
#			}
#		}
#		add_estate_church_loyalty_effect = yes
#	}
#	option = {
#		name = devotion_events.211.b
#		ai_chance = {
#			factor = 50
#			modifier = {
#				factor = 0
#				has_estate = estate_church
#				NOT = {
#					estate_loyalty = {
#						estate = estate_church
#						loyalty = 40
#					}
#				}
#			}
#		}
#		add_devotion = -10
#		reduce_estate_church_loyalty_effect = yes
#	}
#}
#
## The Dishonesty in the Majlis
#country_event = {
#	id = devotion_events.212
#	title = devotion_events.212.t
#	desc = devotion_events.212.d
#	picture = DEBATE_REPUBLICAN_eventPicture
#	
#	trigger = {
#		has_dlc = "Common Sense"
#		religion_group = muslim
#		uses_devotion = yes
#		devotion = 50
#		piety = 0
#	}
#	
#	is_triggered_only = yes
#	
#	mean_time_to_happen = {
#		days = 1
#	}
#		
#	option = {
#		name = devotion_events.212.a
#		add_adm_power = -50
#	}
#	option = {
#		name = devotion_events.212.b
#		add_prestige = -10
#	}
#	option = {
#		name = devotion_events.212.c
#		add_devotion = -10
#	}
#}
#
## Advisor Accused of Shirk
#country_event = {
#	id = devotion_events.213
#	title = devotion_events.213.t
#	desc = devotion_events.213.d
#	picture = ACCUSATION_eventPicture
#	
#	trigger = {
#		has_dlc = "Common Sense"
#		religion_group = muslim
#		uses_devotion = yes
#		OR = {
#			advisor = statesman
#			advisor = trader
#			advisor = colonial_governor
#			advisor = diplomat
#		}
#	}
#	
#	is_triggered_only = yes
#	
#	mean_time_to_happen = {
#		days = 1
#	}
#		
#	option = {
#		name = devotion_events.213.a
#		add_dip_power = -35
#		remove_advisor = statesman
#		remove_advisor = trader
#		remove_advisor = colonial_governor
#		remove_advisor = diplomat
#	}
#	option = {
#		name = devotion_events.213.b
#		add_devotion = -10
#		add_piety = -0.10
#	}
#}
#
## Abolish Idolatry?
#country_event = {
#	id = devotion_events.214
#	title = devotion_events.214.t
#	desc = devotion_events.214.d
#	picture = RELIGION_eventPicture
#	
#	trigger = {
#		has_dlc = "Common Sense"
#		religion_group = muslim
#		uses_devotion = yes
#		NOT = {
#			devotion = 25
#		}
#		NOT = {
#			has_country_modifier = dev_idolatry_abolished
#		}
#		has_advisor = yes
#	}
#	
#	is_triggered_only = yes
#	
#	mean_time_to_happen = {
#		days = 1
#	}
#		
#	option = {
#		name = devotion_events.214.a
#		add_adm_power = -30
#		add_country_modifier = {
#			name = dev_idolatry_abolished
#			duration = 3650
#		}
#	}
#	option = {
#		name = devotion_events.214.b
#		add_prestige = 5
#		add_devotion = -5
#	}
#}
#
## Taxes or Agriculture
#country_event = {
#	id = devotion_events.215
#	title = devotion_events.215.t
#	desc = devotion_events.215.d
#	picture = FARMING_eventPicture
#	
#	trigger = {
#		has_dlc = "Common Sense"
#		religion_group = muslim
#		uses_devotion = yes
#	}
#	
#	is_triggered_only = yes
#	
#	mean_time_to_happen = {
#		days = 1
#	}
#		
#	option = {
#		name = devotion_events.215.a
#		add_devotion = 5
#		add_piety = -0.2
#		add_country_modifier = {
#			name = dev_focus_taxes
#			duration = 3650
#		}
#	}
#	option = {
#		name = devotion_events.215.b
#		add_devotion = 10
#		add_years_of_income = -0.2
#		add_country_modifier = {
#			name = dev_focus_agriculture
#			duration = 3650
#		}
#	}
#	option = {
#		name = devotion_events.215.c
#		add_piety = -0.1
#		add_years_of_income = -0.1
#		add_country_modifier = {
#			name = dev_balance_tax_agriculture
#			duration = 3650
#		}
#	}
#}
#
## Reforms of the Pious
#country_event = {
#	id = devotion_events.216
#	title = devotion_events.216.t
#	desc = devotion_events.216.d
#	picture = REFORM_eventPicture
#	
#	trigger = {
#		has_dlc = "Common Sense"
#		religion_group = muslim
#		uses_devotion = yes
#		devotion = 75
#		piety = 0.10
#		any_owned_province = {
#			NOT = {
#				local_autonomy = 25
#			}
#		}
#	}
#	
#	is_triggered_only = yes
#	
#	mean_time_to_happen = {
#		days = 1
#	}
#		
#	option = {
#		name = devotion_events.216.a
#		add_dip_power = 100
#	}
#	option = {
#		name = devotion_events.216.b
#		random_owned_province = {
#			add_base_production = 1
#		}
#		random_owned_province = {
#			add_base_production = 1
#		}
#	}
#	option = {
#		name = devotion_events.216.c
#		add_devotion = 10
#	}
#}
#
## New Schools
#country_event = {
#	id = devotion_events.217
#	title = devotion_events.217.t
#	desc = devotion_events.217.d
#	picture = UNIVERSITY_eventPicture
#	
#	trigger = {
#		has_dlc = "Common Sense"
#		religion_group = muslim
#		uses_devotion = yes
#		NOT = {
#			OR = {
#				has_country_modifier = dev_hadith_madrasa
#				has_country_modifier = dev_fiqah_madrasa
#				has_country_modifier = dev_hadith_fiqah_madrasa
#			}
#		}
#	}
#	
#	is_triggered_only = yes
#	
#	mean_time_to_happen = {
#		days = 1
#	}
#		
#	option = {
#		name = devotion_events.217.a
#		ai_chance = {
#			factor = 25
#			modifier = {
#				factor = 1.5
#				has_estate = estate_church
#				NOT = {
#					estate_loyalty = {
#						estate = estate_church
#						loyalty = 40
#					}
#				}
#			}
#		}
#		add_years_of_income = -0.25
#		add_estate_church_loyalty_effect = yes
#		add_country_modifier = {
#			name = dev_hadith_madrasa
#			duration = 3650
#		}
#	}
#	option = {
#		name = devotion_events.217.b
#		ai_chance = {
#			factor = 25
#			modifier = {
#				factor = 1.5
#				has_estate = estate_church
#				NOT = {
#					estate_loyalty = {
#						estate = estate_church
#						loyalty = 40
#					}
#				}
#			}
#		}
#		add_years_of_income = -0.25
#		add_estate_church_loyalty_effect = yes
#		add_country_modifier = {
#			name = dev_fiqah_madrasa
#			duration = 3650
#		}
#	}
#	option = {
#		name = devotion_events.217.c
#		ai_chance = {
#			factor = 25
#		}
#		add_years_of_income = -0.5
#		add_estate_church_loyalty_effect = yes
#		add_country_modifier = {
#			name = dev_hadith_fiqah_madrasa
#			duration = 3650
#		}
#	}
#	option = {
#		name = devotion_events.217.e
#		ai_chance = {
#			factor = 25
#		}
#		add_devotion = -5
#	}
#}
#
## The Sulh
#country_event = {
#	id = devotion_events.218
#	title = devotion_events.218.t
#	desc = devotion_events.218.d
#	picture = DIPLOMACY_eventPicture
#	
#	trigger = {
#		has_dlc = "Common Sense"
#		religion_group = muslim
#		uses_devotion = yes
#		any_owned_province = {
#			local_autonomy = 25
#			unrest = 1
#		}
#	}
#	
#	is_triggered_only = yes
#	
#	mean_time_to_happen = {
#		days = 1
#	}
#		
#	option = {
#		name = devotion_events.218.a
#		random_owned_province = {
#			limit = {
#				local_autonomy = 25
#				unrest = 1
#			}
#			add_local_autonomy = 15
#		}
#	}
#	option = {
#		name = devotion_events.218.b
#		random_owned_province = {
#			limit = {
#				local_autonomy = 25
#				unrest = 1
#			}
#			add_province_modifier = {
#				name = add_unrest_5_modifier
#				duration = 3650
#			}
#		}
#	}
#	option = {
#		name = devotion_events.218.c
#		add_devotion = -5
#	}
#}
#
## The Qadi, the Hisbah and the Mutaween
#country_event = {
#	id = devotion_events.219
#	title = devotion_events.219.t
#	desc = devotion_events.219.d
#	picture = RELIGION_eventPicture
#	
#	trigger = {
#		has_dlc = "Common Sense"
#		religion_group = muslim
#		uses_devotion = yes
#		NOT = {
#			OR = {
#				piety = 0
#				stability = 1
#			}
#		}
#		any_owned_province = {
#			NOT = { religion = ROOT }
#		}
#	}
#	
#	is_triggered_only = yes
#	
#	mean_time_to_happen = {
#		days = 1
#	}
#		
#	option = {
#		name = devotion_events.219.a
#		add_piety = 0.10
#		add_country_modifier = {
#			name = dev_mutaween
#			duration = 3650
#		}
#	}
#	option = {
#		name = devotion_events.219.b
#		add_devotion = -10
#	}
#}
